{"failedCount":0,"prefixedPath":"classpath:features\/crudOperations\/CRUD_allrequests.feature","packageQualifiedName":"features.crudOperations.CRUD_allrequests","loopIndex":-1,"relativePath":"features\/crudOperations\/CRUD_allrequests.feature","scenarioResults":[{"sectionIndex":0,"stepResults":[{"result":{"nanos":1321100,"startTime":1752069161476,"endTime":1752069161477,"millis":1.3211,"status":"passed"},"step":{"background":true,"line":4,"prefix":"*","index":0,"text":"url 'https:\/\/reqres.in'"},"stepLog":"19:22:41.366 karate.env system property was: null \n19:22:41.440 karate config: {\n  \"env\": \"dev\",\n  \"baseAppUrl\": \"https:\/\/reqres.in\",\n  \"timeout\": 30000,\n  \"retryCount\": 3,\n  \"retryInterval\": 1000,\n  \"baseUrl\": \"https:\/\/reqres.in\"\n}\n \n"},{"result":{"nanos":1070300,"startTime":1752069161489,"endTime":1752069161490,"millis":1.0703,"status":"passed"},"step":{"background":true,"line":5,"prefix":"*","index":1,"text":"header x-api-key = 'reqres-free-v1'"}},{"result":{"nanos":7209300,"startTime":1752069161491,"endTime":1752069161498,"millis":7.2093,"status":"passed"},"step":{"background":true,"line":6,"prefix":"*","index":2,"text":"header Content-Type = 'application\/json'"}},{"result":{"nanos":6037300,"startTime":1752069161498,"endTime":1752069161504,"millis":6.0373,"status":"passed"},"step":{"line":10,"prefix":"Given","index":0,"text":"path 'api', 'users'"}},{"result":{"nanos":1971100,"startTime":1752069161504,"endTime":1752069161506,"millis":1.9711,"status":"passed"},"step":{"line":11,"prefix":"And","index":1,"text":"param page = 2"}},{"result":{"nanos":1402402200,"startTime":1752069161506,"endTime":1752069162908,"millis":1402.4022,"status":"passed"},"step":{"line":12,"prefix":"When","index":2,"text":"method GET"},"stepLog":"19:22:42.065 request:\n1 > GET https:\/\/reqres.in\/api\/users?page=2\n1 > x-api-key: reqres-free-v1\n1 > Content-Type: application\/json\n1 > Host: reqres.in\n1 > Connection: Keep-Alive\n1 > User-Agent: Apache-HttpClient\/4.5.14 (Java\/11.0.22)\n1 > Accept-Encoding: gzip,deflate\n\n\n19:22:42.897 response time in milliseconds: 810\n1 < 200\n1 < Date: Wed, 09 Jul 2025 13:52:43 GMT\n1 < Content-Type: application\/json; charset=utf-8\n1 < Transfer-Encoding: chunked\n1 < Connection: keep-alive\n1 < Report-To: {\"group\":\"heroku-nel\",\"max_age\":3600,\"endpoints\":[{\"url\":\"https:\/\/nel.heroku.com\/reports?ts=1752065334&sid=c4c9725f-1ab0-44d8-820f-430df2718e11&s=XfqfrMtf%2BLGJlUyLHT5MgP0pfYzfAPBJKBcNKumotCs%3D\"}]}\n1 < Reporting-Endpoints: heroku-nel=https:\/\/nel.heroku.com\/reports?ts=1752065334&sid=c4c9725f-1ab0-44d8-820f-430df2718e11&s=XfqfrMtf%2BLGJlUyLHT5MgP0pfYzfAPBJKBcNKumotCs%3D\n1 < Nel: {\"report_to\":\"heroku-nel\",\"max_age\":3600,\"success_fraction\":0.005,\"failure_fraction\":0.05,\"response_headers\":[\"Via\"]}\n1 < Access-Control-Allow-Origin: *\n1 < X-Request-Id: 5aa1ad46-5a59-4e62-9101-dd14ed150aad\n1 < X-Content-Type-Options: nosniff\n1 < X-Frame-Options: DENY\n1 < X-Xss-Protection: 1; mode=block\n1 < Referrer-Policy: strict-origin-when-cross-origin\n1 < Ratelimit-Policy: 100;w=60\n1 < Ratelimit-Limit: 100\n1 < Ratelimit-Remaining: 98\n1 < Ratelimit-Reset: 60\n1 < Etag: W\/\"440-ZjsmMKR8P3usr2uJZbOCGCxC3Uw\"\n1 < Via: 1.1 vegur\n1 < Cache-Control: max-age=14400\n1 < CF-Cache-Status: HIT\n1 < Age: 3829\n1 < Vary: Accept-Encoding\n1 < Server: cloudflare\n1 < CF-RAY: 95c84db1f86b5037-SIN\n1 < server-timing: cfL4;desc=\"?proto=TCP&rtt=83360&min_rtt=80108&rtt_var=28168&sent=7&recv=8&lost=0&retrans=0&sent_bytes=3106&recv_bytes=741&delivery_rate=40282&cwnd=252&unsent_bytes=0&cid=5eee63c296c7352d&ts=291&x=0\"\n{\"page\":2,\"per_page\":6,\"total\":12,\"total_pages\":2,\"data\":[{\"id\":7,\"email\":\"michael.lawson@reqres.in\",\"first_name\":\"Michael\",\"last_name\":\"Lawson\",\"avatar\":\"https:\/\/reqres.in\/img\/faces\/7-image.jpg\"},{\"id\":8,\"email\":\"lindsay.ferguson@reqres.in\",\"first_name\":\"Lindsay\",\"last_name\":\"Ferguson\",\"avatar\":\"https:\/\/reqres.in\/img\/faces\/8-image.jpg\"},{\"id\":9,\"email\":\"tobias.funke@reqres.in\",\"first_name\":\"Tobias\",\"last_name\":\"Funke\",\"avatar\":\"https:\/\/reqres.in\/img\/faces\/9-image.jpg\"},{\"id\":10,\"email\":\"byron.fields@reqres.in\",\"first_name\":\"Byron\",\"last_name\":\"Fields\",\"avatar\":\"https:\/\/reqres.in\/img\/faces\/10-image.jpg\"},{\"id\":11,\"email\":\"george.edwards@reqres.in\",\"first_name\":\"George\",\"last_name\":\"Edwards\",\"avatar\":\"https:\/\/reqres.in\/img\/faces\/11-image.jpg\"},{\"id\":12,\"email\":\"rachel.howell@reqres.in\",\"first_name\":\"Rachel\",\"last_name\":\"Howell\",\"avatar\":\"https:\/\/reqres.in\/img\/faces\/12-image.jpg\"}],\"support\":{\"url\":\"https:\/\/contentcaddy.io?utm_source=reqres&utm_medium=json&utm_campaign=referral\",\"text\":\"Tired of writing endless social media content? Let Content Caddy generate it for you.\"}}\n\n"},{"result":{"nanos":36400,"startTime":1752069162908,"endTime":1752069162908,"millis":0.0364,"status":"passed"},"step":{"line":13,"prefix":"Then","index":3,"text":"status 200"}},{"result":{"nanos":38015700,"startTime":1752069162908,"endTime":1752069162946,"millis":38.0157,"status":"passed"},"step":{"line":14,"prefix":"And","index":4,"text":"match response.data != null"}}],"line":9,"description":"","durationMillis":1458.0634,"failed":false,"tags":["get"],"executorName":"pool-1-thread-1","name":"GET list of users","startTime":1752069161199,"refId":"[1:9]","endTime":1752069162947,"exampleIndex":-1},{"sectionIndex":1,"stepResults":[{"result":{"nanos":3193600,"startTime":1752069161476,"endTime":1752069161479,"millis":3.1936,"status":"passed"},"step":{"background":true,"line":4,"prefix":"*","index":0,"text":"url 'https:\/\/reqres.in'"},"stepLog":"19:22:41.369 karate.env system property was: null \n19:22:41.438 karate config: {\n  \"env\": \"dev\",\n  \"baseAppUrl\": \"https:\/\/reqres.in\",\n  \"timeout\": 30000,\n  \"retryCount\": 3,\n  \"retryInterval\": 1000,\n  \"baseUrl\": \"https:\/\/reqres.in\"\n}\n \n"},{"result":{"nanos":927900,"startTime":1752069161516,"endTime":1752069161517,"millis":0.9279,"status":"passed"},"step":{"background":true,"line":5,"prefix":"*","index":1,"text":"header x-api-key = 'reqres-free-v1'"}},{"result":{"nanos":1783000,"startTime":1752069161524,"endTime":1752069161526,"millis":1.783,"status":"passed"},"step":{"background":true,"line":6,"prefix":"*","index":2,"text":"header Content-Type = 'application\/json'"}},{"result":{"nanos":30082500,"startTime":1752069161526,"endTime":1752069161556,"millis":30.0825,"status":"passed"},"step":{"endLine":24,"line":18,"prefix":"*","docString":"{\n  \"name\": \"Raj\",\n  \"job\": \"QA Engineer\"\n}","index":0,"text":"def requestBody ="}},{"result":{"nanos":1117300,"startTime":1752069161557,"endTime":1752069161558,"millis":1.1173,"status":"passed"},"step":{"line":25,"prefix":"Given","index":1,"text":"path 'api', 'users'"}},{"result":{"nanos":4862800,"startTime":1752069161558,"endTime":1752069161563,"millis":4.8628,"status":"passed"},"step":{"line":26,"prefix":"And","index":2,"text":"request requestBody"}},{"result":{"nanos":1616713300,"startTime":1752069161563,"endTime":1752069163180,"millis":1616.7133,"status":"passed"},"step":{"line":27,"prefix":"When","index":3,"text":"method POST"},"stepLog":"19:22:42.065 request:\n1 > POST https:\/\/reqres.in\/api\/users\n1 > x-api-key: reqres-free-v1\n1 > Content-Type: application\/json; charset=UTF-8\n1 > Content-Length: 34\n1 > Host: reqres.in\n1 > Connection: Keep-Alive\n1 > User-Agent: Apache-HttpClient\/4.5.14 (Java\/11.0.22)\n1 > Accept-Encoding: gzip,deflate\n{\"name\":\"Raj\",\"job\":\"QA Engineer\"}\n\n19:22:43.176 response time in milliseconds: 1107\n1 < 201\n1 < Date: Wed, 09 Jul 2025 13:52:44 GMT\n1 < Content-Type: application\/json; charset=utf-8\n1 < Content-Length: 84\n1 < Connection: keep-alive\n1 < CF-RAY: 95c84db1ec25c90f-SIN\n1 < Report-To: {\"group\":\"heroku-nel\",\"max_age\":3600,\"endpoints\":[{\"url\":\"https:\/\/nel.heroku.com\/reports?ts=1752069164&sid=c4c9725f-1ab0-44d8-820f-430df2718e11&s=%2FGRm%2Bh%2BOk0h1UIr591t2E7tmXlBYM43lDXJJwPeDnLA%3D\"}]}\n1 < Reporting-Endpoints: heroku-nel=https:\/\/nel.heroku.com\/reports?ts=1752069164&sid=c4c9725f-1ab0-44d8-820f-430df2718e11&s=%2FGRm%2Bh%2BOk0h1UIr591t2E7tmXlBYM43lDXJJwPeDnLA%3D\n1 < Nel: {\"report_to\":\"heroku-nel\",\"max_age\":3600,\"success_fraction\":0.005,\"failure_fraction\":0.05,\"response_headers\":[\"Via\"]}\n1 < Access-Control-Allow-Origin: *\n1 < X-Request-Id: c2ccb791-f83f-4994-8843-941f6671a17d\n1 < X-Content-Type-Options: nosniff\n1 < X-Frame-Options: DENY\n1 < X-Xss-Protection: 1; mode=block\n1 < Referrer-Policy: strict-origin-when-cross-origin\n1 < Ratelimit-Policy: 100;w=60\n1 < Ratelimit-Limit: 100\n1 < Ratelimit-Remaining: 98\n1 < Ratelimit-Reset: 60\n1 < Etag: W\/\"54-2gC6aLLSF87b\/RGfJMv2RYp7fFc\"\n1 < Via: 1.1 vegur\n1 < cf-cache-status: DYNAMIC\n1 < Server: cloudflare\n1 < server-timing: cfL4;desc=\"?proto=TCP&rtt=83236&min_rtt=80113&rtt_var=21915&sent=7&recv=9&lost=0&retrans=0&sent_bytes=3106&recv_bytes=804&delivery_rate=40800&cwnd=252&unsent_bytes=0&cid=edbc43c9cc4b7726&ts=643&x=0\"\n{\"name\":\"Raj\",\"job\":\"QA Engineer\",\"id\":\"179\",\"createdAt\":\"2025-07-09T13:52:44.108Z\"}\n\n"},{"result":{"nanos":24600,"startTime":1752069163180,"endTime":1752069163180,"millis":0.0246,"status":"passed"},"step":{"line":28,"prefix":"Then","index":4,"text":"status 201"}},{"result":{"nanos":2717500,"startTime":1752069163180,"endTime":1752069163183,"millis":2.7175,"status":"passed"},"step":{"line":29,"prefix":"And","index":5,"text":"match response.name == \"Raj\""}}],"line":17,"description":"","durationMillis":1661.4225,"failed":false,"tags":["post"],"executorName":"pool-1-thread-2","name":"POST - Create a new user","startTime":1752069161200,"refId":"[2:17]","endTime":1752069163184,"exampleIndex":-1},{"sectionIndex":2,"stepResults":[{"result":{"nanos":615400,"startTime":1752069161479,"endTime":1752069161480,"millis":0.6154,"status":"passed"},"step":{"background":true,"line":4,"prefix":"*","index":0,"text":"url 'https:\/\/reqres.in'"},"stepLog":"19:22:41.367 karate.env system property was: null \n19:22:41.445 karate config: {\n  \"env\": \"dev\",\n  \"baseAppUrl\": \"https:\/\/reqres.in\",\n  \"timeout\": 30000,\n  \"retryCount\": 3,\n  \"retryInterval\": 1000,\n  \"baseUrl\": \"https:\/\/reqres.in\"\n}\n \n"},{"result":{"nanos":956200,"startTime":1752069161508,"endTime":1752069161509,"millis":0.9562,"status":"passed"},"step":{"background":true,"line":5,"prefix":"*","index":1,"text":"header x-api-key = 'reqres-free-v1'"}},{"result":{"nanos":446700,"startTime":1752069161509,"endTime":1752069161509,"millis":0.4467,"status":"passed"},"step":{"background":true,"line":6,"prefix":"*","index":2,"text":"header Content-Type = 'application\/json'"}},{"result":{"nanos":57935000,"startTime":1752069161510,"endTime":1752069161568,"millis":57.935,"status":"passed"},"step":{"endLine":39,"line":33,"prefix":"*","docString":"{\n  \"name\": \"Raj Updated\",\n  \"job\": \"Senior QA\"\n}","index":0,"text":"def updateBody ="}},{"result":{"nanos":1367600,"startTime":1752069161567,"endTime":1752069161568,"millis":1.3676,"status":"passed"},"step":{"line":40,"prefix":"Given","index":1,"text":"path 'api', 'users', 2"}},{"result":{"nanos":860600,"startTime":1752069161569,"endTime":1752069161570,"millis":0.8606,"status":"passed"},"step":{"line":41,"prefix":"And","index":2,"text":"request updateBody"}},{"result":{"nanos":1632906200,"startTime":1752069161570,"endTime":1752069163203,"millis":1632.9062,"status":"passed"},"step":{"line":42,"prefix":"When","index":3,"text":"method PUT"},"stepLog":"19:22:42.065 request:\n1 > PUT https:\/\/reqres.in\/api\/users\/2\n1 > x-api-key: reqres-free-v1\n1 > Content-Type: application\/json; charset=UTF-8\n1 > Content-Length: 40\n1 > Host: reqres.in\n1 > Connection: Keep-Alive\n1 > User-Agent: Apache-HttpClient\/4.5.14 (Java\/11.0.22)\n1 > Accept-Encoding: gzip,deflate\n{\"name\":\"Raj Updated\",\"job\":\"Senior QA\"}\n\n19:22:43.200 response time in milliseconds: 1135\n1 < 200\n1 < Date: Wed, 09 Jul 2025 13:52:44 GMT\n1 < Content-Type: application\/json; charset=utf-8\n1 < Transfer-Encoding: chunked\n1 < Connection: keep-alive\n1 < Report-To: {\"group\":\"heroku-nel\",\"max_age\":3600,\"endpoints\":[{\"url\":\"https:\/\/nel.heroku.com\/reports?ts=1752069164&sid=c4c9725f-1ab0-44d8-820f-430df2718e11&s=%2FGRm%2Bh%2BOk0h1UIr591t2E7tmXlBYM43lDXJJwPeDnLA%3D\"}]}\n1 < Reporting-Endpoints: heroku-nel=https:\/\/nel.heroku.com\/reports?ts=1752069164&sid=c4c9725f-1ab0-44d8-820f-430df2718e11&s=%2FGRm%2Bh%2BOk0h1UIr591t2E7tmXlBYM43lDXJJwPeDnLA%3D\n1 < Nel: {\"report_to\":\"heroku-nel\",\"max_age\":3600,\"success_fraction\":0.005,\"failure_fraction\":0.05,\"response_headers\":[\"Via\"]}\n1 < Access-Control-Allow-Origin: *\n1 < X-Request-Id: 1d84e636-d3ae-4378-84b3-a61b5dd4ab21\n1 < X-Content-Type-Options: nosniff\n1 < X-Frame-Options: DENY\n1 < X-Xss-Protection: 1; mode=block\n1 < Referrer-Policy: strict-origin-when-cross-origin\n1 < Ratelimit-Policy: 100;w=60\n1 < Ratelimit-Limit: 100\n1 < Ratelimit-Remaining: 92\n1 < Ratelimit-Reset: 60\n1 < Etag: W\/\"4f-bqCBi+SzfcvvRCs2NHEyrJJyiGU\"\n1 < Via: 1.1 vegur\n1 < CF-Cache-Status: DYNAMIC\n1 < Vary: Accept-Encoding\n1 < Server: cloudflare\n1 < CF-RAY: 95c84db1e8511184-SIN\n1 < server-timing: cfL4;desc=\"?proto=TCP&rtt=79366&min_rtt=74925&rtt_var=28772&sent=7&recv=8&lost=0&retrans=0&sent_bytes=3107&recv_bytes=811&delivery_rate=40324&cwnd=252&unsent_bytes=0&cid=7b8d9406b8d38f45&ts=668&x=0\"\n{\"name\":\"Raj Updated\",\"job\":\"Senior QA\",\"updatedAt\":\"2025-07-09T13:52:44.124Z\"}\n\n"},{"result":{"nanos":13800,"startTime":1752069163202,"endTime":1752069163202,"millis":0.0138,"status":"passed"},"step":{"line":43,"prefix":"Then","index":4,"text":"status 200"}},{"result":{"nanos":1652600,"startTime":1752069163202,"endTime":1752069163204,"millis":1.6526,"status":"passed"},"step":{"line":44,"prefix":"And","index":5,"text":"match response.name == \"Raj Updated\""}}],"line":32,"description":"","durationMillis":1696.7541,"failed":false,"tags":["put"],"executorName":"pool-1-thread-3","name":"PUT - Update user information","startTime":1752069161198,"refId":"[3:32]","endTime":1752069163204,"exampleIndex":-1},{"sectionIndex":3,"stepResults":[{"result":{"nanos":733500,"startTime":1752069161478,"endTime":1752069161479,"millis":0.7335,"status":"passed"},"step":{"background":true,"line":4,"prefix":"*","index":0,"text":"url 'https:\/\/reqres.in'"},"stepLog":"19:22:41.369 karate.env system property was: null \n19:22:41.443 karate config: {\n  \"env\": \"dev\",\n  \"baseAppUrl\": \"https:\/\/reqres.in\",\n  \"timeout\": 30000,\n  \"retryCount\": 3,\n  \"retryInterval\": 1000,\n  \"baseUrl\": \"https:\/\/reqres.in\"\n}\n \n"},{"result":{"nanos":2146900,"startTime":1752069161511,"endTime":1752069161513,"millis":2.1469,"status":"passed"},"step":{"background":true,"line":5,"prefix":"*","index":1,"text":"header x-api-key = 'reqres-free-v1'"}},{"result":{"nanos":2109700,"startTime":1752069161513,"endTime":1752069161515,"millis":2.1097,"status":"passed"},"step":{"background":true,"line":6,"prefix":"*","index":2,"text":"header Content-Type = 'application\/json'"}},{"result":{"nanos":44557200,"startTime":1752069161515,"endTime":1752069161560,"millis":44.5572,"status":"passed"},"step":{"endLine":53,"line":48,"prefix":"*","docString":"{\n  \"job\": \"Lead QA\"\n}","index":0,"text":"def patchBody ="}},{"result":{"nanos":1944700,"startTime":1752069161559,"endTime":1752069161561,"millis":1.9447,"status":"passed"},"step":{"line":54,"prefix":"Given","index":1,"text":"path 'api', 'users', 2"}},{"result":{"nanos":3744200,"startTime":1752069161561,"endTime":1752069161565,"millis":3.7442,"status":"passed"},"step":{"line":55,"prefix":"And","index":2,"text":"request patchBody"}},{"result":{"nanos":1654977000,"startTime":1752069161564,"endTime":1752069163219,"millis":1654.977,"status":"passed"},"step":{"line":56,"prefix":"When","index":3,"text":"method PATCH"},"stepLog":"19:22:42.064 request:\n1 > PATCH https:\/\/reqres.in\/api\/users\/2\n1 > x-api-key: reqres-free-v1\n1 > Content-Type: application\/json; charset=UTF-8\n1 > Content-Length: 17\n1 > Host: reqres.in\n1 > Connection: Keep-Alive\n1 > User-Agent: Apache-HttpClient\/4.5.14 (Java\/11.0.22)\n1 > Accept-Encoding: gzip,deflate\n{\"job\":\"Lead QA\"}\n\n19:22:43.216 response time in milliseconds: 1140\n1 < 200\n1 < Date: Wed, 09 Jul 2025 13:52:44 GMT\n1 < Content-Type: application\/json; charset=utf-8\n1 < Transfer-Encoding: chunked\n1 < Connection: keep-alive\n1 < Report-To: {\"group\":\"heroku-nel\",\"max_age\":3600,\"endpoints\":[{\"url\":\"https:\/\/nel.heroku.com\/reports?ts=1752069164&sid=c4c9725f-1ab0-44d8-820f-430df2718e11&s=%2FGRm%2Bh%2BOk0h1UIr591t2E7tmXlBYM43lDXJJwPeDnLA%3D\"}]}\n1 < Reporting-Endpoints: heroku-nel=https:\/\/nel.heroku.com\/reports?ts=1752069164&sid=c4c9725f-1ab0-44d8-820f-430df2718e11&s=%2FGRm%2Bh%2BOk0h1UIr591t2E7tmXlBYM43lDXJJwPeDnLA%3D\n1 < Nel: {\"report_to\":\"heroku-nel\",\"max_age\":3600,\"success_fraction\":0.005,\"failure_fraction\":0.05,\"response_headers\":[\"Via\"]}\n1 < Access-Control-Allow-Origin: *\n1 < X-Request-Id: b964bfa8-fe71-43e4-81b8-285b5a8cc54a\n1 < X-Content-Type-Options: nosniff\n1 < X-Frame-Options: DENY\n1 < X-Xss-Protection: 1; mode=block\n1 < Referrer-Policy: strict-origin-when-cross-origin\n1 < Ratelimit-Policy: 100;w=60\n1 < Ratelimit-Limit: 100\n1 < Ratelimit-Remaining: 94\n1 < Ratelimit-Reset: 60\n1 < Etag: W\/\"38-zmoMD1J9GgGC1eP5cor\/DEMXU+Y\"\n1 < Via: 1.1 vegur\n1 < cf-cache-status: DYNAMIC\n1 < Server: cloudflare\n1 < CF-RAY: 95c84db1e86b1184-SIN\n1 < server-timing: cfL4;desc=\"?proto=TCP&rtt=82710&min_rtt=79892&rtt_var=27355&sent=7&recv=8&lost=0&retrans=0&sent_bytes=3106&recv_bytes=790&delivery_rate=41187&cwnd=252&unsent_bytes=0&cid=8ca9b407c8b95892&ts=650&x=0\"\n{\"job\":\"Lead QA\",\"updatedAt\":\"2025-07-09T13:52:44.120Z\"}\n\n"},{"result":{"nanos":6200,"startTime":1752069163220,"endTime":1752069163220,"millis":0.0062,"status":"passed"},"step":{"line":57,"prefix":"Then","index":4,"text":"status 200"}},{"result":{"nanos":2877600,"startTime":1752069163220,"endTime":1752069163223,"millis":2.8776,"status":"passed"},"step":{"line":58,"prefix":"And","index":5,"text":"match response.job == \"Lead QA\""}}],"line":47,"description":"","durationMillis":1713.097,"failed":false,"tags":["patch"],"executorName":"pool-1-thread-4","name":"PATCH - Partially update user","startTime":1752069161199,"refId":"[4:47]","endTime":1752069163223,"exampleIndex":-1},{"sectionIndex":4,"stepResults":[{"result":{"nanos":697500,"startTime":1752069161480,"endTime":1752069161481,"millis":0.6975,"status":"passed"},"step":{"background":true,"line":4,"prefix":"*","index":0,"text":"url 'https:\/\/reqres.in'"},"stepLog":"19:22:41.368 karate.env system property was: null \n19:22:41.432 karate config: {\n  \"env\": \"dev\",\n  \"baseAppUrl\": \"https:\/\/reqres.in\",\n  \"timeout\": 30000,\n  \"retryCount\": 3,\n  \"retryInterval\": 1000,\n  \"baseUrl\": \"https:\/\/reqres.in\"\n}\n \n"},{"result":{"nanos":661600,"startTime":1752069161517,"endTime":1752069161518,"millis":0.6616,"status":"passed"},"step":{"background":true,"line":5,"prefix":"*","index":1,"text":"header x-api-key = 'reqres-free-v1'"}},{"result":{"nanos":355400,"startTime":1752069161518,"endTime":1752069161518,"millis":0.3554,"status":"passed"},"step":{"background":true,"line":6,"prefix":"*","index":2,"text":"header Content-Type = 'application\/json'"}},{"result":{"nanos":4874100,"startTime":1752069161519,"endTime":1752069161524,"millis":4.8741,"status":"passed"},"step":{"line":62,"prefix":"Given","index":0,"text":"path 'api', 'users', 2"}},{"result":{"nanos":1687115200,"startTime":1752069161524,"endTime":1752069163211,"millis":1687.1152,"status":"passed"},"step":{"line":63,"prefix":"When","index":1,"text":"method DELETE"},"stepLog":"19:22:42.064 request:\n1 > DELETE https:\/\/reqres.in\/api\/users\/2\n1 > x-api-key: reqres-free-v1\n1 > Content-Type: application\/json\n1 > Host: reqres.in\n1 > Connection: Keep-Alive\n1 > User-Agent: Apache-HttpClient\/4.5.14 (Java\/11.0.22)\n1 > Accept-Encoding: gzip,deflate\n\n\n19:22:43.208 response time in milliseconds: 1142\n1 < 204\n1 < Date: Wed, 09 Jul 2025 13:52:44 GMT\n1 < Connection: keep-alive\n1 < CF-RAY: 95c84db1eba97e2e-SIN\n1 < Report-To: {\"group\":\"heroku-nel\",\"max_age\":3600,\"endpoints\":[{\"url\":\"https:\/\/nel.heroku.com\/reports?ts=1752069164&sid=c4c9725f-1ab0-44d8-820f-430df2718e11&s=%2FGRm%2Bh%2BOk0h1UIr591t2E7tmXlBYM43lDXJJwPeDnLA%3D\"}]}\n1 < Reporting-Endpoints: heroku-nel=https:\/\/nel.heroku.com\/reports?ts=1752069164&sid=c4c9725f-1ab0-44d8-820f-430df2718e11&s=%2FGRm%2Bh%2BOk0h1UIr591t2E7tmXlBYM43lDXJJwPeDnLA%3D\n1 < Nel: {\"report_to\":\"heroku-nel\",\"max_age\":3600,\"success_fraction\":0.005,\"failure_fraction\":0.05,\"response_headers\":[\"Via\"]}\n1 < Access-Control-Allow-Origin: *\n1 < X-Request-Id: 10590d68-f197-4839-88bd-3b61264df52e\n1 < X-Content-Type-Options: nosniff\n1 < X-Frame-Options: DENY\n1 < X-Xss-Protection: 1; mode=block\n1 < Referrer-Policy: strict-origin-when-cross-origin\n1 < Ratelimit-Policy: 100;w=60\n1 < Ratelimit-Limit: 100\n1 < Ratelimit-Remaining: 96\n1 < Ratelimit-Reset: 60\n1 < Etag: W\/\"2-vyGp6PvFo4RvsFtPoIWeCReyIC8\"\n1 < Via: 1.1 vegur\n1 < cf-cache-status: DYNAMIC\n1 < Server: cloudflare\n1 < server-timing: cfL4;desc=\"?proto=TCP&rtt=83374&min_rtt=80044&rtt_var=28285&sent=7&recv=8&lost=0&retrans=0&sent_bytes=3106&recv_bytes=739&delivery_rate=40167&cwnd=252&unsent_bytes=0&cid=0892fe302f5f1322&ts=657&x=0\"\n\n\n"},{"result":{"nanos":11500,"startTime":1752069163210,"endTime":1752069163210,"millis":0.0115,"status":"passed"},"step":{"line":64,"prefix":"Then","index":2,"text":"status 204"}}],"line":61,"description":"","durationMillis":1693.7153,"failed":false,"tags":["delete"],"executorName":"pool-1-thread-5","name":"DELETE - Delete user","startTime":1752069161198,"refId":"[5:61]","endTime":1752069163210,"exampleIndex":-1}],"callDepth":0,"name":"Reqres API Test Scenarios with Different HTTP Methods","description":"","resultDate":"2025-07-09 07:22:43 PM","durationMillis":8223.0523,"passedCount":5}