{"failedCount":0,"prefixedPath":"classpath:features\/crudOperations\/CRUD_allrequests.feature","packageQualifiedName":"features.crudOperations.CRUD_allrequests","loopIndex":-1,"relativePath":"features\/crudOperations\/CRUD_allrequests.feature","scenarioResults":[{"sectionIndex":0,"stepResults":[{"result":{"nanos":1638600,"startTime":1752069606946,"endTime":1752069606948,"millis":1.6386,"status":"passed"},"step":{"background":true,"line":4,"prefix":"*","index":0,"text":"url 'https:\/\/reqres.in'"},"stepLog":"19:30:06.851 karate.env system property was: null \n19:30:06.914 karate config: {\n  \"env\": \"dev\",\n  \"baseAppUrl\": \"https:\/\/reqres.in\",\n  \"timeout\": 30000,\n  \"retryCount\": 3,\n  \"retryInterval\": 1000,\n  \"baseUrl\": \"https:\/\/reqres.in\"\n}\n \n"},{"result":{"nanos":925700,"startTime":1752069606987,"endTime":1752069606988,"millis":0.9257,"status":"passed"},"step":{"background":true,"line":5,"prefix":"*","index":1,"text":"header x-api-key = 'reqres-free-v1'"}},{"result":{"nanos":716900,"startTime":1752069606988,"endTime":1752069606989,"millis":0.7169,"status":"passed"},"step":{"background":true,"line":6,"prefix":"*","index":2,"text":"header Content-Type = 'application\/json'"}},{"result":{"nanos":11251000,"startTime":1752069606989,"endTime":1752069607000,"millis":11.251,"status":"passed"},"step":{"line":10,"prefix":"Given","index":0,"text":"path 'api', 'users'"}},{"result":{"nanos":908300,"startTime":1752069607001,"endTime":1752069607002,"millis":0.9083,"status":"passed"},"step":{"line":11,"prefix":"And","index":1,"text":"param page = 2"}},{"result":{"nanos":998661900,"startTime":1752069607002,"endTime":1752069608001,"millis":998.6619,"status":"passed"},"step":{"line":12,"prefix":"When","index":2,"text":"method GET"},"stepLog":"19:30:07.376 request:\n1 > GET https:\/\/reqres.in\/api\/users?page=2\n1 > x-api-key: reqres-free-v1\n1 > Content-Type: application\/json\n1 > Host: reqres.in\n1 > Connection: Keep-Alive\n1 > User-Agent: Apache-HttpClient\/4.5.14 (Java\/11.0.22)\n1 > Accept-Encoding: gzip,deflate\n\n\n19:30:07.999 response time in milliseconds: 610\n1 < 200\n1 < Date: Wed, 09 Jul 2025 14:00:09 GMT\n1 < Content-Type: application\/json; charset=utf-8\n1 < Transfer-Encoding: chunked\n1 < Connection: keep-alive\n1 < Report-To: {\"group\":\"heroku-nel\",\"max_age\":3600,\"endpoints\":[{\"url\":\"https:\/\/nel.heroku.com\/reports?ts=1752065342&sid=c4c9725f-1ab0-44d8-820f-430df2718e11&s=g0RakwMO6IGZgSl1SKPtWGGJwH0T4koILTXD65RKziA%3D\"}]}\n1 < Reporting-Endpoints: heroku-nel=https:\/\/nel.heroku.com\/reports?ts=1752065342&sid=c4c9725f-1ab0-44d8-820f-430df2718e11&s=g0RakwMO6IGZgSl1SKPtWGGJwH0T4koILTXD65RKziA%3D\n1 < Nel: {\"report_to\":\"heroku-nel\",\"max_age\":3600,\"success_fraction\":0.005,\"failure_fraction\":0.05,\"response_headers\":[\"Via\"]}\n1 < Access-Control-Allow-Origin: *\n1 < X-Request-Id: 3a7cd48d-4883-485b-9630-409072890b9f\n1 < X-Content-Type-Options: nosniff\n1 < X-Frame-Options: DENY\n1 < X-Xss-Protection: 1; mode=block\n1 < Referrer-Policy: strict-origin-when-cross-origin\n1 < Ratelimit-Policy: 100;w=60\n1 < Ratelimit-Limit: 100\n1 < Ratelimit-Remaining: 98\n1 < Ratelimit-Reset: 60\n1 < Etag: W\/\"440-ZjsmMKR8P3usr2uJZbOCGCxC3Uw\"\n1 < Via: 1.1 vegur\n1 < Cache-Control: max-age=14400\n1 < CF-Cache-Status: HIT\n1 < Age: 4267\n1 < Vary: Accept-Encoding\n1 < Server: cloudflare\n1 < CF-RAY: 95c858904cc83c46-BOM\n1 < server-timing: cfL4;desc=\"?proto=TCP&rtt=46403&min_rtt=40440&rtt_var=17497&sent=7&recv=9&lost=0&retrans=0&sent_bytes=3106&recv_bytes=741&delivery_rate=64671&cwnd=252&unsent_bytes=0&cid=282403c900871f6e&ts=200&x=0\"\n{\"page\":2,\"per_page\":6,\"total\":12,\"total_pages\":2,\"data\":[{\"id\":7,\"email\":\"michael.lawson@reqres.in\",\"first_name\":\"Michael\",\"last_name\":\"Lawson\",\"avatar\":\"https:\/\/reqres.in\/img\/faces\/7-image.jpg\"},{\"id\":8,\"email\":\"lindsay.ferguson@reqres.in\",\"first_name\":\"Lindsay\",\"last_name\":\"Ferguson\",\"avatar\":\"https:\/\/reqres.in\/img\/faces\/8-image.jpg\"},{\"id\":9,\"email\":\"tobias.funke@reqres.in\",\"first_name\":\"Tobias\",\"last_name\":\"Funke\",\"avatar\":\"https:\/\/reqres.in\/img\/faces\/9-image.jpg\"},{\"id\":10,\"email\":\"byron.fields@reqres.in\",\"first_name\":\"Byron\",\"last_name\":\"Fields\",\"avatar\":\"https:\/\/reqres.in\/img\/faces\/10-image.jpg\"},{\"id\":11,\"email\":\"george.edwards@reqres.in\",\"first_name\":\"George\",\"last_name\":\"Edwards\",\"avatar\":\"https:\/\/reqres.in\/img\/faces\/11-image.jpg\"},{\"id\":12,\"email\":\"rachel.howell@reqres.in\",\"first_name\":\"Rachel\",\"last_name\":\"Howell\",\"avatar\":\"https:\/\/reqres.in\/img\/faces\/12-image.jpg\"}],\"support\":{\"url\":\"https:\/\/contentcaddy.io?utm_source=reqres&utm_medium=json&utm_campaign=referral\",\"text\":\"Tired of writing endless social media content? Let Content Caddy generate it for you.\"}}\n\n"},{"result":{"nanos":33000,"startTime":1752069608000,"endTime":1752069608000,"millis":0.033,"status":"passed"},"step":{"line":13,"prefix":"Then","index":3,"text":"status 200"}},{"result":{"nanos":79312500,"startTime":1752069608000,"endTime":1752069608079,"millis":79.3125,"status":"passed"},"step":{"line":14,"prefix":"And","index":4,"text":"match response.data != null"}}],"line":9,"description":"","durationMillis":1093.4479,"failed":false,"tags":["get"],"executorName":"pool-1-thread-1","name":"GET list of users","startTime":1752069606690,"refId":"[1:9]","endTime":1752069608079,"exampleIndex":-1},{"sectionIndex":1,"stepResults":[{"result":{"nanos":3386300,"startTime":1752069606957,"endTime":1752069606960,"millis":3.3863,"status":"passed"},"step":{"background":true,"line":4,"prefix":"*","index":0,"text":"url 'https:\/\/reqres.in'"},"stepLog":"19:30:06.850 karate.env system property was: null \n19:30:06.955 karate config: {\n  \"env\": \"dev\",\n  \"baseAppUrl\": \"https:\/\/reqres.in\",\n  \"timeout\": 30000,\n  \"retryCount\": 3,\n  \"retryInterval\": 1000,\n  \"baseUrl\": \"https:\/\/reqres.in\"\n}\n \n"},{"result":{"nanos":505100,"startTime":1752069606988,"endTime":1752069606989,"millis":0.5051,"status":"passed"},"step":{"background":true,"line":5,"prefix":"*","index":1,"text":"header x-api-key = 'reqres-free-v1'"}},{"result":{"nanos":1412800,"startTime":1752069606989,"endTime":1752069606990,"millis":1.4128,"status":"passed"},"step":{"background":true,"line":6,"prefix":"*","index":2,"text":"header Content-Type = 'application\/json'"}},{"result":{"nanos":50312800,"startTime":1752069606990,"endTime":1752069607040,"millis":50.3128,"status":"passed"},"step":{"endLine":24,"line":18,"prefix":"*","docString":"{\n  \"name\": \"Raj\",\n  \"job\": \"QA Engineer\"\n}","index":0,"text":"def requestBody ="}},{"result":{"nanos":7577300,"startTime":1752069607041,"endTime":1752069607049,"millis":7.5773,"status":"passed"},"step":{"line":25,"prefix":"Given","index":1,"text":"path 'api', 'users'"}},{"result":{"nanos":633400,"startTime":1752069607048,"endTime":1752069607049,"millis":0.6334,"status":"passed"},"step":{"line":26,"prefix":"And","index":2,"text":"request requestBody"}},{"result":{"nanos":1238350900,"startTime":1752069607049,"endTime":1752069608287,"millis":1238.3509,"status":"passed"},"step":{"line":27,"prefix":"When","index":3,"text":"method POST"},"stepLog":"19:30:07.361 request:\n1 > POST https:\/\/reqres.in\/api\/users\n1 > x-api-key: reqres-free-v1\n1 > Content-Type: application\/json; charset=UTF-8\n1 > Content-Length: 34\n1 > Host: reqres.in\n1 > Connection: Keep-Alive\n1 > User-Agent: Apache-HttpClient\/4.5.14 (Java\/11.0.22)\n1 > Accept-Encoding: gzip,deflate\n{\"name\":\"Raj\",\"job\":\"QA Engineer\"}\n\n19:30:08.287 response time in milliseconds: 925\n1 < 201\n1 < Date: Wed, 09 Jul 2025 14:00:09 GMT\n1 < Content-Type: application\/json; charset=utf-8\n1 < Content-Length: 84\n1 < Connection: keep-alive\n1 < CF-RAY: 95c858903c623b73-BOM\n1 < Report-To: {\"group\":\"heroku-nel\",\"max_age\":3600,\"endpoints\":[{\"url\":\"https:\/\/nel.heroku.com\/reports?ts=1752069609&sid=c4c9725f-1ab0-44d8-820f-430df2718e11&s=nTIGbAmuMH3DHY1WTfiJjaa%2BBM9YhyaWOAK5a227EwU%3D\"}]}\n1 < Reporting-Endpoints: heroku-nel=https:\/\/nel.heroku.com\/reports?ts=1752069609&sid=c4c9725f-1ab0-44d8-820f-430df2718e11&s=nTIGbAmuMH3DHY1WTfiJjaa%2BBM9YhyaWOAK5a227EwU%3D\n1 < Nel: {\"report_to\":\"heroku-nel\",\"max_age\":3600,\"success_fraction\":0.005,\"failure_fraction\":0.05,\"response_headers\":[\"Via\"]}\n1 < Access-Control-Allow-Origin: *\n1 < X-Request-Id: 7cda72cc-1b51-445e-b800-d60de839181d\n1 < X-Content-Type-Options: nosniff\n1 < X-Frame-Options: DENY\n1 < X-Xss-Protection: 1; mode=block\n1 < Referrer-Policy: strict-origin-when-cross-origin\n1 < Ratelimit-Policy: 100;w=60\n1 < Ratelimit-Limit: 100\n1 < Ratelimit-Remaining: 89\n1 < Ratelimit-Reset: 60\n1 < Etag: W\/\"54-qr76\/vM6Hv6CGeT0Jv2tou2DxIA\"\n1 < Via: 1.1 vegur\n1 < cf-cache-status: DYNAMIC\n1 < Server: cloudflare\n1 < server-timing: cfL4;desc=\"?proto=TCP&rtt=45415&min_rtt=39911&rtt_var=20767&sent=7&recv=8&lost=0&retrans=0&sent_bytes=3105&recv_bytes=804&delivery_rate=59713&cwnd=252&unsent_bytes=0&cid=042d7e8185d4b6cc&ts=481&x=0\"\n{\"name\":\"Raj\",\"job\":\"QA Engineer\",\"id\":\"272\",\"createdAt\":\"2025-07-09T14:00:09.253Z\"}\n\n"},{"result":{"nanos":9900,"startTime":1752069608288,"endTime":1752069608288,"millis":0.0099,"status":"passed"},"step":{"line":28,"prefix":"Then","index":4,"text":"status 201"}},{"result":{"nanos":944800,"startTime":1752069608288,"endTime":1752069608289,"millis":0.9448,"status":"passed"},"step":{"line":29,"prefix":"And","index":5,"text":"match response.name == \"Raj\""}}],"line":17,"description":"","durationMillis":1303.1333,"failed":false,"tags":["post"],"executorName":"pool-1-thread-2","name":"POST - Create a new user","startTime":1752069606690,"refId":"[2:17]","endTime":1752069608289,"exampleIndex":-1},{"sectionIndex":2,"stepResults":[{"result":{"nanos":1788700,"startTime":1752069606956,"endTime":1752069606958,"millis":1.7887,"status":"passed"},"step":{"background":true,"line":4,"prefix":"*","index":0,"text":"url 'https:\/\/reqres.in'"},"stepLog":"19:30:06.850 karate.env system property was: null \n19:30:06.913 karate config: {\n  \"env\": \"dev\",\n  \"baseAppUrl\": \"https:\/\/reqres.in\",\n  \"timeout\": 30000,\n  \"retryCount\": 3,\n  \"retryInterval\": 1000,\n  \"baseUrl\": \"https:\/\/reqres.in\"\n}\n \n"},{"result":{"nanos":4837800,"startTime":1752069606981,"endTime":1752069606986,"millis":4.8378,"status":"passed"},"step":{"background":true,"line":5,"prefix":"*","index":1,"text":"header x-api-key = 'reqres-free-v1'"}},{"result":{"nanos":297300,"startTime":1752069606986,"endTime":1752069606986,"millis":0.2973,"status":"passed"},"step":{"background":true,"line":6,"prefix":"*","index":2,"text":"header Content-Type = 'application\/json'"}},{"result":{"nanos":55314800,"startTime":1752069606986,"endTime":1752069607041,"millis":55.3148,"status":"passed"},"step":{"endLine":39,"line":33,"prefix":"*","docString":"{\n  \"name\": \"Raj Updated\",\n  \"job\": \"Senior QA\"\n}","index":0,"text":"def updateBody ="}},{"result":{"nanos":1024000,"startTime":1752069607042,"endTime":1752069607043,"millis":1.024,"status":"passed"},"step":{"line":40,"prefix":"Given","index":1,"text":"path 'api', 'users', 2"}},{"result":{"nanos":1626100,"startTime":1752069607043,"endTime":1752069607045,"millis":1.6261,"status":"passed"},"step":{"line":41,"prefix":"And","index":2,"text":"request updateBody"}},{"result":{"nanos":1198555400,"startTime":1752069607045,"endTime":1752069608244,"millis":1198.5554,"status":"passed"},"step":{"line":42,"prefix":"When","index":3,"text":"method PUT"},"stepLog":"19:30:07.370 request:\n1 > PUT https:\/\/reqres.in\/api\/users\/2\n1 > x-api-key: reqres-free-v1\n1 > Content-Type: application\/json; charset=UTF-8\n1 > Content-Length: 40\n1 > Host: reqres.in\n1 > Connection: Keep-Alive\n1 > User-Agent: Apache-HttpClient\/4.5.14 (Java\/11.0.22)\n1 > Accept-Encoding: gzip,deflate\n{\"name\":\"Raj Updated\",\"job\":\"Senior QA\"}\n\n19:30:08.243 response time in milliseconds: 871\n1 < 200\n1 < Date: Wed, 09 Jul 2025 14:00:09 GMT\n1 < Content-Type: application\/json; charset=utf-8\n1 < Transfer-Encoding: chunked\n1 < Connection: keep-alive\n1 < Report-To: {\"group\":\"heroku-nel\",\"max_age\":3600,\"endpoints\":[{\"url\":\"https:\/\/nel.heroku.com\/reports?ts=1752069609&sid=c4c9725f-1ab0-44d8-820f-430df2718e11&s=nTIGbAmuMH3DHY1WTfiJjaa%2BBM9YhyaWOAK5a227EwU%3D\"}]}\n1 < Reporting-Endpoints: heroku-nel=https:\/\/nel.heroku.com\/reports?ts=1752069609&sid=c4c9725f-1ab0-44d8-820f-430df2718e11&s=nTIGbAmuMH3DHY1WTfiJjaa%2BBM9YhyaWOAK5a227EwU%3D\n1 < Nel: {\"report_to\":\"heroku-nel\",\"max_age\":3600,\"success_fraction\":0.005,\"failure_fraction\":0.05,\"response_headers\":[\"Via\"]}\n1 < Access-Control-Allow-Origin: *\n1 < X-Request-Id: 044f23bd-7283-418a-9bb3-81603ea69c26\n1 < X-Content-Type-Options: nosniff\n1 < X-Frame-Options: DENY\n1 < X-Xss-Protection: 1; mode=block\n1 < Referrer-Policy: strict-origin-when-cross-origin\n1 < Ratelimit-Policy: 100;w=60\n1 < Ratelimit-Limit: 100\n1 < Ratelimit-Remaining: 98\n1 < Ratelimit-Reset: 60\n1 < Etag: W\/\"4f-P\/8pdPQTJ6qrG\/7C0+foQR2bhug\"\n1 < Via: 1.1 vegur\n1 < CF-Cache-Status: DYNAMIC\n1 < Vary: Accept-Encoding\n1 < Server: cloudflare\n1 < CF-RAY: 95c858904ed53b3a-BOM\n1 < server-timing: cfL4;desc=\"?proto=TCP&rtt=42573&min_rtt=40407&rtt_var=19486&sent=7&recv=8&lost=0&retrans=0&sent_bytes=3105&recv_bytes=811&delivery_rate=65569&cwnd=252&unsent_bytes=0&cid=6e113e40d9f36e54&ts=459&x=0\"\n{\"name\":\"Raj Updated\",\"job\":\"Senior QA\",\"updatedAt\":\"2025-07-09T14:00:09.240Z\"}\n\n"},{"result":{"nanos":10800,"startTime":1752069608244,"endTime":1752069608244,"millis":0.0108,"status":"passed"},"step":{"line":43,"prefix":"Then","index":4,"text":"status 200"}},{"result":{"nanos":1143100,"startTime":1752069608244,"endTime":1752069608245,"millis":1.1431,"status":"passed"},"step":{"line":44,"prefix":"And","index":5,"text":"match response.name == \"Raj Updated\""}}],"line":32,"description":"","durationMillis":1264.598,"failed":false,"tags":["put"],"executorName":"pool-1-thread-3","name":"PUT - Update user information","startTime":1752069606690,"refId":"[3:32]","endTime":1752069608245,"exampleIndex":-1},{"sectionIndex":3,"stepResults":[{"result":{"nanos":561500,"startTime":1752069606958,"endTime":1752069606959,"millis":0.5615,"status":"passed"},"step":{"background":true,"line":4,"prefix":"*","index":0,"text":"url 'https:\/\/reqres.in'"},"stepLog":"19:30:06.850 karate.env system property was: null \n19:30:06.933 karate config: {\n  \"env\": \"dev\",\n  \"baseAppUrl\": \"https:\/\/reqres.in\",\n  \"timeout\": 30000,\n  \"retryCount\": 3,\n  \"retryInterval\": 1000,\n  \"baseUrl\": \"https:\/\/reqres.in\"\n}\n \n"},{"result":{"nanos":882800,"startTime":1752069606984,"endTime":1752069606985,"millis":0.8828,"status":"passed"},"step":{"background":true,"line":5,"prefix":"*","index":1,"text":"header x-api-key = 'reqres-free-v1'"}},{"result":{"nanos":702100,"startTime":1752069606985,"endTime":1752069606986,"millis":0.7021,"status":"passed"},"step":{"background":true,"line":6,"prefix":"*","index":2,"text":"header Content-Type = 'application\/json'"}},{"result":{"nanos":59818800,"startTime":1752069606986,"endTime":1752069607046,"millis":59.8188,"status":"passed"},"step":{"endLine":53,"line":48,"prefix":"*","docString":"{\n  \"job\": \"Lead QA\"\n}","index":0,"text":"def patchBody ="}},{"result":{"nanos":4780800,"startTime":1752069607046,"endTime":1752069607051,"millis":4.7808,"status":"passed"},"step":{"line":54,"prefix":"Given","index":1,"text":"path 'api', 'users', 2"}},{"result":{"nanos":573100,"startTime":1752069607050,"endTime":1752069607051,"millis":0.5731,"status":"passed"},"step":{"line":55,"prefix":"And","index":2,"text":"request patchBody"}},{"result":{"nanos":1215766900,"startTime":1752069607052,"endTime":1752069608268,"millis":1215.7669,"status":"passed"},"step":{"line":56,"prefix":"When","index":3,"text":"method PATCH"},"stepLog":"19:30:07.387 request:\n1 > PATCH https:\/\/reqres.in\/api\/users\/2\n1 > x-api-key: reqres-free-v1\n1 > Content-Type: application\/json; charset=UTF-8\n1 > Content-Length: 17\n1 > Host: reqres.in\n1 > Connection: Keep-Alive\n1 > User-Agent: Apache-HttpClient\/4.5.14 (Java\/11.0.22)\n1 > Accept-Encoding: gzip,deflate\n{\"job\":\"Lead QA\"}\n\n19:30:08.268 response time in milliseconds: 880\n1 < 200\n1 < Date: Wed, 09 Jul 2025 14:00:09 GMT\n1 < Content-Type: application\/json; charset=utf-8\n1 < Transfer-Encoding: chunked\n1 < Connection: keep-alive\n1 < Report-To: {\"group\":\"heroku-nel\",\"max_age\":3600,\"endpoints\":[{\"url\":\"https:\/\/nel.heroku.com\/reports?ts=1752069609&sid=c4c9725f-1ab0-44d8-820f-430df2718e11&s=nTIGbAmuMH3DHY1WTfiJjaa%2BBM9YhyaWOAK5a227EwU%3D\"}]}\n1 < Reporting-Endpoints: heroku-nel=https:\/\/nel.heroku.com\/reports?ts=1752069609&sid=c4c9725f-1ab0-44d8-820f-430df2718e11&s=nTIGbAmuMH3DHY1WTfiJjaa%2BBM9YhyaWOAK5a227EwU%3D\n1 < Nel: {\"report_to\":\"heroku-nel\",\"max_age\":3600,\"success_fraction\":0.005,\"failure_fraction\":0.05,\"response_headers\":[\"Via\"]}\n1 < Access-Control-Allow-Origin: *\n1 < X-Request-Id: 087874bd-293c-4bf8-b0cd-48bfb31e2549\n1 < X-Content-Type-Options: nosniff\n1 < X-Frame-Options: DENY\n1 < X-Xss-Protection: 1; mode=block\n1 < Referrer-Policy: strict-origin-when-cross-origin\n1 < Ratelimit-Policy: 100;w=60\n1 < Ratelimit-Limit: 100\n1 < Ratelimit-Remaining: 93\n1 < Ratelimit-Reset: 60\n1 < Etag: W\/\"38-DmNt7\/PqGyjeomZDRbL9amgZ10w\"\n1 < Via: 1.1 vegur\n1 < cf-cache-status: DYNAMIC\n1 < Server: cloudflare\n1 < CF-RAY: 95c858904be2ff6e-BOM\n1 < server-timing: cfL4;desc=\"?proto=TCP&rtt=44665&min_rtt=40409&rtt_var=18743&sent=7&recv=7&lost=0&retrans=0&sent_bytes=3105&recv_bytes=790&delivery_rate=64638&cwnd=252&unsent_bytes=0&cid=3ddff9525c62cfc6&ts=476&x=0\"\n{\"job\":\"Lead QA\",\"updatedAt\":\"2025-07-09T14:00:09.251Z\"}\n\n"},{"result":{"nanos":8500,"startTime":1752069608268,"endTime":1752069608268,"millis":0.0085,"status":"passed"},"step":{"line":57,"prefix":"Then","index":4,"text":"status 200"}},{"result":{"nanos":959700,"startTime":1752069608268,"endTime":1752069608269,"millis":0.9597,"status":"passed"},"step":{"line":58,"prefix":"And","index":5,"text":"match response.job == \"Lead QA\""}}],"line":47,"description":"","durationMillis":1284.0542,"failed":false,"tags":["patch"],"executorName":"pool-1-thread-4","name":"PATCH - Partially update user","startTime":1752069606690,"refId":"[4:47]","endTime":1752069608269,"exampleIndex":-1},{"sectionIndex":4,"stepResults":[{"result":{"nanos":593900,"startTime":1752069606951,"endTime":1752069606952,"millis":0.5939,"status":"passed"},"step":{"background":true,"line":4,"prefix":"*","index":0,"text":"url 'https:\/\/reqres.in'"},"stepLog":"19:30:06.853 karate.env system property was: null \n19:30:06.949 karate config: {\n  \"env\": \"dev\",\n  \"baseAppUrl\": \"https:\/\/reqres.in\",\n  \"timeout\": 30000,\n  \"retryCount\": 3,\n  \"retryInterval\": 1000,\n  \"baseUrl\": \"https:\/\/reqres.in\"\n}\n \n"},{"result":{"nanos":570900,"startTime":1752069606991,"endTime":1752069606992,"millis":0.5709,"status":"passed"},"step":{"background":true,"line":5,"prefix":"*","index":1,"text":"header x-api-key = 'reqres-free-v1'"}},{"result":{"nanos":415000,"startTime":1752069606992,"endTime":1752069606992,"millis":0.415,"status":"passed"},"step":{"background":true,"line":6,"prefix":"*","index":2,"text":"header Content-Type = 'application\/json'"}},{"result":{"nanos":6399600,"startTime":1752069606992,"endTime":1752069606998,"millis":6.3996,"status":"passed"},"step":{"line":62,"prefix":"Given","index":0,"text":"path 'api', 'users', 2"}},{"result":{"nanos":1267157600,"startTime":1752069606999,"endTime":1752069608266,"millis":1267.1576,"status":"passed"},"step":{"line":63,"prefix":"When","index":1,"text":"method DELETE"},"stepLog":"19:30:07.372 request:\n1 > DELETE https:\/\/reqres.in\/api\/users\/2\n1 > x-api-key: reqres-free-v1\n1 > Content-Type: application\/json\n1 > Host: reqres.in\n1 > Connection: Keep-Alive\n1 > User-Agent: Apache-HttpClient\/4.5.14 (Java\/11.0.22)\n1 > Accept-Encoding: gzip,deflate\n\n\n19:30:08.266 response time in milliseconds: 893\n1 < 204\n1 < Date: Wed, 09 Jul 2025 14:00:09 GMT\n1 < Connection: keep-alive\n1 < CF-RAY: 95c858903aff3c76-BOM\n1 < Report-To: {\"group\":\"heroku-nel\",\"max_age\":3600,\"endpoints\":[{\"url\":\"https:\/\/nel.heroku.com\/reports?ts=1752069609&sid=c4c9725f-1ab0-44d8-820f-430df2718e11&s=nTIGbAmuMH3DHY1WTfiJjaa%2BBM9YhyaWOAK5a227EwU%3D\"}]}\n1 < Reporting-Endpoints: heroku-nel=https:\/\/nel.heroku.com\/reports?ts=1752069609&sid=c4c9725f-1ab0-44d8-820f-430df2718e11&s=nTIGbAmuMH3DHY1WTfiJjaa%2BBM9YhyaWOAK5a227EwU%3D\n1 < Nel: {\"report_to\":\"heroku-nel\",\"max_age\":3600,\"success_fraction\":0.005,\"failure_fraction\":0.05,\"response_headers\":[\"Via\"]}\n1 < Access-Control-Allow-Origin: *\n1 < X-Request-Id: c75d90fa-3b92-44f5-88f9-db4f24aa2ba6\n1 < X-Content-Type-Options: nosniff\n1 < X-Frame-Options: DENY\n1 < X-Xss-Protection: 1; mode=block\n1 < Referrer-Policy: strict-origin-when-cross-origin\n1 < Ratelimit-Policy: 100;w=60\n1 < Ratelimit-Limit: 100\n1 < Ratelimit-Remaining: 87\n1 < Ratelimit-Reset: 60\n1 < Etag: W\/\"2-vyGp6PvFo4RvsFtPoIWeCReyIC8\"\n1 < Via: 1.1 vegur\n1 < cf-cache-status: DYNAMIC\n1 < Server: cloudflare\n1 < server-timing: cfL4;desc=\"?proto=TCP&rtt=43562&min_rtt=40324&rtt_var=16955&sent=7&recv=8&lost=0&retrans=0&sent_bytes=3105&recv_bytes=739&delivery_rate=69922&cwnd=252&unsent_bytes=0&cid=d9f39bf95e5b1f8a&ts=477&x=0\"\n\n\n"},{"result":{"nanos":9100,"startTime":1752069608266,"endTime":1752069608266,"millis":0.0091,"status":"passed"},"step":{"line":64,"prefix":"Then","index":2,"text":"status 204"}}],"line":61,"description":"","durationMillis":1275.1461,"failed":false,"tags":["delete"],"executorName":"pool-1-thread-5","name":"DELETE - Delete user","startTime":1752069606690,"refId":"[5:61]","endTime":1752069608266,"exampleIndex":-1}],"callDepth":0,"name":"Reqres API Test Scenarios with Different HTTP Methods","description":"","resultDate":"2025-07-09 07:30:08 PM","durationMillis":6220.3795,"passedCount":5}