{"failedCount":0,"prefixedPath":"classpath:features\/externalAPIs\/chatGPTPractise.feature","packageQualifiedName":"features.externalAPIs.chatGPTPractise","loopIndex":-1,"relativePath":"features\/externalAPIs\/chatGPTPractise.feature","scenarioResults":[{"sectionIndex":0,"stepResults":[{"result":{"nanos":1370300,"startTime":1755511992665,"endTime":1755511992666,"millis":1.3703,"status":"passed"},"step":{"line":4,"prefix":"Given","index":0,"text":"url 'https:\/\/reqres.in\/api\/users?page=2'"},"stepLog":"15:43:12.575 karate.env system property was: null \n15:43:12.645 karate config: {\n  \"env\": \"testing\",\n  \"baseAppUrl\": \"https:\/\/reqres.in\",\n  \"shoppingCartAPI\": \"https:\/\/automationexercise.com\/api\",\n  \"timeout\": 30000,\n  \"retryCount\": 3,\n  \"retryInterval\": 1000,\n  \"newAPI_URL\": \"https:\/\/automationexercise.com\/api\/searchProduct\",\n  \"baseUrl\": \"https:\/\/reqres.in\",\n  \"dbUrl\": \"jdbc:h2:~\/test\",\n  \"dbUser\": \"sa\",\n  \"dbPassword\": \"\",\n  \"DbUtils\": \"utils.DbUtils\",\n  \"DbQueries\": \"utils.DbQueries\",\n  \"headers\": {\n    \"x-api-key\": \"reqres-free-v1\",\n    \"Content-Type\": \"application\/json\"\n  },\n  \"demo1\": \"this is testing env\",\n  \"db\": {\n    \"url\": \"jdbc:h2:file:~\/test;AUTO_SERVER=TRUE\",\n    \"user\": \"sa\",\n    \"password\": \"\"\n  }\n}\n \n"},{"result":{"nanos":656733300,"startTime":1755511992673,"endTime":1755511993330,"millis":656.7333,"status":"passed"},"step":{"line":5,"prefix":"When","index":1,"text":"method get"},"stepLog":"15:43:12.961 request:\n1 > GET https:\/\/reqres.in\/api\/users?page=2\n1 > Host: reqres.in\n1 > Connection: Keep-Alive\n1 > User-Agent: Apache-HttpClient\/4.5.14 (Java\/11.0.22)\n1 > Accept-Encoding: gzip,deflate\n\n\n15:43:13.321 response time in milliseconds: 356\n1 < 200\n1 < Date: Mon, 18 Aug 2025 10:13:13 GMT\n1 < Content-Type: application\/json; charset=utf-8\n1 < Transfer-Encoding: chunked\n1 < Connection: keep-alive\n1 < Access-Control-Allow-Origin: *\n1 < Etag: W\/\"440-ZjsmMKR8P3usr2uJZbOCGCxC3Uw\"\n1 < Nel: {\"report_to\":\"heroku-nel\",\"response_headers\":[\"Via\"],\"max_age\":3600,\"success_fraction\":0.01,\"failure_fraction\":0.1}\n1 < Ratelimit-Limit: 100\n1 < Ratelimit-Policy: 100;w=60\n1 < Ratelimit-Remaining: 98\n1 < Ratelimit-Reset: 60\n1 < Referrer-Policy: strict-origin-when-cross-origin\n1 < Report-To: {\"group\":\"heroku-nel\",\"endpoints\":[{\"url\":\"https:\/\/nel.heroku.com\/reports?s=kRWiesYp2K6Or%2BpYOX1ZYLzWpB4cUncNiskpShmM5EY%3D\\u0026sid=c4c9725f-1ab0-44d8-820f-430df2718e11\\u0026ts=1755508742\"}],\"max_age\":3600}\n1 < Reporting-Endpoints: heroku-nel=\"https:\/\/nel.heroku.com\/reports?s=kRWiesYp2K6Or%2BpYOX1ZYLzWpB4cUncNiskpShmM5EY%3D&sid=c4c9725f-1ab0-44d8-820f-430df2718e11&ts=1755508742\"\n1 < Via: 1.1 heroku-router\n1 < X-Content-Type-Options: nosniff\n1 < X-Frame-Options: DENY\n1 < X-Request-Id: bf45a0b5-a9b1-8310-9966-dbc2c79accb5\n1 < X-Xss-Protection: 1; mode=block\n1 < Age: 3250\n1 < Cache-Control: max-age=14400\n1 < cf-cache-status: HIT\n1 < Vary: Accept-Encoding\n1 < Server: cloudflare\n1 < CF-RAY: 9710a3278897446f-BOM\n1 < server-timing: cfL4;desc=\"?proto=TCP&rtt=52419&min_rtt=50577&rtt_var=17418&sent=7&recv=8&lost=0&retrans=0&sent_bytes=3103&recv_bytes=682&delivery_rate=64781&cwnd=252&unsent_bytes=0&cid=2e755e577476eeed&ts=123&x=0\"\n{\"page\":2,\"per_page\":6,\"total\":12,\"total_pages\":2,\"data\":[{\"id\":7,\"email\":\"michael.lawson@reqres.in\",\"first_name\":\"Michael\",\"last_name\":\"Lawson\",\"avatar\":\"https:\/\/reqres.in\/img\/faces\/7-image.jpg\"},{\"id\":8,\"email\":\"lindsay.ferguson@reqres.in\",\"first_name\":\"Lindsay\",\"last_name\":\"Ferguson\",\"avatar\":\"https:\/\/reqres.in\/img\/faces\/8-image.jpg\"},{\"id\":9,\"email\":\"tobias.funke@reqres.in\",\"first_name\":\"Tobias\",\"last_name\":\"Funke\",\"avatar\":\"https:\/\/reqres.in\/img\/faces\/9-image.jpg\"},{\"id\":10,\"email\":\"byron.fields@reqres.in\",\"first_name\":\"Byron\",\"last_name\":\"Fields\",\"avatar\":\"https:\/\/reqres.in\/img\/faces\/10-image.jpg\"},{\"id\":11,\"email\":\"george.edwards@reqres.in\",\"first_name\":\"George\",\"last_name\":\"Edwards\",\"avatar\":\"https:\/\/reqres.in\/img\/faces\/11-image.jpg\"},{\"id\":12,\"email\":\"rachel.howell@reqres.in\",\"first_name\":\"Rachel\",\"last_name\":\"Howell\",\"avatar\":\"https:\/\/reqres.in\/img\/faces\/12-image.jpg\"}],\"support\":{\"url\":\"https:\/\/contentcaddy.io?utm_source=reqres&utm_medium=json&utm_campaign=referral\",\"text\":\"Tired of writing endless social media content? Let Content Caddy generate it for you.\"}}\n\n"},{"result":{"nanos":25400,"startTime":1755511993328,"endTime":1755511993328,"millis":0.0254,"status":"passed"},"step":{"line":6,"prefix":"Then","index":2,"text":"status 200"}},{"result":{"nanos":7251800,"startTime":1755511993328,"endTime":1755511993335,"millis":7.2518,"status":"passed"},"step":{"line":7,"prefix":"And","index":3,"text":"print response"},"stepLog":"15:43:13.336 [print] {\n  \"page\": 2,\n  \"per_page\": 6,\n  \"total\": 12,\n  \"total_pages\": 2,\n  \"data\": [\n    {\n      \"id\": 7,\n      \"email\": \"michael.lawson@reqres.in\",\n      \"first_name\": \"Michael\",\n      \"last_name\": \"Lawson\",\n      \"avatar\": \"https:\/\/reqres.in\/img\/faces\/7-image.jpg\"\n    },\n    {\n      \"id\": 8,\n      \"email\": \"lindsay.ferguson@reqres.in\",\n      \"first_name\": \"Lindsay\",\n      \"last_name\": \"Ferguson\",\n      \"avatar\": \"https:\/\/reqres.in\/img\/faces\/8-image.jpg\"\n    },\n    {\n      \"id\": 9,\n      \"email\": \"tobias.funke@reqres.in\",\n      \"first_name\": \"Tobias\",\n      \"last_name\": \"Funke\",\n      \"avatar\": \"https:\/\/reqres.in\/img\/faces\/9-image.jpg\"\n    },\n    {\n      \"id\": 10,\n      \"email\": \"byron.fields@reqres.in\",\n      \"first_name\": \"Byron\",\n      \"last_name\": \"Fields\",\n      \"avatar\": \"https:\/\/reqres.in\/img\/faces\/10-image.jpg\"\n    },\n    {\n      \"id\": 11,\n      \"email\": \"george.edwards@reqres.in\",\n      \"first_name\": \"George\",\n      \"last_name\": \"Edwards\",\n      \"avatar\": \"https:\/\/reqres.in\/img\/faces\/11-image.jpg\"\n    },\n    {\n      \"id\": 12,\n      \"email\": \"rachel.howell@reqres.in\",\n      \"first_name\": \"Rachel\",\n      \"last_name\": \"Howell\",\n      \"avatar\": \"https:\/\/reqres.in\/img\/faces\/12-image.jpg\"\n    }\n  ],\n  \"support\": {\n    \"url\": \"https:\/\/contentcaddy.io?utm_source=reqres&utm_medium=json&utm_campaign=referral\",\n    \"text\": \"Tired of writing endless social media content? Let Content Caddy generate it for you.\"\n  }\n}\n \n"},{"result":{"nanos":44573900,"startTime":1755511993336,"endTime":1755511993381,"millis":44.5739,"status":"passed"},"step":{"line":8,"prefix":"And","index":4,"text":"match response.data[*].email contains 'michael.lawson@reqres.in'"}},{"result":{"nanos":4966001,"startTime":1755511993381,"endTime":1755511993386,"millis":4.966001,"status":"passed"},"step":{"line":9,"prefix":"And","index":5,"text":"match each response.data[*].email contains '#regex .*@reqres.in'"}}],"executorName":"Test worker","line":3,"name":"1 GET users and apply regex","description":"","durationMillis":714.920701,"startTime":1755511992431,"failed":false,"refId":"[1:3]","endTime":1755511993386,"exampleIndex":-1},{"sectionIndex":1,"stepResults":[{"result":{"nanos":594201,"startTime":1755511993423,"endTime":1755511993424,"millis":0.594201,"status":"passed"},"step":{"line":12,"prefix":"Given","index":0,"text":"url 'https:\/\/reqres.in\/api\/users'"},"stepLog":"15:43:13.413 karate.env system property was: null \n15:43:13.418 karate config: {\n  \"env\": \"testing\",\n  \"baseAppUrl\": \"https:\/\/reqres.in\",\n  \"shoppingCartAPI\": \"https:\/\/automationexercise.com\/api\",\n  \"timeout\": 30000,\n  \"retryCount\": 3,\n  \"retryInterval\": 1000,\n  \"newAPI_URL\": \"https:\/\/automationexercise.com\/api\/searchProduct\",\n  \"baseUrl\": \"https:\/\/reqres.in\",\n  \"dbUrl\": \"jdbc:h2:~\/test\",\n  \"dbUser\": \"sa\",\n  \"dbPassword\": \"\",\n  \"DbUtils\": \"utils.DbUtils\",\n  \"DbQueries\": \"utils.DbQueries\",\n  \"headers\": {\n    \"x-api-key\": \"reqres-free-v1\",\n    \"Content-Type\": \"application\/json\"\n  },\n  \"demo1\": \"this is testing env\",\n  \"db\": {\n    \"url\": \"jdbc:h2:file:~\/test;AUTO_SERVER=TRUE\",\n    \"user\": \"sa\",\n    \"password\": \"\"\n  }\n}\n \n"},{"result":{"nanos":404300,"startTime":1755511993423,"endTime":1755511993423,"millis":0.4043,"status":"passed"},"step":{"line":13,"prefix":"And","index":1,"text":"header x-api-key = 'reqres-free-v1'"}},{"result":{"nanos":1155701,"startTime":1755511993423,"endTime":1755511993424,"millis":1.155701,"status":"passed"},"step":{"line":14,"prefix":"And","index":2,"text":"request { \"name\": \"Rajesh\", \"job\": \"QA\" }"}},{"result":{"nanos":512733699,"startTime":1755511993429,"endTime":1755511993942,"millis":512.733699,"status":"passed"},"step":{"line":15,"prefix":"When","index":3,"text":"method post"},"stepLog":"15:43:13.485 request:\n1 > POST https:\/\/reqres.in\/api\/users\n1 > x-api-key: reqres-free-v1\n1 > Content-Type: application\/json; charset=UTF-8\n1 > Content-Length: 28\n1 > Host: reqres.in\n1 > Connection: Keep-Alive\n1 > User-Agent: Apache-HttpClient\/4.5.14 (Java\/11.0.22)\n1 > Accept-Encoding: gzip,deflate\n{\"name\":\"Rajesh\",\"job\":\"QA\"}\n\n15:43:13.940 response time in milliseconds: 453\n1 < 201\n1 < Date: Mon, 18 Aug 2025 10:13:14 GMT\n1 < Content-Type: application\/json; charset=utf-8\n1 < Content-Length: 78\n1 < Connection: keep-alive\n1 < CF-RAY: 9710a329c8e84461-BOM\n1 < Access-Control-Allow-Origin: *\n1 < Etag: W\/\"4e-T8uFyQt\/4F2L1tldAbE3yr7QJ7M\"\n1 < Nel: {\"report_to\":\"heroku-nel\",\"response_headers\":[\"Via\"],\"max_age\":3600,\"success_fraction\":0.01,\"failure_fraction\":0.1}\n1 < Ratelimit-Limit: 100\n1 < Ratelimit-Policy: 100;w=60\n1 < Ratelimit-Remaining: 98\n1 < Ratelimit-Reset: 60\n1 < Referrer-Policy: strict-origin-when-cross-origin\n1 < Report-To: {\"group\":\"heroku-nel\",\"endpoints\":[{\"url\":\"https:\/\/nel.heroku.com\/reports?s=oXhSua69y8xi1AA6YW7GNGV%2F2nNpGfHWOAUjqAHI8R0%3D\\u0026sid=c4c9725f-1ab0-44d8-820f-430df2718e11\\u0026ts=1755511994\"}],\"max_age\":3600}\n1 < Reporting-Endpoints: heroku-nel=\"https:\/\/nel.heroku.com\/reports?s=oXhSua69y8xi1AA6YW7GNGV%2F2nNpGfHWOAUjqAHI8R0%3D&sid=c4c9725f-1ab0-44d8-820f-430df2718e11&ts=1755511994\"\n1 < Via: 1.1 heroku-router\n1 < X-Content-Type-Options: nosniff\n1 < X-Frame-Options: DENY\n1 < X-Request-Id: 1f511f37-8ca6-6d30-7dbd-0887c8315430\n1 < X-Xss-Protection: 1; mode=block\n1 < cf-cache-status: DYNAMIC\n1 < Server: cloudflare\n1 < server-timing: cfL4;desc=\"?proto=TCP&rtt=37060&min_rtt=34982&rtt_var=17275&sent=5&recv=6&lost=0&retrans=0&sent_bytes=219&recv_bytes=1053&delivery_rate=24452&cwnd=250&unsent_bytes=0&cid=64025a06378bd64a&ts=358&x=0\"\n{\"name\":\"Rajesh\",\"job\":\"QA\",\"id\":\"731\",\"createdAt\":\"2025-08-18T10:13:14.132Z\"}\n\n"},{"result":{"nanos":11000,"startTime":1755511993942,"endTime":1755511993942,"millis":0.011,"status":"passed"},"step":{"line":16,"prefix":"And","index":4,"text":"status 201"}},{"result":{"nanos":1480200,"startTime":1755511993942,"endTime":1755511993943,"millis":1.4802,"status":"passed"},"step":{"line":17,"prefix":"And","index":5,"text":"print response"},"stepLog":"15:43:13.943 [print] {\n  \"name\": \"Rajesh\",\n  \"job\": \"QA\",\n  \"id\": \"731\",\n  \"createdAt\": \"2025-08-18T10:13:14.132Z\"\n}\n \n"},{"result":{"nanos":1908601,"startTime":1755511993943,"endTime":1755511993945,"millis":1.908601,"status":"passed"},"step":{"line":18,"prefix":"And","index":6,"text":"match $.name == 'Rajesh'"}},{"result":{"nanos":1985399,"startTime":1755511993946,"endTime":1755511993948,"millis":1.985399,"status":"passed"},"step":{"line":19,"prefix":"And","index":7,"text":"match $.id == '#notnull'"}}],"executorName":"Test worker","line":11,"name":"2 create user","description":"","durationMillis":520.273101,"startTime":1755511993405,"failed":false,"refId":"[2:11]","endTime":1755511993947,"exampleIndex":-1},{"sectionIndex":2,"stepResults":[{"result":{"nanos":1203600,"startTime":1755511993971,"endTime":1755511993972,"millis":1.2036,"status":"passed"},"step":{"line":22,"prefix":"Given","index":0,"text":"url 'https:\/\/reqres.in\/api\/users\/2'"},"stepLog":"15:43:13.960 karate.env system property was: null \n15:43:13.966 karate config: {\n  \"env\": \"testing\",\n  \"baseAppUrl\": \"https:\/\/reqres.in\",\n  \"shoppingCartAPI\": \"https:\/\/automationexercise.com\/api\",\n  \"timeout\": 30000,\n  \"retryCount\": 3,\n  \"retryInterval\": 1000,\n  \"newAPI_URL\": \"https:\/\/automationexercise.com\/api\/searchProduct\",\n  \"baseUrl\": \"https:\/\/reqres.in\",\n  \"dbUrl\": \"jdbc:h2:~\/test\",\n  \"dbUser\": \"sa\",\n  \"dbPassword\": \"\",\n  \"DbUtils\": \"utils.DbUtils\",\n  \"DbQueries\": \"utils.DbQueries\",\n  \"headers\": {\n    \"x-api-key\": \"reqres-free-v1\",\n    \"Content-Type\": \"application\/json\"\n  },\n  \"demo1\": \"this is testing env\",\n  \"db\": {\n    \"url\": \"jdbc:h2:file:~\/test;AUTO_SERVER=TRUE\",\n    \"user\": \"sa\",\n    \"password\": \"\"\n  }\n}\n \n"},{"result":{"nanos":217401,"startTime":1755511993972,"endTime":1755511993972,"millis":0.217401,"status":"passed"},"step":{"line":23,"prefix":"And","index":1,"text":"header x-api-key = 'reqres-free-v1'"}},{"result":{"nanos":406300,"startTime":1755511993972,"endTime":1755511993972,"millis":0.4063,"status":"passed"},"step":{"line":24,"prefix":"And","index":2,"text":"request { \"name\": \"Rajesh\", \"job\": \"Senior QA\" }"}},{"result":{"nanos":328841700,"startTime":1755511993973,"endTime":1755511994302,"millis":328.8417,"status":"passed"},"step":{"line":25,"prefix":"When","index":3,"text":"method put"},"stepLog":"15:43:13.977 request:\n1 > PUT https:\/\/reqres.in\/api\/users\/2\n1 > x-api-key: reqres-free-v1\n1 > Content-Type: application\/json; charset=UTF-8\n1 > Content-Length: 35\n1 > Host: reqres.in\n1 > Connection: Keep-Alive\n1 > User-Agent: Apache-HttpClient\/4.5.14 (Java\/11.0.22)\n1 > Accept-Encoding: gzip,deflate\n{\"name\":\"Rajesh\",\"job\":\"Senior QA\"}\n\n15:43:14.300 response time in milliseconds: 321\n1 < 200\n1 < Date: Mon, 18 Aug 2025 10:13:14 GMT\n1 < Content-Type: application\/json; charset=utf-8\n1 < Transfer-Encoding: chunked\n1 < Connection: keep-alive\n1 < Access-Control-Allow-Origin: *\n1 < Etag: W\/\"4a-dp4tidj4rzHDQVaXzrrwIk9KPVs\"\n1 < Nel: {\"report_to\":\"heroku-nel\",\"response_headers\":[\"Via\"],\"max_age\":3600,\"success_fraction\":0.01,\"failure_fraction\":0.1}\n1 < Ratelimit-Limit: 100\n1 < Ratelimit-Policy: 100;w=60\n1 < Ratelimit-Remaining: 96\n1 < Ratelimit-Reset: 60\n1 < Referrer-Policy: strict-origin-when-cross-origin\n1 < Report-To: {\"group\":\"heroku-nel\",\"endpoints\":[{\"url\":\"https:\/\/nel.heroku.com\/reports?s=oXhSua69y8xi1AA6YW7GNGV%2F2nNpGfHWOAUjqAHI8R0%3D\\u0026sid=c4c9725f-1ab0-44d8-820f-430df2718e11\\u0026ts=1755511994\"}],\"max_age\":3600}\n1 < Reporting-Endpoints: heroku-nel=\"https:\/\/nel.heroku.com\/reports?s=oXhSua69y8xi1AA6YW7GNGV%2F2nNpGfHWOAUjqAHI8R0%3D&sid=c4c9725f-1ab0-44d8-820f-430df2718e11&ts=1755511994\"\n1 < Via: 1.1 heroku-router\n1 < X-Content-Type-Options: nosniff\n1 < X-Frame-Options: DENY\n1 < X-Request-Id: 9fd1b9d7-603c-8af0-d02c-c02842f6bd98\n1 < X-Xss-Protection: 1; mode=block\n1 < cf-cache-status: DYNAMIC\n1 < Vary: Accept-Encoding\n1 < Server: cloudflare\n1 < CF-RAY: 9710a32d0837ff9a-BOM\n1 < server-timing: cfL4;desc=\"?proto=TCP&rtt=50616&min_rtt=50150&rtt_var=19739&sent=4&recv=6&lost=0&retrans=0&sent_bytes=219&recv_bytes=1061&delivery_rate=23420&cwnd=250&unsent_bytes=0&cid=dc2c7eabcf81d7a1&ts=221&x=0\"\n{\"name\":\"Rajesh\",\"job\":\"Senior QA\",\"updatedAt\":\"2025-08-18T10:13:14.506Z\"}\n\n"},{"result":{"nanos":10501,"startTime":1755511994302,"endTime":1755511994302,"millis":0.010501,"status":"passed"},"step":{"line":26,"prefix":"Then","index":4,"text":"status 200"}},{"result":{"nanos":995099,"startTime":1755511994302,"endTime":1755511994303,"millis":0.995099,"status":"passed"},"step":{"line":27,"prefix":"And","index":5,"text":"print response"},"stepLog":"15:43:14.303 [print] {\n  \"name\": \"Rajesh\",\n  \"job\": \"Senior QA\",\n  \"updatedAt\": \"2025-08-18T10:13:14.506Z\"\n}\n \n"},{"result":{"nanos":1283900,"startTime":1755511994303,"endTime":1755511994304,"millis":1.2839,"status":"passed"},"step":{"line":28,"prefix":"And","index":6,"text":"match response.job == 'Senior QA'"}}],"executorName":"Test worker","line":21,"name":"3 update job title","description":"","durationMillis":332.958501,"startTime":1755511993958,"failed":false,"refId":"[3:21]","endTime":1755511994303,"exampleIndex":-1},{"sectionIndex":3,"stepResults":[{"result":{"nanos":242800,"startTime":1755511994321,"endTime":1755511994321,"millis":0.2428,"status":"passed"},"step":{"line":32,"prefix":"Given","index":0,"text":"url 'https:\/\/reqres.in\/api\/users\/2'"},"stepLog":"15:43:14.313 karate.env system property was: null \n15:43:14.318 karate config: {\n  \"env\": \"testing\",\n  \"baseAppUrl\": \"https:\/\/reqres.in\",\n  \"shoppingCartAPI\": \"https:\/\/automationexercise.com\/api\",\n  \"timeout\": 30000,\n  \"retryCount\": 3,\n  \"retryInterval\": 1000,\n  \"newAPI_URL\": \"https:\/\/automationexercise.com\/api\/searchProduct\",\n  \"baseUrl\": \"https:\/\/reqres.in\",\n  \"dbUrl\": \"jdbc:h2:~\/test\",\n  \"dbUser\": \"sa\",\n  \"dbPassword\": \"\",\n  \"DbUtils\": \"utils.DbUtils\",\n  \"DbQueries\": \"utils.DbQueries\",\n  \"headers\": {\n    \"x-api-key\": \"reqres-free-v1\",\n    \"Content-Type\": \"application\/json\"\n  },\n  \"demo1\": \"this is testing env\",\n  \"db\": {\n    \"url\": \"jdbc:h2:file:~\/test;AUTO_SERVER=TRUE\",\n    \"user\": \"sa\",\n    \"password\": \"\"\n  }\n}\n \n"},{"result":{"nanos":186546200,"startTime":1755511994321,"endTime":1755511994508,"millis":186.5462,"status":"passed"},"step":{"line":33,"prefix":"When","index":1,"text":"method GET"},"stepLog":"15:43:14.324 request:\n1 > GET https:\/\/reqres.in\/api\/users\/2\n1 > Host: reqres.in\n1 > Connection: Keep-Alive\n1 > User-Agent: Apache-HttpClient\/4.5.14 (Java\/11.0.22)\n1 > Accept-Encoding: gzip,deflate\n\n\n15:43:14.507 response time in milliseconds: 180\n1 < 200\n1 < Date: Mon, 18 Aug 2025 10:13:14 GMT\n1 < Content-Type: application\/json; charset=utf-8\n1 < Transfer-Encoding: chunked\n1 < Connection: keep-alive\n1 < Access-Control-Allow-Origin: *\n1 < Etag: W\/\"152-ApQgGHL6RKwaebFlrPCYPBO1xHg\"\n1 < Nel: {\"report_to\":\"heroku-nel\",\"response_headers\":[\"Via\"],\"max_age\":3600,\"success_fraction\":0.01,\"failure_fraction\":0.1}\n1 < Ratelimit-Limit: 100\n1 < Ratelimit-Policy: 100;w=60\n1 < Ratelimit-Remaining: 98\n1 < Ratelimit-Reset: 60\n1 < Referrer-Policy: strict-origin-when-cross-origin\n1 < Report-To: {\"group\":\"heroku-nel\",\"endpoints\":[{\"url\":\"https:\/\/nel.heroku.com\/reports?s=6W%2Bry5eKICNVnua%2BbFe2XkLzfBf9%2FvDhlySJCMUt8gM%3D\\u0026sid=c4c9725f-1ab0-44d8-820f-430df2718e11\\u0026ts=1755508839\"}],\"max_age\":3600}\n1 < Reporting-Endpoints: heroku-nel=\"https:\/\/nel.heroku.com\/reports?s=6W%2Bry5eKICNVnua%2BbFe2XkLzfBf9%2FvDhlySJCMUt8gM%3D&sid=c4c9725f-1ab0-44d8-820f-430df2718e11&ts=1755508839\"\n1 < Via: 1.1 heroku-router\n1 < X-Content-Type-Options: nosniff\n1 < X-Frame-Options: DENY\n1 < X-Request-Id: 75bdb945-b286-0fd6-2cc4-569beeef45dd\n1 < X-Xss-Protection: 1; mode=block\n1 < Age: 3155\n1 < Cache-Control: max-age=14400\n1 < cf-cache-status: HIT\n1 < Vary: Accept-Encoding\n1 < Server: cloudflare\n1 < CF-RAY: 9710a32f1a9affa1-BOM\n1 < server-timing: cfL4;desc=\"?proto=TCP&rtt=45584&min_rtt=45058&rtt_var=17950&sent=3&recv=6&lost=0&retrans=0&sent_bytes=219&recv_bytes=932&delivery_rate=25612&cwnd=250&unsent_bytes=0&cid=cdf293aa9f0e3a9c&ts=78&x=0\"\n{\"data\":{\"id\":2,\"email\":\"janet.weaver@reqres.in\",\"first_name\":\"Janet\",\"last_name\":\"Weaver\",\"avatar\":\"https:\/\/reqres.in\/img\/faces\/2-image.jpg\"},\"support\":{\"url\":\"https:\/\/contentcaddy.io?utm_source=reqres&utm_medium=json&utm_campaign=referral\",\"text\":\"Tired of writing endless social media content? Let Content Caddy generate it for you.\"}}\n\n"},{"result":{"nanos":12000,"startTime":1755511994509,"endTime":1755511994509,"millis":0.012,"status":"passed"},"step":{"line":34,"prefix":"Then","index":2,"text":"status 200"}},{"result":{"nanos":1080900,"startTime":1755511994509,"endTime":1755511994510,"millis":1.0809,"status":"passed"},"step":{"line":35,"prefix":"And","index":3,"text":"print response"},"stepLog":"15:43:14.510 [print] {\n  \"data\": {\n    \"id\": 2,\n    \"email\": \"janet.weaver@reqres.in\",\n    \"first_name\": \"Janet\",\n    \"last_name\": \"Weaver\",\n    \"avatar\": \"https:\/\/reqres.in\/img\/faces\/2-image.jpg\"\n  },\n  \"support\": {\n    \"url\": \"https:\/\/contentcaddy.io?utm_source=reqres&utm_medium=json&utm_campaign=referral\",\n    \"text\": \"Tired of writing endless social media content? Let Content Caddy generate it for you.\"\n  }\n}\n \n"},{"result":{"nanos":742200,"startTime":1755511994511,"endTime":1755511994512,"millis":0.7422,"status":"passed"},"step":{"endLine":45,"line":36,"prefix":"*","docString":"{\nid: '#number',\nemail: '#string',\nfirst_name: '#string',\nlast_name: '#string',\navatar: '#string'\n}","index":4,"text":"def schema ="}},{"result":{"nanos":3253000,"startTime":1755511994512,"endTime":1755511994515,"millis":3.253,"status":"passed"},"step":{"line":46,"prefix":"And","index":5,"text":"match response.data == schema"}}],"executorName":"Test worker","line":31,"name":"4 schema validations","description":"","durationMillis":191.8771,"startTime":1755511994313,"failed":false,"refId":"[4:31]","endTime":1755511994515,"exampleIndex":-1},{"sectionIndex":4,"stepResults":[{"result":{"nanos":865701,"startTime":1755511994537,"endTime":1755511994538,"millis":0.865701,"status":"passed"},"step":{"line":50,"prefix":"Given","index":0,"text":"url 'https:\/\/reqres.in\/api\/login'"},"stepLog":"15:43:14.529 karate.env system property was: null \n15:43:14.534 karate config: {\n  \"env\": \"testing\",\n  \"baseAppUrl\": \"https:\/\/reqres.in\",\n  \"shoppingCartAPI\": \"https:\/\/automationexercise.com\/api\",\n  \"timeout\": 30000,\n  \"retryCount\": 3,\n  \"retryInterval\": 1000,\n  \"newAPI_URL\": \"https:\/\/automationexercise.com\/api\/searchProduct\",\n  \"baseUrl\": \"https:\/\/reqres.in\",\n  \"dbUrl\": \"jdbc:h2:~\/test\",\n  \"dbUser\": \"sa\",\n  \"dbPassword\": \"\",\n  \"DbUtils\": \"utils.DbUtils\",\n  \"DbQueries\": \"utils.DbQueries\",\n  \"headers\": {\n    \"x-api-key\": \"reqres-free-v1\",\n    \"Content-Type\": \"application\/json\"\n  },\n  \"demo1\": \"this is testing env\",\n  \"db\": {\n    \"url\": \"jdbc:h2:file:~\/test;AUTO_SERVER=TRUE\",\n    \"user\": \"sa\",\n    \"password\": \"\"\n  }\n}\n \n"},{"result":{"nanos":207501,"startTime":1755511994539,"endTime":1755511994539,"millis":0.207501,"status":"passed"},"step":{"line":51,"prefix":"And","index":1,"text":"header x-api-key = 'reqres-free-v1'"}},{"result":{"nanos":267600,"startTime":1755511994539,"endTime":1755511994539,"millis":0.2676,"status":"passed"},"step":{"line":52,"prefix":"And","index":2,"text":"request { \"email\": 'eve.holt@reqres.in', \"password\": 'cityslicka' }"}},{"result":{"nanos":330065599,"startTime":1755511994539,"endTime":1755511994869,"millis":330.065599,"status":"passed"},"step":{"line":53,"prefix":"When","index":3,"text":"method post"},"stepLog":"15:43:14.546 request:\n1 > POST https:\/\/reqres.in\/api\/login\n1 > x-api-key: reqres-free-v1\n1 > Content-Type: application\/json; charset=UTF-8\n1 > Content-Length: 54\n1 > Host: reqres.in\n1 > Connection: Keep-Alive\n1 > User-Agent: Apache-HttpClient\/4.5.14 (Java\/11.0.22)\n1 > Accept-Encoding: gzip,deflate\n{\"email\":\"eve.holt@reqres.in\",\"password\":\"cityslicka\"}\n\n15:43:14.869 response time in milliseconds: 321\n1 < 200\n1 < Date: Mon, 18 Aug 2025 10:13:15 GMT\n1 < Content-Type: application\/json; charset=utf-8\n1 < Content-Length: 29\n1 < Connection: keep-alive\n1 < CF-RAY: 9710a330886a47de-BOM\n1 < Access-Control-Allow-Origin: *\n1 < Etag: W\/\"1d-lGCrvD6B7Qzk11+2C98+nGhhuec\"\n1 < Nel: {\"report_to\":\"heroku-nel\",\"response_headers\":[\"Via\"],\"max_age\":3600,\"success_fraction\":0.01,\"failure_fraction\":0.1}\n1 < Ratelimit-Limit: 100\n1 < Ratelimit-Policy: 100;w=60\n1 < Ratelimit-Remaining: 94\n1 < Ratelimit-Reset: 60\n1 < Referrer-Policy: strict-origin-when-cross-origin\n1 < Report-To: {\"group\":\"heroku-nel\",\"endpoints\":[{\"url\":\"https:\/\/nel.heroku.com\/reports?s=vjjX%2BICyDrjCHDMzj4jay91oqFu0o0OmvFWoQvMkEV0%3D\\u0026sid=c4c9725f-1ab0-44d8-820f-430df2718e11\\u0026ts=1755511995\"}],\"max_age\":3600}\n1 < Reporting-Endpoints: heroku-nel=\"https:\/\/nel.heroku.com\/reports?s=vjjX%2BICyDrjCHDMzj4jay91oqFu0o0OmvFWoQvMkEV0%3D&sid=c4c9725f-1ab0-44d8-820f-430df2718e11&ts=1755511995\"\n1 < Via: 1.1 heroku-router\n1 < X-Content-Type-Options: nosniff\n1 < X-Frame-Options: DENY\n1 < X-Request-Id: 1f54b057-3945-3a2b-e2e3-c43b820f0bdc\n1 < X-Xss-Protection: 1; mode=block\n1 < cf-cache-status: DYNAMIC\n1 < Server: cloudflare\n1 < server-timing: cfL4;desc=\"?proto=TCP&rtt=49583&min_rtt=46803&rtt_var=19537&sent=3&recv=6&lost=0&retrans=0&sent_bytes=219&recv_bytes=1079&delivery_rate=26964&cwnd=250&unsent_bytes=0&cid=13f6fa100e633cee&ts=206&x=0\"\n{\"token\":\"QpwL5tke4Pnpja7X4\"}\n\n"},{"result":{"nanos":10001,"startTime":1755511994869,"endTime":1755511994869,"millis":0.010001,"status":"passed"},"step":{"line":54,"prefix":"Then","index":4,"text":"status 200"}},{"result":{"nanos":817200,"startTime":1755511994869,"endTime":1755511994870,"millis":0.8172,"status":"passed"},"step":{"line":55,"prefix":"And","index":5,"text":"print response"},"stepLog":"15:43:14.871 [print] {\n  \"token\": \"QpwL5tke4Pnpja7X4\"\n}\n \n"},{"result":{"nanos":1414500,"startTime":1755511994871,"endTime":1755511994872,"millis":1.4145,"status":"passed"},"step":{"line":56,"prefix":"*","index":6,"text":"def token = response.token"}},{"result":{"nanos":1123300,"startTime":1755511994872,"endTime":1755511994873,"millis":1.1233,"status":"passed"},"step":{"line":57,"prefix":"And","index":7,"text":"print token"},"stepLog":"15:43:14.874 [print] QpwL5tke4Pnpja7X4 \n"}],"line":60,"description":"","durationMillis":334.771402,"failed":false,"executorName":"Test worker","name":"5 resue token","startTime":1755511994526,"refId":"[5.1:60]","endTime":1755511994874,"exampleData":{"username":"eve.holt@reqres.in","password":"cityslicka"},"exampleIndex":0}],"callDepth":0,"name":"solve chatgpt practise problems","description":"","resultDate":"2025-08-18 03:43:14 PM","durationMillis":2094.800805,"passedCount":5}