{"failedCount":0,"prefixedPath":"classpath:features\/crudOperations\/GET_DelayedResponse.feature","packageQualifiedName":"features.crudOperations.GET_DelayedResponse","loopIndex":-1,"relativePath":"features\/crudOperations\/GET_DelayedResponse.feature","scenarioResults":[{"sectionIndex":0,"stepResults":[{"result":{"nanos":3077000,"startTime":1752069606948,"endTime":1752069606951,"millis":3.077,"status":"passed"},"step":{"line":4,"prefix":"Given","index":0,"text":"url baseAppUrl"},"stepLog":"19:30:06.850 karate.env system property was: null \n19:30:06.917 karate config: {\n  \"env\": \"dev\",\n  \"baseAppUrl\": \"https:\/\/reqres.in\",\n  \"timeout\": 30000,\n  \"retryCount\": 3,\n  \"retryInterval\": 1000,\n  \"baseUrl\": \"https:\/\/reqres.in\"\n}\n \n"},{"result":{"nanos":12895700,"startTime":1752069606990,"endTime":1752069607003,"millis":12.8957,"status":"passed"},"step":{"line":5,"prefix":"And","index":1,"text":"path 'api','users'"}},{"result":{"nanos":2408500,"startTime":1752069607003,"endTime":1752069607005,"millis":2.4085,"status":"passed"},"step":{"line":6,"prefix":"And","index":2,"text":"param delay = 5"}},{"result":{"nanos":302000,"startTime":1752069607005,"endTime":1752069607005,"millis":0.302,"status":"passed"},"step":{"line":7,"prefix":"And","index":3,"text":"header x-api-key = 'reqres-free-v1'"}},{"result":{"nanos":6249580900,"startTime":1752069607006,"endTime":1752069613256,"millis":6249.5809,"status":"passed"},"step":{"line":8,"prefix":"When","index":4,"text":"method GET"},"stepLog":"19:30:07.367 request:\n1 > GET https:\/\/reqres.in\/api\/users?delay=5\n1 > x-api-key: reqres-free-v1\n1 > Host: reqres.in\n1 > Connection: Keep-Alive\n1 > User-Agent: Apache-HttpClient\/4.5.14 (Java\/11.0.22)\n1 > Accept-Encoding: gzip,deflate\n\n\n19:30:13.252 response time in milliseconds: 5882\n1 < 200\n1 < Date: Wed, 09 Jul 2025 14:00:14 GMT\n1 < Content-Type: application\/json; charset=utf-8\n1 < Transfer-Encoding: chunked\n1 < Connection: keep-alive\n1 < Report-To: {\"group\":\"heroku-nel\",\"max_age\":3600,\"endpoints\":[{\"url\":\"https:\/\/nel.heroku.com\/reports?ts=1752069609&sid=c4c9725f-1ab0-44d8-820f-430df2718e11&s=nTIGbAmuMH3DHY1WTfiJjaa%2BBM9YhyaWOAK5a227EwU%3D\"}]}\n1 < Reporting-Endpoints: heroku-nel=https:\/\/nel.heroku.com\/reports?ts=1752069609&sid=c4c9725f-1ab0-44d8-820f-430df2718e11&s=nTIGbAmuMH3DHY1WTfiJjaa%2BBM9YhyaWOAK5a227EwU%3D\n1 < Nel: {\"report_to\":\"heroku-nel\",\"max_age\":3600,\"success_fraction\":0.005,\"failure_fraction\":0.05,\"response_headers\":[\"Via\"]}\n1 < Access-Control-Allow-Origin: *\n1 < X-Request-Id: 10d5dd2a-f372-4656-bb7d-118b05c928cb\n1 < X-Content-Type-Options: nosniff\n1 < X-Frame-Options: DENY\n1 < X-Xss-Protection: 1; mode=block\n1 < Referrer-Policy: strict-origin-when-cross-origin\n1 < Ratelimit-Policy: 100;w=60\n1 < Ratelimit-Limit: 100\n1 < Ratelimit-Remaining: 42\n1 < Ratelimit-Reset: 55\n1 < Etag: W\/\"41e-bY3U72nulxuwNd\/TmihMEHjLmek\"\n1 < Via: 1.1 vegur\n1 < cf-cache-status: DYNAMIC\n1 < Server: cloudflare\n1 < CF-RAY: 95c858904b523a18-BOM\n1 < server-timing: cfL4;desc=\"?proto=TCP&rtt=45921&min_rtt=39983&rtt_var=17360&sent=7&recv=8&lost=0&retrans=0&sent_bytes=3106&recv_bytes=710&delivery_rate=65297&cwnd=252&unsent_bytes=0&cid=44b144a7b1701d9c&ts=5465&x=0\"\n{\"page\":1,\"per_page\":6,\"total\":12,\"total_pages\":2,\"data\":[{\"id\":1,\"email\":\"george.bluth@reqres.in\",\"first_name\":\"George\",\"last_name\":\"Bluth\",\"avatar\":\"https:\/\/reqres.in\/img\/faces\/1-image.jpg\"},{\"id\":2,\"email\":\"janet.weaver@reqres.in\",\"first_name\":\"Janet\",\"last_name\":\"Weaver\",\"avatar\":\"https:\/\/reqres.in\/img\/faces\/2-image.jpg\"},{\"id\":3,\"email\":\"emma.wong@reqres.in\",\"first_name\":\"Emma\",\"last_name\":\"Wong\",\"avatar\":\"https:\/\/reqres.in\/img\/faces\/3-image.jpg\"},{\"id\":4,\"email\":\"eve.holt@reqres.in\",\"first_name\":\"Eve\",\"last_name\":\"Holt\",\"avatar\":\"https:\/\/reqres.in\/img\/faces\/4-image.jpg\"},{\"id\":5,\"email\":\"charles.morris@reqres.in\",\"first_name\":\"Charles\",\"last_name\":\"Morris\",\"avatar\":\"https:\/\/reqres.in\/img\/faces\/5-image.jpg\"},{\"id\":6,\"email\":\"tracey.ramos@reqres.in\",\"first_name\":\"Tracey\",\"last_name\":\"Ramos\",\"avatar\":\"https:\/\/reqres.in\/img\/faces\/6-image.jpg\"}],\"support\":{\"url\":\"https:\/\/contentcaddy.io?utm_source=reqres&utm_medium=json&utm_campaign=referral\",\"text\":\"Tired of writing endless social media content? Let Content Caddy generate it for you.\"}}\n\n"},{"result":{"nanos":19900,"startTime":1752069613255,"endTime":1752069613255,"millis":0.0199,"status":"passed"},"step":{"line":9,"prefix":"Then","index":5,"text":"status 200"}}],"executorName":"pool-1-thread-7","line":3,"name":"Delay in response scenario","description":"","durationMillis":6268.284,"startTime":1752069606690,"failed":false,"refId":"[1:3]","endTime":1752069613255,"exampleIndex":-1}],"callDepth":0,"name":"Delayed response feature","description":"","resultDate":"2025-07-09 07:30:13 PM","durationMillis":6268.284,"passedCount":1}