{"failedCount":0,"prefixedPath":"classpath:features\/crudOperations\/CRUD_allrequests.feature","packageQualifiedName":"features.crudOperations.CRUD_allrequests","loopIndex":-1,"relativePath":"features\/crudOperations\/CRUD_allrequests.feature","scenarioResults":[{"sectionIndex":0,"stepResults":[{"result":{"nanos":1407800,"startTime":1752055963897,"endTime":1752055963898,"millis":1.4078,"status":"passed"},"step":{"background":true,"line":4,"prefix":"*","index":0,"text":"url 'https:\/\/reqres.in'"},"stepLog":"15:42:43.836 karate.env system property was: null \n15:42:43.881 karate config: {\n  \"env\": \"dev\",\n  \"baseAppUrl\": \"https:\/\/reqres.in\",\n  \"timeout\": 30000,\n  \"retryCount\": 3,\n  \"retryInterval\": 1000,\n  \"baseUrl\": \"https:\/\/reqres.in\"\n}\n \n"},{"result":{"nanos":893600,"startTime":1752055963905,"endTime":1752055963906,"millis":0.8936,"status":"passed"},"step":{"background":true,"line":5,"prefix":"*","index":1,"text":"header x-api-key = 'reqres-free-v1'"}},{"result":{"nanos":847500,"startTime":1752055963905,"endTime":1752055963906,"millis":0.8475,"status":"passed"},"step":{"background":true,"line":6,"prefix":"*","index":2,"text":"header Content-Type = 'application\/json'"}},{"result":{"nanos":4918200,"startTime":1752055963908,"endTime":1752055963913,"millis":4.9182,"status":"passed"},"step":{"line":10,"prefix":"Given","index":0,"text":"path 'api', 'users'"}},{"result":{"nanos":1169700,"startTime":1752055963912,"endTime":1752055963913,"millis":1.1697,"status":"passed"},"step":{"line":11,"prefix":"And","index":1,"text":"param page = 2"}},{"result":{"nanos":729405100,"startTime":1752055963914,"endTime":1752055964643,"millis":729.4051,"status":"passed"},"step":{"line":12,"prefix":"When","index":2,"text":"method GET"},"stepLog":"15:42:44.169 request:\n1 > GET https:\/\/reqres.in\/api\/users?page=2\n1 > x-api-key: reqres-free-v1\n1 > Content-Type: application\/json\n1 > Host: reqres.in\n1 > Connection: Keep-Alive\n1 > User-Agent: Apache-HttpClient\/4.5.14 (Java\/11.0.22)\n1 > Accept-Encoding: gzip,deflate\n\n\n15:42:44.631 response time in milliseconds: 457\n1 < 200\n1 < Date: Wed, 09 Jul 2025 10:12:45 GMT\n1 < Content-Type: application\/json; charset=utf-8\n1 < Transfer-Encoding: chunked\n1 < Connection: keep-alive\n1 < Report-To: {\"group\":\"heroku-nel\",\"max_age\":3600,\"endpoints\":[{\"url\":\"https:\/\/nel.heroku.com\/reports?ts=1752053931&sid=c4c9725f-1ab0-44d8-820f-430df2718e11&s=zSzhONKv3WScKu1MlJck8mOIUb3WL4B%2BBJmGj6EiqtI%3D\"}]}\n1 < Reporting-Endpoints: heroku-nel=https:\/\/nel.heroku.com\/reports?ts=1752053931&sid=c4c9725f-1ab0-44d8-820f-430df2718e11&s=zSzhONKv3WScKu1MlJck8mOIUb3WL4B%2BBJmGj6EiqtI%3D\n1 < Nel: {\"report_to\":\"heroku-nel\",\"max_age\":3600,\"success_fraction\":0.005,\"failure_fraction\":0.05,\"response_headers\":[\"Via\"]}\n1 < Access-Control-Allow-Origin: *\n1 < X-Request-Id: 7210e174-cd12-4250-9326-88cf5942ac43\n1 < X-Content-Type-Options: nosniff\n1 < X-Frame-Options: DENY\n1 < X-Xss-Protection: 1; mode=block\n1 < Referrer-Policy: strict-origin-when-cross-origin\n1 < Ratelimit-Policy: 100;w=60\n1 < Ratelimit-Limit: 100\n1 < Ratelimit-Remaining: 98\n1 < Ratelimit-Reset: 60\n1 < Etag: W\/\"440-ZjsmMKR8P3usr2uJZbOCGCxC3Uw\"\n1 < Via: 1.1 vegur\n1 < Cache-Control: max-age=14400\n1 < CF-Cache-Status: HIT\n1 < Age: 2034\n1 < Vary: Accept-Encoding\n1 < Server: cloudflare\n1 < CF-RAY: 95c70b76c8a70f06-BOM\n1 < server-timing: cfL4;desc=\"?proto=TCP&rtt=43363&min_rtt=40006&rtt_var=17242&sent=7&recv=8&lost=0&retrans=0&sent_bytes=3106&recv_bytes=741&delivery_rate=66754&cwnd=252&unsent_bytes=0&cid=666ae24a2cfb2d49&ts=153&x=0\"\n{\"page\":2,\"per_page\":6,\"total\":12,\"total_pages\":2,\"data\":[{\"id\":7,\"email\":\"michael.lawson@reqres.in\",\"first_name\":\"Michael\",\"last_name\":\"Lawson\",\"avatar\":\"https:\/\/reqres.in\/img\/faces\/7-image.jpg\"},{\"id\":8,\"email\":\"lindsay.ferguson@reqres.in\",\"first_name\":\"Lindsay\",\"last_name\":\"Ferguson\",\"avatar\":\"https:\/\/reqres.in\/img\/faces\/8-image.jpg\"},{\"id\":9,\"email\":\"tobias.funke@reqres.in\",\"first_name\":\"Tobias\",\"last_name\":\"Funke\",\"avatar\":\"https:\/\/reqres.in\/img\/faces\/9-image.jpg\"},{\"id\":10,\"email\":\"byron.fields@reqres.in\",\"first_name\":\"Byron\",\"last_name\":\"Fields\",\"avatar\":\"https:\/\/reqres.in\/img\/faces\/10-image.jpg\"},{\"id\":11,\"email\":\"george.edwards@reqres.in\",\"first_name\":\"George\",\"last_name\":\"Edwards\",\"avatar\":\"https:\/\/reqres.in\/img\/faces\/11-image.jpg\"},{\"id\":12,\"email\":\"rachel.howell@reqres.in\",\"first_name\":\"Rachel\",\"last_name\":\"Howell\",\"avatar\":\"https:\/\/reqres.in\/img\/faces\/12-image.jpg\"}],\"support\":{\"url\":\"https:\/\/contentcaddy.io?utm_source=reqres&utm_medium=json&utm_campaign=referral\",\"text\":\"Tired of writing endless social media content? Let Content Caddy generate it for you.\"}}\n\n"},{"result":{"nanos":40000,"startTime":1752055964642,"endTime":1752055964642,"millis":0.04,"status":"passed"},"step":{"line":13,"prefix":"Then","index":3,"text":"status 200"}},{"result":{"nanos":40368100,"startTime":1752055964642,"endTime":1752055964682,"millis":40.3681,"status":"passed"},"step":{"line":14,"prefix":"And","index":4,"text":"match response.data != null"}}],"line":9,"description":"","durationMillis":779.05,"failed":false,"tags":["get"],"executorName":"Test worker","name":"GET list of users","startTime":1752055963695,"refId":"[1:9]","endTime":1752055964685,"exampleIndex":-1},{"sectionIndex":1,"stepResults":[{"result":{"nanos":300500,"startTime":1752055964708,"endTime":1752055964708,"millis":0.3005,"status":"passed"},"step":{"background":true,"line":4,"prefix":"*","index":0,"text":"url 'https:\/\/reqres.in'"},"stepLog":"15:42:44.701 karate.env system property was: null \n15:42:44.706 karate config: {\n  \"env\": \"dev\",\n  \"baseAppUrl\": \"https:\/\/reqres.in\",\n  \"timeout\": 30000,\n  \"retryCount\": 3,\n  \"retryInterval\": 1000,\n  \"baseUrl\": \"https:\/\/reqres.in\"\n}\n \n"},{"result":{"nanos":188700,"startTime":1752055964708,"endTime":1752055964708,"millis":0.1887,"status":"passed"},"step":{"background":true,"line":5,"prefix":"*","index":1,"text":"header x-api-key = 'reqres-free-v1'"}},{"result":{"nanos":137800,"startTime":1752055964708,"endTime":1752055964708,"millis":0.1378,"status":"passed"},"step":{"background":true,"line":6,"prefix":"*","index":2,"text":"header Content-Type = 'application\/json'"}},{"result":{"nanos":3114200,"startTime":1752055964708,"endTime":1752055964711,"millis":3.1142,"status":"passed"},"step":{"endLine":24,"line":18,"prefix":"*","docString":"{\n  \"name\": \"Raj\",\n  \"job\": \"QA Engineer\"\n}","index":0,"text":"def requestBody ="}},{"result":{"nanos":352300,"startTime":1752055964712,"endTime":1752055964712,"millis":0.3523,"status":"passed"},"step":{"line":25,"prefix":"Given","index":1,"text":"path 'api', 'users'"}},{"result":{"nanos":390200,"startTime":1752055964712,"endTime":1752055964712,"millis":0.3902,"status":"passed"},"step":{"line":26,"prefix":"And","index":2,"text":"request requestBody"}},{"result":{"nanos":680731600,"startTime":1752055964712,"endTime":1752055965393,"millis":680.7316,"status":"passed"},"step":{"line":27,"prefix":"When","index":3,"text":"method POST"},"stepLog":"15:42:44.790 request:\n1 > POST https:\/\/reqres.in\/api\/users\n1 > x-api-key: reqres-free-v1\n1 > Content-Type: application\/json; charset=UTF-8\n1 > Content-Length: 34\n1 > Host: reqres.in\n1 > Connection: Keep-Alive\n1 > User-Agent: Apache-HttpClient\/4.5.14 (Java\/11.0.22)\n1 > Accept-Encoding: gzip,deflate\n{\"name\":\"Raj\",\"job\":\"QA Engineer\"}\n\n15:42:45.392 response time in milliseconds: 602\n1 < 201\n1 < Date: Wed, 09 Jul 2025 10:12:46 GMT\n1 < Content-Type: application\/json; charset=utf-8\n1 < Content-Length: 84\n1 < Connection: keep-alive\n1 < CF-RAY: 95c70b799d9d320c-BOM\n1 < Report-To: {\"group\":\"heroku-nel\",\"max_age\":3600,\"endpoints\":[{\"url\":\"https:\/\/nel.heroku.com\/reports?ts=1752055966&sid=c4c9725f-1ab0-44d8-820f-430df2718e11&s=O8yoc697eR553sydLEwUMlaEqqvJ0kpQwFEwhhp2vxk%3D\"}]}\n1 < Reporting-Endpoints: heroku-nel=https:\/\/nel.heroku.com\/reports?ts=1752055966&sid=c4c9725f-1ab0-44d8-820f-430df2718e11&s=O8yoc697eR553sydLEwUMlaEqqvJ0kpQwFEwhhp2vxk%3D\n1 < Nel: {\"report_to\":\"heroku-nel\",\"max_age\":3600,\"success_fraction\":0.005,\"failure_fraction\":0.05,\"response_headers\":[\"Via\"]}\n1 < Access-Control-Allow-Origin: *\n1 < X-Request-Id: b53a3404-1deb-48d6-ba82-de0d5e2a141c\n1 < X-Content-Type-Options: nosniff\n1 < X-Frame-Options: DENY\n1 < X-Xss-Protection: 1; mode=block\n1 < Referrer-Policy: strict-origin-when-cross-origin\n1 < Ratelimit-Policy: 100;w=60\n1 < Ratelimit-Limit: 100\n1 < Ratelimit-Remaining: 77\n1 < Ratelimit-Reset: 11\n1 < Etag: W\/\"54-NC+wRLVONaQr6iMdYkzItSHkLe0\"\n1 < Via: 1.1 vegur\n1 < cf-cache-status: DYNAMIC\n1 < Server: cloudflare\n1 < server-timing: cfL4;desc=\"?proto=TCP&rtt=48056&min_rtt=45075&rtt_var=22866&sent=4&recv=6&lost=0&retrans=0&sent_bytes=219&recv_bytes=1059&delivery_rate=18308&cwnd=250&unsent_bytes=0&cid=aab3b5177492a081&ts=498&x=0\"\n{\"name\":\"Raj\",\"job\":\"QA Engineer\",\"id\":\"173\",\"createdAt\":\"2025-07-09T10:12:46.042Z\"}\n\n"},{"result":{"nanos":9700,"startTime":1752055965394,"endTime":1752055965394,"millis":0.0097,"status":"passed"},"step":{"line":28,"prefix":"Then","index":4,"text":"status 201"}},{"result":{"nanos":1466800,"startTime":1752055965394,"endTime":1752055965395,"millis":1.4668,"status":"passed"},"step":{"line":29,"prefix":"And","index":5,"text":"match response.name == \"Raj\""}}],"line":17,"description":"","durationMillis":686.6918,"failed":false,"tags":["post"],"executorName":"Test worker","name":"POST - Create a new user","startTime":1752055964701,"refId":"[2:17]","endTime":1752055965396,"exampleIndex":-1},{"sectionIndex":2,"stepResults":[{"result":{"nanos":395500,"startTime":1752055965415,"endTime":1752055965415,"millis":0.3955,"status":"passed"},"step":{"background":true,"line":4,"prefix":"*","index":0,"text":"url 'https:\/\/reqres.in'"},"stepLog":"15:42:45.409 karate.env system property was: null \n15:42:45.413 karate config: {\n  \"env\": \"dev\",\n  \"baseAppUrl\": \"https:\/\/reqres.in\",\n  \"timeout\": 30000,\n  \"retryCount\": 3,\n  \"retryInterval\": 1000,\n  \"baseUrl\": \"https:\/\/reqres.in\"\n}\n \n"},{"result":{"nanos":301700,"startTime":1752055965415,"endTime":1752055965415,"millis":0.3017,"status":"passed"},"step":{"background":true,"line":5,"prefix":"*","index":1,"text":"header x-api-key = 'reqres-free-v1'"}},{"result":{"nanos":231700,"startTime":1752055965415,"endTime":1752055965415,"millis":0.2317,"status":"passed"},"step":{"background":true,"line":6,"prefix":"*","index":2,"text":"header Content-Type = 'application\/json'"}},{"result":{"nanos":990300,"startTime":1752055965417,"endTime":1752055965418,"millis":0.9903,"status":"passed"},"step":{"endLine":39,"line":33,"prefix":"*","docString":"{\n  \"name\": \"Raj Updated\",\n  \"job\": \"Senior QA\"\n}","index":0,"text":"def updateBody ="}},{"result":{"nanos":1001000,"startTime":1752055965418,"endTime":1752055965419,"millis":1.001,"status":"passed"},"step":{"line":40,"prefix":"Given","index":1,"text":"path 'api', 'users', 2"}},{"result":{"nanos":504300,"startTime":1752055965418,"endTime":1752055965419,"millis":0.5043,"status":"passed"},"step":{"line":41,"prefix":"And","index":2,"text":"request updateBody"}},{"result":{"nanos":565164800,"startTime":1752055965420,"endTime":1752055965985,"millis":565.1648,"status":"passed"},"step":{"line":42,"prefix":"When","index":3,"text":"method PUT"},"stepLog":"15:42:45.422 request:\n1 > PUT https:\/\/reqres.in\/api\/users\/2\n1 > x-api-key: reqres-free-v1\n1 > Content-Type: application\/json; charset=UTF-8\n1 > Content-Length: 40\n1 > Host: reqres.in\n1 > Connection: Keep-Alive\n1 > User-Agent: Apache-HttpClient\/4.5.14 (Java\/11.0.22)\n1 > Accept-Encoding: gzip,deflate\n{\"name\":\"Raj Updated\",\"job\":\"Senior QA\"}\n\n15:42:45.961 response time in milliseconds: 521\n1 < 200\n1 < Date: Wed, 09 Jul 2025 10:12:46 GMT\n1 < Content-Type: application\/json; charset=utf-8\n1 < Transfer-Encoding: chunked\n1 < Connection: keep-alive\n1 < Report-To: {\"group\":\"heroku-nel\",\"max_age\":3600,\"endpoints\":[{\"url\":\"https:\/\/nel.heroku.com\/reports?ts=1752055966&sid=c4c9725f-1ab0-44d8-820f-430df2718e11&s=O8yoc697eR553sydLEwUMlaEqqvJ0kpQwFEwhhp2vxk%3D\"}]}\n1 < Reporting-Endpoints: heroku-nel=https:\/\/nel.heroku.com\/reports?ts=1752055966&sid=c4c9725f-1ab0-44d8-820f-430df2718e11&s=O8yoc697eR553sydLEwUMlaEqqvJ0kpQwFEwhhp2vxk%3D\n1 < Nel: {\"report_to\":\"heroku-nel\",\"max_age\":3600,\"success_fraction\":0.005,\"failure_fraction\":0.05,\"response_headers\":[\"Via\"]}\n1 < Access-Control-Allow-Origin: *\n1 < X-Request-Id: f714bc84-d882-4cb8-a4bd-fae2ed41a961\n1 < X-Content-Type-Options: nosniff\n1 < X-Frame-Options: DENY\n1 < X-Xss-Protection: 1; mode=block\n1 < Referrer-Policy: strict-origin-when-cross-origin\n1 < Ratelimit-Policy: 100;w=60\n1 < Ratelimit-Limit: 100\n1 < Ratelimit-Remaining: 75\n1 < Ratelimit-Reset: 11\n1 < Etag: W\/\"4f-c418OEKapCZlRfrzvPwS2Gd0Tvo\"\n1 < Via: 1.1 vegur\n1 < CF-Cache-Status: DYNAMIC\n1 < Vary: Accept-Encoding\n1 < Server: cloudflare\n1 < CF-RAY: 95c70b7d1c5998ef-BOM\n1 < server-timing: cfL4;desc=\"?proto=TCP&rtt=51711&min_rtt=50116&rtt_var=21984&sent=4&recv=6&lost=0&retrans=0&sent_bytes=219&recv_bytes=1066&delivery_rate=20069&cwnd=250&unsent_bytes=0&cid=a5f5e40e9f47fbfe&ts=400&x=0\"\n{\"name\":\"Raj Updated\",\"job\":\"Senior QA\",\"updatedAt\":\"2025-07-09T10:12:46.552Z\"}\n\n"},{"result":{"nanos":49800,"startTime":1752055965985,"endTime":1752055965985,"millis":0.0498,"status":"passed"},"step":{"line":43,"prefix":"Then","index":4,"text":"status 200"}},{"result":{"nanos":6385500,"startTime":1752055965985,"endTime":1752055965991,"millis":6.3855,"status":"passed"},"step":{"line":44,"prefix":"And","index":5,"text":"match response.name == \"Raj Updated\""}}],"line":32,"description":"","durationMillis":575.0246,"failed":false,"tags":["put"],"executorName":"Test worker","name":"PUT - Update user information","startTime":1752055965408,"refId":"[3:32]","endTime":1752055965992,"exampleIndex":-1},{"sectionIndex":3,"stepResults":[{"result":{"nanos":163000,"startTime":1752055966012,"endTime":1752055966012,"millis":0.163,"status":"passed"},"step":{"background":true,"line":4,"prefix":"*","index":0,"text":"url 'https:\/\/reqres.in'"},"stepLog":"15:42:46.008 karate.env system property was: null \n15:42:46.012 karate config: {\n  \"env\": \"dev\",\n  \"baseAppUrl\": \"https:\/\/reqres.in\",\n  \"timeout\": 30000,\n  \"retryCount\": 3,\n  \"retryInterval\": 1000,\n  \"baseUrl\": \"https:\/\/reqres.in\"\n}\n \n"},{"result":{"nanos":129700,"startTime":1752055966012,"endTime":1752055966012,"millis":0.1297,"status":"passed"},"step":{"background":true,"line":5,"prefix":"*","index":1,"text":"header x-api-key = 'reqres-free-v1'"}},{"result":{"nanos":128800,"startTime":1752055966014,"endTime":1752055966014,"millis":0.1288,"status":"passed"},"step":{"background":true,"line":6,"prefix":"*","index":2,"text":"header Content-Type = 'application\/json'"}},{"result":{"nanos":578500,"startTime":1752055966014,"endTime":1752055966015,"millis":0.5785,"status":"passed"},"step":{"endLine":53,"line":48,"prefix":"*","docString":"{\n  \"job\": \"Lead QA\"\n}","index":0,"text":"def patchBody ="}},{"result":{"nanos":349900,"startTime":1752055966014,"endTime":1752055966014,"millis":0.3499,"status":"passed"},"step":{"line":54,"prefix":"Given","index":1,"text":"path 'api', 'users', 2"}},{"result":{"nanos":331900,"startTime":1752055966014,"endTime":1752055966014,"millis":0.3319,"status":"passed"},"step":{"line":55,"prefix":"And","index":2,"text":"request patchBody"}},{"result":{"nanos":531564200,"startTime":1752055966014,"endTime":1752055966546,"millis":531.5642,"status":"passed"},"step":{"line":56,"prefix":"When","index":3,"text":"method PATCH"},"stepLog":"15:42:46.016 request:\n1 > PATCH https:\/\/reqres.in\/api\/users\/2\n1 > x-api-key: reqres-free-v1\n1 > Content-Type: application\/json; charset=UTF-8\n1 > Content-Length: 17\n1 > Host: reqres.in\n1 > Connection: Keep-Alive\n1 > User-Agent: Apache-HttpClient\/4.5.14 (Java\/11.0.22)\n1 > Accept-Encoding: gzip,deflate\n{\"job\":\"Lead QA\"}\n\n15:42:46.534 response time in milliseconds: 511\n1 < 200\n1 < Date: Wed, 09 Jul 2025 10:12:47 GMT\n1 < Content-Type: application\/json; charset=utf-8\n1 < Transfer-Encoding: chunked\n1 < Connection: keep-alive\n1 < Report-To: {\"group\":\"heroku-nel\",\"max_age\":3600,\"endpoints\":[{\"url\":\"https:\/\/nel.heroku.com\/reports?ts=1752055967&sid=c4c9725f-1ab0-44d8-820f-430df2718e11&s=%2FiAyUDX1psD2bnWbWQVBRywqF0dY4oRa8OIsSjSoUc4%3D\"}]}\n1 < Reporting-Endpoints: heroku-nel=https:\/\/nel.heroku.com\/reports?ts=1752055967&sid=c4c9725f-1ab0-44d8-820f-430df2718e11&s=%2FiAyUDX1psD2bnWbWQVBRywqF0dY4oRa8OIsSjSoUc4%3D\n1 < Nel: {\"report_to\":\"heroku-nel\",\"max_age\":3600,\"success_fraction\":0.005,\"failure_fraction\":0.05,\"response_headers\":[\"Via\"]}\n1 < Access-Control-Allow-Origin: *\n1 < X-Request-Id: 80bd11a9-22af-44c2-9c8c-cd694afbdb75\n1 < X-Content-Type-Options: nosniff\n1 < X-Frame-Options: DENY\n1 < X-Xss-Protection: 1; mode=block\n1 < Referrer-Policy: strict-origin-when-cross-origin\n1 < Ratelimit-Policy: 100;w=60\n1 < Ratelimit-Limit: 100\n1 < Ratelimit-Remaining: 73\n1 < Ratelimit-Reset: 10\n1 < Etag: W\/\"38-S8DNjJmLT2cd5vpeud2694M5meM\"\n1 < Via: 1.1 vegur\n1 < cf-cache-status: DYNAMIC\n1 < Server: cloudflare\n1 < CF-RAY: 95c70b8129efd80f-BOM\n1 < server-timing: cfL4;desc=\"?proto=TCP&rtt=42791&min_rtt=39947&rtt_var=20669&sent=4&recv=6&lost=0&retrans=0&sent_bytes=219&recv_bytes=1045&delivery_rate=20126&cwnd=250&unsent_bytes=0&cid=0db1cb900d729daa&ts=396&x=0\"\n{\"job\":\"Lead QA\",\"updatedAt\":\"2025-07-09T10:12:47.153Z\"}\n\n"},{"result":{"nanos":28300,"startTime":1752055966547,"endTime":1752055966547,"millis":0.0283,"status":"passed"},"step":{"line":57,"prefix":"Then","index":4,"text":"status 200"}},{"result":{"nanos":8434500,"startTime":1752055966548,"endTime":1752055966556,"millis":8.4345,"status":"passed"},"step":{"line":58,"prefix":"And","index":5,"text":"match response.job == \"Lead QA\""}}],"line":47,"description":"","durationMillis":541.7088,"failed":false,"tags":["patch"],"executorName":"Test worker","name":"PATCH - Partially update user","startTime":1752055966008,"refId":"[4:47]","endTime":1752055966556,"exampleIndex":-1},{"sectionIndex":4,"stepResults":[{"result":{"nanos":304700,"startTime":1752055966580,"endTime":1752055966580,"millis":0.3047,"status":"passed"},"step":{"background":true,"line":4,"prefix":"*","index":0,"text":"url 'https:\/\/reqres.in'"},"stepLog":"15:42:46.575 karate.env system property was: null \n15:42:46.577 karate config: {\n  \"env\": \"dev\",\n  \"baseAppUrl\": \"https:\/\/reqres.in\",\n  \"timeout\": 30000,\n  \"retryCount\": 3,\n  \"retryInterval\": 1000,\n  \"baseUrl\": \"https:\/\/reqres.in\"\n}\n \n"},{"result":{"nanos":171100,"startTime":1752055966580,"endTime":1752055966580,"millis":0.1711,"status":"passed"},"step":{"background":true,"line":5,"prefix":"*","index":1,"text":"header x-api-key = 'reqres-free-v1'"}},{"result":{"nanos":119900,"startTime":1752055966580,"endTime":1752055966580,"millis":0.1199,"status":"passed"},"step":{"background":true,"line":6,"prefix":"*","index":2,"text":"header Content-Type = 'application\/json'"}},{"result":{"nanos":310200,"startTime":1752055966580,"endTime":1752055966580,"millis":0.3102,"status":"passed"},"step":{"line":62,"prefix":"Given","index":0,"text":"path 'api', 'users', 2"}},{"result":{"nanos":534489300,"startTime":1752055966580,"endTime":1752055967114,"millis":534.4893,"status":"passed"},"step":{"line":63,"prefix":"When","index":1,"text":"method DELETE"},"stepLog":"15:42:46.580 request:\n1 > DELETE https:\/\/reqres.in\/api\/users\/2\n1 > x-api-key: reqres-free-v1\n1 > Content-Type: application\/json\n1 > Host: reqres.in\n1 > Connection: Keep-Alive\n1 > User-Agent: Apache-HttpClient\/4.5.14 (Java\/11.0.22)\n1 > Accept-Encoding: gzip,deflate\n\n\n15:42:47.091 response time in milliseconds: 500\n1 < 204\n1 < Date: Wed, 09 Jul 2025 10:12:47 GMT\n1 < Connection: keep-alive\n1 < CF-RAY: 95c70b847b096ed7-BOM\n1 < Report-To: {\"group\":\"heroku-nel\",\"max_age\":3600,\"endpoints\":[{\"url\":\"https:\/\/nel.heroku.com\/reports?ts=1752055967&sid=c4c9725f-1ab0-44d8-820f-430df2718e11&s=%2FiAyUDX1psD2bnWbWQVBRywqF0dY4oRa8OIsSjSoUc4%3D\"}]}\n1 < Reporting-Endpoints: heroku-nel=https:\/\/nel.heroku.com\/reports?ts=1752055967&sid=c4c9725f-1ab0-44d8-820f-430df2718e11&s=%2FiAyUDX1psD2bnWbWQVBRywqF0dY4oRa8OIsSjSoUc4%3D\n1 < Nel: {\"report_to\":\"heroku-nel\",\"max_age\":3600,\"success_fraction\":0.005,\"failure_fraction\":0.05,\"response_headers\":[\"Via\"]}\n1 < Access-Control-Allow-Origin: *\n1 < X-Request-Id: abaefb8a-8e1b-4f11-97a0-5ec993538d22\n1 < X-Content-Type-Options: nosniff\n1 < X-Frame-Options: DENY\n1 < X-Xss-Protection: 1; mode=block\n1 < Referrer-Policy: strict-origin-when-cross-origin\n1 < Ratelimit-Policy: 100;w=60\n1 < Ratelimit-Limit: 100\n1 < Ratelimit-Remaining: 71\n1 < Ratelimit-Reset: 10\n1 < Etag: W\/\"2-vyGp6PvFo4RvsFtPoIWeCReyIC8\"\n1 < Via: 1.1 vegur\n1 < cf-cache-status: DYNAMIC\n1 < Server: cloudflare\n1 < server-timing: cfL4;desc=\"?proto=TCP&rtt=43269&min_rtt=39966&rtt_var=21595&sent=4&recv=6&lost=0&retrans=0&sent_bytes=219&recv_bytes=994&delivery_rate=19006&cwnd=250&unsent_bytes=0&cid=ad3c802247d36d29&ts=383&x=0\"\n\n\n"},{"result":{"nanos":27300,"startTime":1752055967117,"endTime":1752055967117,"millis":0.0273,"status":"passed"},"step":{"line":64,"prefix":"Then","index":2,"text":"status 204"}}],"line":61,"description":"","durationMillis":535.4225,"failed":false,"tags":["delete"],"executorName":"Test worker","name":"DELETE - Delete user","startTime":1752055966573,"refId":"[5:61]","endTime":1752055967117,"exampleIndex":-1}],"callDepth":0,"name":"Reqres API Test Scenarios with Different HTTP Methods","description":"","resultDate":"2025-07-09 03:42:47 PM","durationMillis":3117.8977,"passedCount":5}