{"failedCount":0,"prefixedPath":"src\/test\/java\/features\/GET_DelayedResponse.feature","packageQualifiedName":"src.test.java.features.GET_DelayedResponse","loopIndex":-1,"relativePath":"src\/test\/java\/features\/GET_DelayedResponse.feature","scenarioResults":[{"sectionIndex":0,"stepResults":[{"result":{"nanos":150800,"startTime":1751864535189,"endTime":1751864535189,"millis":0.1508,"status":"passed"},"step":{"line":4,"prefix":"Given","index":0,"text":"url baseAppUrl"},"stepLog":"10:32:15.184 karate.env system property was: null \n10:32:15.187 karate config: {\n  \"env\": \"dev\",\n  \"baseUrl\": \"https:\/\/automationexercise.com\",\n  \"baseAppUrl\": \"https:\/\/reqres.in\",\n  \"timeout\": 30000,\n  \"retryCount\": 3,\n  \"retryInterval\": 1000,\n  \"testUser\": {\n    \"name\": \"Test User\",\n    \"email\": \"testuser1751864535186@example.com\",\n    \"password\": \"testpass123\",\n    \"title\": \"Mr\",\n    \"birth_date\": \"1\",\n    \"birth_month\": \"1\",\n    \"birth_year\": \"1990\",\n    \"firstname\": \"Test\",\n    \"lastname\": \"User\",\n    \"company\": \"Test Company\",\n    \"address1\": \"123 Test Street\",\n    \"address2\": \"Apt 1\",\n    \"country\": \"India\",\n    \"zipcode\": \"12345\",\n    \"state\": \"Test State\",\n    \"city\": \"Test City\",\n    \"mobile_number\": \"1234567890\"\n  }\n}\n \n"},{"result":{"nanos":1653100,"startTime":1751864535189,"endTime":1751864535191,"millis":1.6531,"status":"passed"},"step":{"line":5,"prefix":"And","index":1,"text":"path 'api','users'"}},{"result":{"nanos":918200,"startTime":1751864535192,"endTime":1751864535193,"millis":0.9182,"status":"passed"},"step":{"line":6,"prefix":"And","index":2,"text":"param delay = 5"}},{"result":{"nanos":199100,"startTime":1751864535193,"endTime":1751864535193,"millis":0.1991,"status":"passed"},"step":{"line":7,"prefix":"And","index":3,"text":"header x-api-key = 'reqres-free-v1'"}},{"result":{"nanos":7674172700,"startTime":1751864535193,"endTime":1751864542867,"millis":7674.1727,"status":"passed"},"step":{"line":8,"prefix":"When","index":4,"text":"method GET"},"stepLog":"10:32:15.194 request:\n1 > GET https:\/\/reqres.in\/api\/users?delay=5\n1 > x-api-key: reqres-free-v1\n1 > Host: reqres.in\n1 > Connection: Keep-Alive\n1 > User-Agent: Apache-HttpClient\/4.5.14 (Java\/11.0.22)\n1 > Accept-Encoding: gzip,deflate\n\n\n10:32:22.862 response time in milliseconds: 7668\n1 < 200\n1 < Date: Mon, 07 Jul 2025 05:02:22 GMT\n1 < Content-Type: application\/json; charset=utf-8\n1 < Transfer-Encoding: chunked\n1 < Connection: keep-alive\n1 < Report-To: {\"group\":\"heroku-nel\",\"max_age\":3600,\"endpoints\":[{\"url\":\"https:\/\/nel.heroku.com\/reports?ts=1751864537&sid=c4c9725f-1ab0-44d8-820f-430df2718e11&s=KHEXXL1SR4E3VFLMdgDGYubPB%2BxIRdY%2F2jvz6T%2BFV0g%3D\"}]}\n1 < Reporting-Endpoints: heroku-nel=https:\/\/nel.heroku.com\/reports?ts=1751864537&sid=c4c9725f-1ab0-44d8-820f-430df2718e11&s=KHEXXL1SR4E3VFLMdgDGYubPB%2BxIRdY%2F2jvz6T%2BFV0g%3D\n1 < Nel: {\"report_to\":\"heroku-nel\",\"max_age\":3600,\"success_fraction\":0.005,\"failure_fraction\":0.05,\"response_headers\":[\"Via\"]}\n1 < X-Powered-By: Express\n1 < Access-Control-Allow-Origin: *\n1 < Ratelimit-Policy: 100;w=60\n1 < Ratelimit-Limit: 100\n1 < Ratelimit-Remaining: 88\n1 < Ratelimit-Reset: 49\n1 < Etag: W\/\"41e-bY3U72nulxuwNd\/TmihMEHjLmek\"\n1 < Via: 1.1 vegur\n1 < cf-cache-status: DYNAMIC\n1 < Server: cloudflare\n1 < CF-RAY: 95b4c9ee4971408d-BOM\n1 < server-timing: cfL4;desc=\"?proto=TCP&rtt=81733&min_rtt=69356&rtt_var=50763&sent=4&recv=6&lost=0&retrans=0&sent_bytes=219&recv_bytes=965&delivery_rate=7827&cwnd=250&unsent_bytes=0&cid=34d189412ed61cfd&ts=5495&x=0\"\n{\"page\":1,\"per_page\":6,\"total\":12,\"total_pages\":2,\"data\":[{\"id\":1,\"email\":\"george.bluth@reqres.in\",\"first_name\":\"George\",\"last_name\":\"Bluth\",\"avatar\":\"https:\/\/reqres.in\/img\/faces\/1-image.jpg\"},{\"id\":2,\"email\":\"janet.weaver@reqres.in\",\"first_name\":\"Janet\",\"last_name\":\"Weaver\",\"avatar\":\"https:\/\/reqres.in\/img\/faces\/2-image.jpg\"},{\"id\":3,\"email\":\"emma.wong@reqres.in\",\"first_name\":\"Emma\",\"last_name\":\"Wong\",\"avatar\":\"https:\/\/reqres.in\/img\/faces\/3-image.jpg\"},{\"id\":4,\"email\":\"eve.holt@reqres.in\",\"first_name\":\"Eve\",\"last_name\":\"Holt\",\"avatar\":\"https:\/\/reqres.in\/img\/faces\/4-image.jpg\"},{\"id\":5,\"email\":\"charles.morris@reqres.in\",\"first_name\":\"Charles\",\"last_name\":\"Morris\",\"avatar\":\"https:\/\/reqres.in\/img\/faces\/5-image.jpg\"},{\"id\":6,\"email\":\"tracey.ramos@reqres.in\",\"first_name\":\"Tracey\",\"last_name\":\"Ramos\",\"avatar\":\"https:\/\/reqres.in\/img\/faces\/6-image.jpg\"}],\"support\":{\"url\":\"https:\/\/contentcaddy.io?utm_source=reqres&utm_medium=json&utm_campaign=referral\",\"text\":\"Tired of writing endless social media content? Let Content Caddy generate it for you.\"}}\n\n"},{"result":{"nanos":10600,"startTime":1751864542867,"endTime":1751864542867,"millis":0.0106,"status":"passed"},"step":{"line":9,"prefix":"Then","index":5,"text":"status 200"}}],"executorName":"Test worker","line":3,"name":"Delay in response scenario","description":"","durationMillis":7677.1045,"startTime":1751864535182,"failed":false,"refId":"[1:3]","endTime":1751864542867,"exampleIndex":-1}],"callDepth":0,"name":"Delayed response feature","description":"","resultDate":"2025-07-07 10:32:22 AM","durationMillis":7677.1045,"passedCount":1}