{"failedCount":0,"prefixedPath":"src\/test\/java\/features\/methods\/callingAnotherFile.feature","packageQualifiedName":"src.test.java.features.methods.callingAnotherFile","loopIndex":-1,"relativePath":"src\/test\/java\/features\/methods\/callingAnotherFile.feature","scenarioResults":[{"sectionIndex":0,"stepResults":[{"result":{"nanos":2956949900,"startTime":1752055650770,"endTime":1752055653727,"millis":2956.9499,"status":"passed"},"step":{"line":6,"prefix":"Given","index":0,"text":"call read('classpath:features\/CRUD_allrequests.feature')"},"callResults":[{"failedCount":0,"prefixedPath":"classpath:features\/CRUD_allrequests.feature","packageQualifiedName":"features.CRUD_allrequests","loopIndex":-1,"relativePath":"features\/CRUD_allrequests.feature","scenarioResults":[{"sectionIndex":0,"stepResults":[{"result":{"nanos":786400,"startTime":1752055650794,"endTime":1752055650795,"millis":0.7864,"status":"passed"},"step":{"background":true,"line":4,"prefix":"*","index":0,"text":"url 'https:\/\/reqres.in'"},"stepLog":"15:37:30.709 karate.env system property was: null \n15:37:30.754 karate config: {\n  \"env\": \"dev\",\n  \"baseAppUrl\": \"https:\/\/reqres.in\",\n  \"timeout\": 30000,\n  \"retryCount\": 3,\n  \"retryInterval\": 1000,\n  \"baseUrl\": \"https:\/\/reqres.in\"\n}\n \n"},{"result":{"nanos":878700,"startTime":1752055650804,"endTime":1752055650805,"millis":0.8787,"status":"passed"},"step":{"background":true,"line":5,"prefix":"*","index":1,"text":"header x-api-key = 'reqres-free-v1'"}},{"result":{"nanos":619100,"startTime":1752055650806,"endTime":1752055650807,"millis":0.6191,"status":"passed"},"step":{"background":true,"line":6,"prefix":"*","index":2,"text":"header Content-Type = 'application\/json'"}},{"result":{"nanos":6386500,"startTime":1752055650806,"endTime":1752055650812,"millis":6.3865,"status":"passed"},"step":{"line":10,"prefix":"Given","index":0,"text":"path 'api', 'users'"}},{"result":{"nanos":975400,"startTime":1752055650812,"endTime":1752055650813,"millis":0.9754,"status":"passed"},"step":{"line":11,"prefix":"And","index":1,"text":"param page = 2"}},{"result":{"nanos":731197100,"startTime":1752055650814,"endTime":1752055651545,"millis":731.1971,"status":"passed"},"step":{"line":12,"prefix":"When","index":2,"text":"method GET"},"stepLog":"15:37:31.057 request:\n1 > GET https:\/\/reqres.in\/api\/users?page=2\n1 > x-api-key: reqres-free-v1\n1 > Content-Type: application\/json\n1 > Host: reqres.in\n1 > Connection: Keep-Alive\n1 > User-Agent: Apache-HttpClient\/4.5.14 (Java\/11.0.22)\n1 > Accept-Encoding: gzip,deflate\n\n\n15:37:31.537 response time in milliseconds: 470\n1 < 200\n1 < Date: Wed, 09 Jul 2025 10:07:32 GMT\n1 < Content-Type: application\/json; charset=utf-8\n1 < Transfer-Encoding: chunked\n1 < Connection: keep-alive\n1 < Report-To: {\"group\":\"heroku-nel\",\"max_age\":3600,\"endpoints\":[{\"url\":\"https:\/\/nel.heroku.com\/reports?ts=1752053931&sid=c4c9725f-1ab0-44d8-820f-430df2718e11&s=zSzhONKv3WScKu1MlJck8mOIUb3WL4B%2BBJmGj6EiqtI%3D\"}]}\n1 < Reporting-Endpoints: heroku-nel=https:\/\/nel.heroku.com\/reports?ts=1752053931&sid=c4c9725f-1ab0-44d8-820f-430df2718e11&s=zSzhONKv3WScKu1MlJck8mOIUb3WL4B%2BBJmGj6EiqtI%3D\n1 < Nel: {\"report_to\":\"heroku-nel\",\"max_age\":3600,\"success_fraction\":0.005,\"failure_fraction\":0.05,\"response_headers\":[\"Via\"]}\n1 < Access-Control-Allow-Origin: *\n1 < X-Request-Id: 7210e174-cd12-4250-9326-88cf5942ac43\n1 < X-Content-Type-Options: nosniff\n1 < X-Frame-Options: DENY\n1 < X-Xss-Protection: 1; mode=block\n1 < Referrer-Policy: strict-origin-when-cross-origin\n1 < Ratelimit-Policy: 100;w=60\n1 < Ratelimit-Limit: 100\n1 < Ratelimit-Remaining: 98\n1 < Ratelimit-Reset: 60\n1 < Etag: W\/\"440-ZjsmMKR8P3usr2uJZbOCGCxC3Uw\"\n1 < Via: 1.1 vegur\n1 < Cache-Control: max-age=14400\n1 < CF-Cache-Status: HIT\n1 < Age: 1721\n1 < Vary: Accept-Encoding\n1 < Server: cloudflare\n1 < CF-RAY: 95c703d1db4431d0-BOM\n1 < server-timing: cfL4;desc=\"?proto=TCP&rtt=43267&min_rtt=40131&rtt_var=17057&sent=7&recv=8&lost=0&retrans=0&sent_bytes=3106&recv_bytes=741&delivery_rate=65068&cwnd=252&unsent_bytes=0&cid=58df7e990502c698&ts=181&x=0\"\n{\"page\":2,\"per_page\":6,\"total\":12,\"total_pages\":2,\"data\":[{\"id\":7,\"email\":\"michael.lawson@reqres.in\",\"first_name\":\"Michael\",\"last_name\":\"Lawson\",\"avatar\":\"https:\/\/reqres.in\/img\/faces\/7-image.jpg\"},{\"id\":8,\"email\":\"lindsay.ferguson@reqres.in\",\"first_name\":\"Lindsay\",\"last_name\":\"Ferguson\",\"avatar\":\"https:\/\/reqres.in\/img\/faces\/8-image.jpg\"},{\"id\":9,\"email\":\"tobias.funke@reqres.in\",\"first_name\":\"Tobias\",\"last_name\":\"Funke\",\"avatar\":\"https:\/\/reqres.in\/img\/faces\/9-image.jpg\"},{\"id\":10,\"email\":\"byron.fields@reqres.in\",\"first_name\":\"Byron\",\"last_name\":\"Fields\",\"avatar\":\"https:\/\/reqres.in\/img\/faces\/10-image.jpg\"},{\"id\":11,\"email\":\"george.edwards@reqres.in\",\"first_name\":\"George\",\"last_name\":\"Edwards\",\"avatar\":\"https:\/\/reqres.in\/img\/faces\/11-image.jpg\"},{\"id\":12,\"email\":\"rachel.howell@reqres.in\",\"first_name\":\"Rachel\",\"last_name\":\"Howell\",\"avatar\":\"https:\/\/reqres.in\/img\/faces\/12-image.jpg\"}],\"support\":{\"url\":\"https:\/\/contentcaddy.io?utm_source=reqres&utm_medium=json&utm_campaign=referral\",\"text\":\"Tired of writing endless social media content? Let Content Caddy generate it for you.\"}}\n\n"},{"result":{"nanos":29000,"startTime":1752055651545,"endTime":1752055651545,"millis":0.029,"status":"passed"},"step":{"line":13,"prefix":"Then","index":3,"text":"status 200"}},{"result":{"nanos":36191800,"startTime":1752055651545,"endTime":1752055651581,"millis":36.1918,"status":"passed"},"step":{"line":14,"prefix":"And","index":4,"text":"match response.data != null"}}],"line":9,"description":"","durationMillis":777.064,"failed":false,"tags":["get"],"executorName":"Test worker","name":"GET list of users","startTime":1752055650794,"refId":"[1:9]","endTime":1752055651582,"exampleIndex":-1},{"sectionIndex":1,"stepResults":[{"result":{"nanos":310500,"startTime":1752055651589,"endTime":1752055651589,"millis":0.3105,"status":"passed"},"step":{"background":true,"line":4,"prefix":"*","index":0,"text":"url 'https:\/\/reqres.in'"}},{"result":{"nanos":248800,"startTime":1752055651589,"endTime":1752055651589,"millis":0.2488,"status":"passed"},"step":{"background":true,"line":5,"prefix":"*","index":1,"text":"header x-api-key = 'reqres-free-v1'"}},{"result":{"nanos":491700,"startTime":1752055651589,"endTime":1752055651589,"millis":0.4917,"status":"passed"},"step":{"background":true,"line":6,"prefix":"*","index":2,"text":"header Content-Type = 'application\/json'"}},{"result":{"nanos":3022400,"startTime":1752055651591,"endTime":1752055651594,"millis":3.0224,"status":"passed"},"step":{"endLine":24,"line":18,"prefix":"*","docString":"{\n  \"name\": \"Raj\",\n  \"job\": \"QA Engineer\"\n}","index":0,"text":"def requestBody ="}},{"result":{"nanos":343600,"startTime":1752055651592,"endTime":1752055651592,"millis":0.3436,"status":"passed"},"step":{"line":25,"prefix":"Given","index":1,"text":"path 'api', 'users'"}},{"result":{"nanos":444500,"startTime":1752055651592,"endTime":1752055651592,"millis":0.4445,"status":"passed"},"step":{"line":26,"prefix":"And","index":2,"text":"request requestBody"}},{"result":{"nanos":569270200,"startTime":1752055651592,"endTime":1752055652161,"millis":569.2702,"status":"passed"},"step":{"line":27,"prefix":"When","index":3,"text":"method POST"},"stepLog":"15:37:31.653 request:\n1 > POST https:\/\/reqres.in\/api\/users\n1 > x-api-key: reqres-free-v1\n1 > Content-Type: application\/json; charset=UTF-8\n1 > Content-Length: 34\n1 > Host: reqres.in\n1 > Connection: Keep-Alive\n1 > User-Agent: Apache-HttpClient\/4.5.14 (Java\/11.0.22)\n1 > Accept-Encoding: gzip,deflate\n{\"name\":\"Raj\",\"job\":\"QA Engineer\"}\n\n15:37:32.162 response time in milliseconds: 506\n1 < 201\n1 < Date: Wed, 09 Jul 2025 10:07:32 GMT\n1 < Content-Type: application\/json; charset=utf-8\n1 < Content-Length: 83\n1 < Connection: keep-alive\n1 < CF-RAY: 95c703d48db26efa-BOM\n1 < Report-To: {\"group\":\"heroku-nel\",\"max_age\":3600,\"endpoints\":[{\"url\":\"https:\/\/nel.heroku.com\/reports?ts=1752055652&sid=c4c9725f-1ab0-44d8-820f-430df2718e11&s=WLsrw2JZ2We%2BxZl1nux7p29A%2B0sgGTyViNRSRFapILc%3D\"}]}\n1 < Reporting-Endpoints: heroku-nel=https:\/\/nel.heroku.com\/reports?ts=1752055652&sid=c4c9725f-1ab0-44d8-820f-430df2718e11&s=WLsrw2JZ2We%2BxZl1nux7p29A%2B0sgGTyViNRSRFapILc%3D\n1 < Nel: {\"report_to\":\"heroku-nel\",\"max_age\":3600,\"success_fraction\":0.005,\"failure_fraction\":0.05,\"response_headers\":[\"Via\"]}\n1 < Access-Control-Allow-Origin: *\n1 < X-Request-Id: 4ccf59ea-b2cd-4e6b-83b1-9a70079bc49d\n1 < X-Content-Type-Options: nosniff\n1 < X-Frame-Options: DENY\n1 < X-Xss-Protection: 1; mode=block\n1 < Referrer-Policy: strict-origin-when-cross-origin\n1 < Ratelimit-Policy: 100;w=60\n1 < Ratelimit-Limit: 100\n1 < Ratelimit-Remaining: 96\n1 < Ratelimit-Reset: 12\n1 < Etag: W\/\"53-wSwVBXSfxS7iR6V3uOLdxi3DiAE\"\n1 < Via: 1.1 vegur\n1 < cf-cache-status: DYNAMIC\n1 < Server: cloudflare\n1 < server-timing: cfL4;desc=\"?proto=TCP&rtt=39789&min_rtt=34895&rtt_var=22875&sent=4&recv=6&lost=0&retrans=0&sent_bytes=219&recv_bytes=1059&delivery_rate=17041&cwnd=250&unsent_bytes=0&cid=191e51642fad3d19&ts=362&x=0\"\n{\"name\":\"Raj\",\"job\":\"QA Engineer\",\"id\":\"59\",\"createdAt\":\"2025-07-09T10:07:32.800Z\"}\n\n"},{"result":{"nanos":9900,"startTime":1752055652164,"endTime":1752055652164,"millis":0.0099,"status":"passed"},"step":{"line":28,"prefix":"Then","index":4,"text":"status 201"}},{"result":{"nanos":2721600,"startTime":1752055652164,"endTime":1752055652167,"millis":2.7216,"status":"passed"},"step":{"line":29,"prefix":"And","index":5,"text":"match response.name == \"Raj\""}}],"line":17,"description":"","durationMillis":576.8632,"failed":false,"tags":["post"],"executorName":"Test worker","name":"POST - Create a new user","startTime":1752055651589,"refId":"[2:17]","endTime":1752055652168,"exampleIndex":-1},{"sectionIndex":2,"stepResults":[{"result":{"nanos":797600,"startTime":1752055652180,"endTime":1752055652181,"millis":0.7976,"status":"passed"},"step":{"background":true,"line":4,"prefix":"*","index":0,"text":"url 'https:\/\/reqres.in'"}},{"result":{"nanos":533500,"startTime":1752055652181,"endTime":1752055652182,"millis":0.5335,"status":"passed"},"step":{"background":true,"line":5,"prefix":"*","index":1,"text":"header x-api-key = 'reqres-free-v1'"}},{"result":{"nanos":481900,"startTime":1752055652181,"endTime":1752055652181,"millis":0.4819,"status":"passed"},"step":{"background":true,"line":6,"prefix":"*","index":2,"text":"header Content-Type = 'application\/json'"}},{"result":{"nanos":809200,"startTime":1752055652182,"endTime":1752055652183,"millis":0.8092,"status":"passed"},"step":{"endLine":39,"line":33,"prefix":"*","docString":"{\n  \"name\": \"Raj Updated\",\n  \"job\": \"Senior QA\"\n}","index":0,"text":"def updateBody ="}},{"result":{"nanos":1130800,"startTime":1752055652182,"endTime":1752055652183,"millis":1.1308,"status":"passed"},"step":{"line":40,"prefix":"Given","index":1,"text":"path 'api', 'users', 2"}},{"result":{"nanos":750500,"startTime":1752055652182,"endTime":1752055652183,"millis":0.7505,"status":"passed"},"step":{"line":41,"prefix":"And","index":2,"text":"request updateBody"}},{"result":{"nanos":435988400,"startTime":1752055652185,"endTime":1752055652621,"millis":435.9884,"status":"passed"},"step":{"line":42,"prefix":"When","index":3,"text":"method PUT"},"stepLog":"15:37:32.186 request:\n1 > PUT https:\/\/reqres.in\/api\/users\/2\n1 > x-api-key: reqres-free-v1\n1 > Content-Type: application\/json; charset=UTF-8\n1 > Content-Length: 40\n1 > Host: reqres.in\n1 > Connection: Keep-Alive\n1 > User-Agent: Apache-HttpClient\/4.5.14 (Java\/11.0.22)\n1 > Accept-Encoding: gzip,deflate\n{\"name\":\"Raj Updated\",\"job\":\"Senior QA\"}\n\n15:37:32.618 response time in milliseconds: 429\n1 < 200\n1 < Date: Wed, 09 Jul 2025 10:07:33 GMT\n1 < Content-Type: application\/json; charset=utf-8\n1 < Transfer-Encoding: chunked\n1 < Connection: keep-alive\n1 < Report-To: {\"group\":\"heroku-nel\",\"max_age\":3600,\"endpoints\":[{\"url\":\"https:\/\/nel.heroku.com\/reports?ts=1752055653&sid=c4c9725f-1ab0-44d8-820f-430df2718e11&s=Jg6cz67hRQz%2F%2Fy9ZxAuERQWNEVwFuni5BHy68XBJjaI%3D\"}]}\n1 < Reporting-Endpoints: heroku-nel=https:\/\/nel.heroku.com\/reports?ts=1752055653&sid=c4c9725f-1ab0-44d8-820f-430df2718e11&s=Jg6cz67hRQz%2F%2Fy9ZxAuERQWNEVwFuni5BHy68XBJjaI%3D\n1 < Nel: {\"report_to\":\"heroku-nel\",\"max_age\":3600,\"success_fraction\":0.005,\"failure_fraction\":0.05,\"response_headers\":[\"Via\"]}\n1 < Access-Control-Allow-Origin: *\n1 < X-Request-Id: 2bf05651-dff2-4d54-9a9d-58ffc885759a\n1 < X-Content-Type-Options: nosniff\n1 < X-Frame-Options: DENY\n1 < X-Xss-Protection: 1; mode=block\n1 < Referrer-Policy: strict-origin-when-cross-origin\n1 < Ratelimit-Policy: 100;w=60\n1 < Ratelimit-Limit: 100\n1 < Ratelimit-Remaining: 94\n1 < Ratelimit-Reset: 12\n1 < Etag: W\/\"4f-WBUsLZvmzYvxJsqXRxo2q7bzaNw\"\n1 < Via: 1.1 vegur\n1 < CF-Cache-Status: DYNAMIC\n1 < Vary: Accept-Encoding\n1 < Server: cloudflare\n1 < CF-RAY: 95c703d74e026ee8-BOM\n1 < server-timing: cfL4;desc=\"?proto=TCP&rtt=44828&min_rtt=42537&rtt_var=17588&sent=3&recv=6&lost=0&retrans=0&sent_bytes=219&recv_bytes=1066&delivery_rate=29668&cwnd=250&unsent_bytes=0&cid=e3ce8aa15e90f8c1&ts=330&x=0\"\n{\"name\":\"Raj Updated\",\"job\":\"Senior QA\",\"updatedAt\":\"2025-07-09T10:07:33.244Z\"}\n\n"},{"result":{"nanos":15200,"startTime":1752055652621,"endTime":1752055652621,"millis":0.0152,"status":"passed"},"step":{"line":43,"prefix":"Then","index":4,"text":"status 200"}},{"result":{"nanos":3476400,"startTime":1752055652621,"endTime":1752055652624,"millis":3.4764,"status":"passed"},"step":{"line":44,"prefix":"And","index":5,"text":"match response.name == \"Raj Updated\""}}],"line":32,"description":"","durationMillis":443.9835,"failed":false,"tags":["put"],"executorName":"Test worker","name":"PUT - Update user information","startTime":1752055652180,"refId":"[3:32]","endTime":1752055652625,"exampleIndex":-1},{"sectionIndex":3,"stepResults":[{"result":{"nanos":527900,"startTime":1752055652637,"endTime":1752055652638,"millis":0.5279,"status":"passed"},"step":{"background":true,"line":4,"prefix":"*","index":0,"text":"url 'https:\/\/reqres.in'"}},{"result":{"nanos":811700,"startTime":1752055652637,"endTime":1752055652638,"millis":0.8117,"status":"passed"},"step":{"background":true,"line":5,"prefix":"*","index":1,"text":"header x-api-key = 'reqres-free-v1'"}},{"result":{"nanos":804600,"startTime":1752055652638,"endTime":1752055652639,"millis":0.8046,"status":"passed"},"step":{"background":true,"line":6,"prefix":"*","index":2,"text":"header Content-Type = 'application\/json'"}},{"result":{"nanos":1501800,"startTime":1752055652639,"endTime":1752055652641,"millis":1.5018,"status":"passed"},"step":{"endLine":53,"line":48,"prefix":"*","docString":"{\n  \"job\": \"Lead QA\"\n}","index":0,"text":"def patchBody ="}},{"result":{"nanos":1115100,"startTime":1752055652641,"endTime":1752055652642,"millis":1.1151,"status":"passed"},"step":{"line":54,"prefix":"Given","index":1,"text":"path 'api', 'users', 2"}},{"result":{"nanos":747000,"startTime":1752055652641,"endTime":1752055652642,"millis":0.747,"status":"passed"},"step":{"line":55,"prefix":"And","index":2,"text":"request patchBody"}},{"result":{"nanos":520999800,"startTime":1752055652643,"endTime":1752055653164,"millis":520.9998,"status":"passed"},"step":{"line":56,"prefix":"When","index":3,"text":"method PATCH"},"stepLog":"15:37:32.645 request:\n1 > PATCH https:\/\/reqres.in\/api\/users\/2\n1 > x-api-key: reqres-free-v1\n1 > Content-Type: application\/json; charset=UTF-8\n1 > Content-Length: 17\n1 > Host: reqres.in\n1 > Connection: Keep-Alive\n1 > User-Agent: Apache-HttpClient\/4.5.14 (Java\/11.0.22)\n1 > Accept-Encoding: gzip,deflate\n{\"job\":\"Lead QA\"}\n\n15:37:33.160 response time in milliseconds: 511\n1 < 200\n1 < Date: Wed, 09 Jul 2025 10:07:33 GMT\n1 < Content-Type: application\/json; charset=utf-8\n1 < Transfer-Encoding: chunked\n1 < Connection: keep-alive\n1 < Report-To: {\"group\":\"heroku-nel\",\"max_age\":3600,\"endpoints\":[{\"url\":\"https:\/\/nel.heroku.com\/reports?ts=1752055653&sid=c4c9725f-1ab0-44d8-820f-430df2718e11&s=Jg6cz67hRQz%2F%2Fy9ZxAuERQWNEVwFuni5BHy68XBJjaI%3D\"}]}\n1 < Reporting-Endpoints: heroku-nel=https:\/\/nel.heroku.com\/reports?ts=1752055653&sid=c4c9725f-1ab0-44d8-820f-430df2718e11&s=Jg6cz67hRQz%2F%2Fy9ZxAuERQWNEVwFuni5BHy68XBJjaI%3D\n1 < Nel: {\"report_to\":\"heroku-nel\",\"max_age\":3600,\"success_fraction\":0.005,\"failure_fraction\":0.05,\"response_headers\":[\"Via\"]}\n1 < Access-Control-Allow-Origin: *\n1 < X-Request-Id: f510ab16-29b8-4e1d-a82e-a579763d831b\n1 < X-Content-Type-Options: nosniff\n1 < X-Frame-Options: DENY\n1 < X-Xss-Protection: 1; mode=block\n1 < Referrer-Policy: strict-origin-when-cross-origin\n1 < Ratelimit-Policy: 100;w=60\n1 < Ratelimit-Limit: 100\n1 < Ratelimit-Remaining: 92\n1 < Ratelimit-Reset: 11\n1 < Etag: W\/\"38-o23\/OEThCB0MxYrDE9IHo3zi\/Pw\"\n1 < Via: 1.1 vegur\n1 < cf-cache-status: DYNAMIC\n1 < Server: cloudflare\n1 < CF-RAY: 95c703da7cc8abf2-BOM\n1 < server-timing: cfL4;desc=\"?proto=TCP&rtt=48318&min_rtt=44875&rtt_var=23715&sent=4&recv=6&lost=0&retrans=0&sent_bytes=219&recv_bytes=1045&delivery_rate=17424&cwnd=250&unsent_bytes=0&cid=5cf3f7207d3c3b9f&ts=397&x=0\"\n{\"job\":\"Lead QA\",\"updatedAt\":\"2025-07-09T10:07:33.761Z\"}\n\n"},{"result":{"nanos":19800,"startTime":1752055653164,"endTime":1752055653164,"millis":0.0198,"status":"passed"},"step":{"line":57,"prefix":"Then","index":4,"text":"status 200"}},{"result":{"nanos":5095000,"startTime":1752055653164,"endTime":1752055653169,"millis":5.095,"status":"passed"},"step":{"line":58,"prefix":"And","index":5,"text":"match response.job == \"Lead QA\""}}],"line":47,"description":"","durationMillis":531.6227,"failed":false,"tags":["patch"],"executorName":"Test worker","name":"PATCH - Partially update user","startTime":1752055652636,"refId":"[4:47]","endTime":1752055653168,"exampleIndex":-1},{"sectionIndex":4,"stepResults":[{"result":{"nanos":367900,"startTime":1752055653180,"endTime":1752055653180,"millis":0.3679,"status":"passed"},"step":{"background":true,"line":4,"prefix":"*","index":0,"text":"url 'https:\/\/reqres.in'"}},{"result":{"nanos":366200,"startTime":1752055653182,"endTime":1752055653182,"millis":0.3662,"status":"passed"},"step":{"background":true,"line":5,"prefix":"*","index":1,"text":"header x-api-key = 'reqres-free-v1'"}},{"result":{"nanos":234800,"startTime":1752055653182,"endTime":1752055653182,"millis":0.2348,"status":"passed"},"step":{"background":true,"line":6,"prefix":"*","index":2,"text":"header Content-Type = 'application\/json'"}},{"result":{"nanos":1081400,"startTime":1752055653182,"endTime":1752055653183,"millis":1.0814,"status":"passed"},"step":{"line":62,"prefix":"Given","index":0,"text":"path 'api', 'users', 2"}},{"result":{"nanos":529452000,"startTime":1752055653184,"endTime":1752055653713,"millis":529.452,"status":"passed"},"step":{"line":63,"prefix":"When","index":1,"text":"method DELETE"},"stepLog":"15:37:33.186 request:\n1 > DELETE https:\/\/reqres.in\/api\/users\/2\n1 > x-api-key: reqres-free-v1\n1 > Content-Type: application\/json\n1 > Host: reqres.in\n1 > Connection: Keep-Alive\n1 > User-Agent: Apache-HttpClient\/4.5.14 (Java\/11.0.22)\n1 > Accept-Encoding: gzip,deflate\n\n\n15:37:33.682 response time in milliseconds: 485\n1 < 204\n1 < Date: Wed, 09 Jul 2025 10:07:34 GMT\n1 < Connection: keep-alive\n1 < CF-RAY: 95c703dd9a83c29a-BOM\n1 < Report-To: {\"group\":\"heroku-nel\",\"max_age\":3600,\"endpoints\":[{\"url\":\"https:\/\/nel.heroku.com\/reports?ts=1752055654&sid=c4c9725f-1ab0-44d8-820f-430df2718e11&s=4FlwX1h8AuWWXIaeoIvxXp7W7cdevre%2B%2FA2TsEKDqQQ%3D\"}]}\n1 < Reporting-Endpoints: heroku-nel=https:\/\/nel.heroku.com\/reports?ts=1752055654&sid=c4c9725f-1ab0-44d8-820f-430df2718e11&s=4FlwX1h8AuWWXIaeoIvxXp7W7cdevre%2B%2FA2TsEKDqQQ%3D\n1 < Nel: {\"report_to\":\"heroku-nel\",\"max_age\":3600,\"success_fraction\":0.005,\"failure_fraction\":0.05,\"response_headers\":[\"Via\"]}\n1 < Access-Control-Allow-Origin: *\n1 < X-Request-Id: d58a7db4-48b1-47f5-824b-fb28300430c4\n1 < X-Content-Type-Options: nosniff\n1 < X-Frame-Options: DENY\n1 < X-Xss-Protection: 1; mode=block\n1 < Referrer-Policy: strict-origin-when-cross-origin\n1 < Ratelimit-Policy: 100;w=60\n1 < Ratelimit-Limit: 100\n1 < Ratelimit-Remaining: 90\n1 < Ratelimit-Reset: 11\n1 < Etag: W\/\"2-vyGp6PvFo4RvsFtPoIWeCReyIC8\"\n1 < Via: 1.1 vegur\n1 < cf-cache-status: DYNAMIC\n1 < Server: cloudflare\n1 < server-timing: cfL4;desc=\"?proto=TCP&rtt=42436&min_rtt=40099&rtt_var=19712&sent=3&recv=6&lost=0&retrans=0&sent_bytes=219&recv_bytes=994&delivery_rate=21462&cwnd=250&unsent_bytes=0&cid=1eb6cedda5cfe136&ts=373&x=0\"\n\n\n"},{"result":{"nanos":23700,"startTime":1752055653714,"endTime":1752055653714,"millis":0.0237,"status":"passed"},"step":{"line":64,"prefix":"Then","index":2,"text":"status 204"}}],"line":61,"description":"","durationMillis":531.526,"failed":false,"tags":["delete"],"executorName":"Test worker","name":"DELETE - Delete user","startTime":1752055653180,"refId":"[5:61]","endTime":1752055653714,"exampleIndex":-1}],"callDepth":1,"name":"Reqres API Test Scenarios with Different HTTP Methods","description":"","resultDate":"2025-07-09 03:37:33 PM","durationMillis":2861.0594,"passedCount":5}]},{"result":{"nanos":2856300,"startTime":1752055653728,"endTime":1752055653731,"millis":2.8563,"status":"passed"},"step":{"line":7,"prefix":"Then","index":1,"text":"print 'scenario completed'"},"stepLog":"15:37:33.730 [print] scenario completed \n"}],"executorName":"Test worker","line":3,"name":"Test calling another feature file","description":"","durationMillis":2959.8062,"startTime":1752055650563,"failed":false,"refId":"[1:3]","endTime":1752055653730,"exampleIndex":-1}],"callDepth":0,"name":"test calling feature file from another","description":"","resultDate":"2025-07-09 03:37:33 PM","durationMillis":2959.8062,"passedCount":1}