{"failedCount":0,"prefixedPath":"src\/test\/java\/features\/crudOperations\/CRUD_allrequests.feature","packageQualifiedName":"src.test.java.features.crudOperations.CRUD_allrequests","loopIndex":-1,"relativePath":"src\/test\/java\/features\/crudOperations\/CRUD_allrequests.feature","scenarioResults":[{"sectionIndex":0,"stepResults":[{"result":{"nanos":1022600,"startTime":1751864773124,"endTime":1751864773125,"millis":1.0226,"status":"passed"},"step":{"background":true,"line":4,"prefix":"*","index":0,"text":"url 'https:\/\/reqres.in'"},"stepLog":"10:36:13.045 karate.env system property was: null \n10:36:13.111 karate config: {\n  \"env\": \"dev\",\n  \"baseUrl\": \"https:\/\/automationexercise.com\",\n  \"baseAppUrl\": \"https:\/\/reqres.in\",\n  \"timeout\": 30000,\n  \"retryCount\": 3,\n  \"retryInterval\": 1000,\n  \"testUser\": {\n    \"name\": \"Test User\",\n    \"email\": \"testuser1751864773080@example.com\",\n    \"password\": \"testpass123\",\n    \"title\": \"Mr\",\n    \"birth_date\": \"1\",\n    \"birth_month\": \"1\",\n    \"birth_year\": \"1990\",\n    \"firstname\": \"Test\",\n    \"lastname\": \"User\",\n    \"company\": \"Test Company\",\n    \"address1\": \"123 Test Street\",\n    \"address2\": \"Apt 1\",\n    \"country\": \"India\",\n    \"zipcode\": \"12345\",\n    \"state\": \"Test State\",\n    \"city\": \"Test City\",\n    \"mobile_number\": \"1234567890\"\n  }\n}\n \n"},{"result":{"nanos":815600,"startTime":1751864773132,"endTime":1751864773133,"millis":0.8156,"status":"passed"},"step":{"background":true,"line":5,"prefix":"*","index":1,"text":"header x-api-key = 'reqres-free-v1'"}},{"result":{"nanos":720100,"startTime":1751864773132,"endTime":1751864773133,"millis":0.7201,"status":"passed"},"step":{"background":true,"line":6,"prefix":"*","index":2,"text":"header Content-Type = 'application\/json'"}},{"result":{"nanos":4305600,"startTime":1751864773134,"endTime":1751864773138,"millis":4.3056,"status":"passed"},"step":{"line":10,"prefix":"Given","index":0,"text":"path 'api', 'users'"}},{"result":{"nanos":897600,"startTime":1751864773139,"endTime":1751864773140,"millis":0.8976,"status":"passed"},"step":{"line":11,"prefix":"And","index":1,"text":"param page = 2"}},{"result":{"nanos":835552200,"startTime":1751864773139,"endTime":1751864773975,"millis":835.5522,"status":"passed"},"step":{"line":12,"prefix":"When","index":2,"text":"method GET"},"stepLog":"10:36:13.414 request:\n1 > GET https:\/\/reqres.in\/api\/users?page=2\n1 > x-api-key: reqres-free-v1\n1 > Content-Type: application\/json\n1 > Host: reqres.in\n1 > Connection: Keep-Alive\n1 > User-Agent: Apache-HttpClient\/4.5.14 (Java\/11.0.22)\n1 > Accept-Encoding: gzip,deflate\n\n\n10:36:13.966 response time in milliseconds: 542\n1 < 200\n1 < Date: Mon, 07 Jul 2025 05:06:14 GMT\n1 < Content-Type: application\/json; charset=utf-8\n1 < Transfer-Encoding: chunked\n1 < Connection: keep-alive\n1 < Report-To: {\"group\":\"heroku-nel\",\"max_age\":3600,\"endpoints\":[{\"url\":\"https:\/\/nel.heroku.com\/reports?ts=1751861242&sid=c4c9725f-1ab0-44d8-820f-430df2718e11&s=8iXmELmhjlJMa8cd7Hd3pxXmkpWOqtsm%2FCnOXhoYKr8%3D\"}]}\n1 < Reporting-Endpoints: heroku-nel=https:\/\/nel.heroku.com\/reports?ts=1751861242&sid=c4c9725f-1ab0-44d8-820f-430df2718e11&s=8iXmELmhjlJMa8cd7Hd3pxXmkpWOqtsm%2FCnOXhoYKr8%3D\n1 < Nel: {\"report_to\":\"heroku-nel\",\"max_age\":3600,\"success_fraction\":0.005,\"failure_fraction\":0.05,\"response_headers\":[\"Via\"]}\n1 < X-Powered-By: Express\n1 < Access-Control-Allow-Origin: *\n1 < Ratelimit-Policy: 100;w=60\n1 < Ratelimit-Limit: 100\n1 < Ratelimit-Remaining: 98\n1 < Ratelimit-Reset: 60\n1 < Etag: W\/\"440-ZjsmMKR8P3usr2uJZbOCGCxC3Uw\"\n1 < Via: 1.1 vegur\n1 < Cache-Control: max-age=14400\n1 < CF-Cache-Status: HIT\n1 < Age: 3532\n1 < Vary: Accept-Encoding\n1 < Server: cloudflare\n1 < CF-RAY: 95b4cfb8c8f7409f-BOM\n1 < server-timing: cfL4;desc=\"?proto=TCP&rtt=47145&min_rtt=27975&rtt_var=18307&sent=7&recv=7&lost=0&retrans=0&sent_bytes=3106&recv_bytes=741&delivery_rate=94226&cwnd=252&unsent_bytes=0&cid=fcaeaf799134c74b&ts=169&x=0\"\n{\"page\":2,\"per_page\":6,\"total\":12,\"total_pages\":2,\"data\":[{\"id\":7,\"email\":\"michael.lawson@reqres.in\",\"first_name\":\"Michael\",\"last_name\":\"Lawson\",\"avatar\":\"https:\/\/reqres.in\/img\/faces\/7-image.jpg\"},{\"id\":8,\"email\":\"lindsay.ferguson@reqres.in\",\"first_name\":\"Lindsay\",\"last_name\":\"Ferguson\",\"avatar\":\"https:\/\/reqres.in\/img\/faces\/8-image.jpg\"},{\"id\":9,\"email\":\"tobias.funke@reqres.in\",\"first_name\":\"Tobias\",\"last_name\":\"Funke\",\"avatar\":\"https:\/\/reqres.in\/img\/faces\/9-image.jpg\"},{\"id\":10,\"email\":\"byron.fields@reqres.in\",\"first_name\":\"Byron\",\"last_name\":\"Fields\",\"avatar\":\"https:\/\/reqres.in\/img\/faces\/10-image.jpg\"},{\"id\":11,\"email\":\"george.edwards@reqres.in\",\"first_name\":\"George\",\"last_name\":\"Edwards\",\"avatar\":\"https:\/\/reqres.in\/img\/faces\/11-image.jpg\"},{\"id\":12,\"email\":\"rachel.howell@reqres.in\",\"first_name\":\"Rachel\",\"last_name\":\"Howell\",\"avatar\":\"https:\/\/reqres.in\/img\/faces\/12-image.jpg\"}],\"support\":{\"url\":\"https:\/\/contentcaddy.io?utm_source=reqres&utm_medium=json&utm_campaign=referral\",\"text\":\"Tired of writing endless social media content? Let Content Caddy generate it for you.\"}}\n\n"},{"result":{"nanos":28500,"startTime":1751864773976,"endTime":1751864773976,"millis":0.0285,"status":"passed"},"step":{"line":13,"prefix":"Then","index":3,"text":"status 200"}},{"result":{"nanos":57398700,"startTime":1751864773976,"endTime":1751864774033,"millis":57.3987,"status":"passed"},"step":{"line":14,"prefix":"And","index":4,"text":"match response.data != null"}}],"line":9,"description":"","durationMillis":900.7409,"failed":false,"tags":["get"],"executorName":"Test worker","name":"GET list of users","startTime":1751864772857,"refId":"[1:9]","endTime":1751864774033,"exampleIndex":-1},{"sectionIndex":1,"stepResults":[{"result":{"nanos":352000,"startTime":1751864774086,"endTime":1751864774086,"millis":0.352,"status":"passed"},"step":{"background":true,"line":4,"prefix":"*","index":0,"text":"url 'https:\/\/reqres.in'"},"stepLog":"10:36:14.072 karate.env system property was: null \n10:36:14.081 karate config: {\n  \"env\": \"dev\",\n  \"baseUrl\": \"https:\/\/automationexercise.com\",\n  \"baseAppUrl\": \"https:\/\/reqres.in\",\n  \"timeout\": 30000,\n  \"retryCount\": 3,\n  \"retryInterval\": 1000,\n  \"testUser\": {\n    \"name\": \"Test User\",\n    \"email\": \"testuser1751864774076@example.com\",\n    \"password\": \"testpass123\",\n    \"title\": \"Mr\",\n    \"birth_date\": \"1\",\n    \"birth_month\": \"1\",\n    \"birth_year\": \"1990\",\n    \"firstname\": \"Test\",\n    \"lastname\": \"User\",\n    \"company\": \"Test Company\",\n    \"address1\": \"123 Test Street\",\n    \"address2\": \"Apt 1\",\n    \"country\": \"India\",\n    \"zipcode\": \"12345\",\n    \"state\": \"Test State\",\n    \"city\": \"Test City\",\n    \"mobile_number\": \"1234567890\"\n  }\n}\n \n"},{"result":{"nanos":197800,"startTime":1751864774086,"endTime":1751864774086,"millis":0.1978,"status":"passed"},"step":{"background":true,"line":5,"prefix":"*","index":1,"text":"header x-api-key = 'reqres-free-v1'"}},{"result":{"nanos":141700,"startTime":1751864774086,"endTime":1751864774086,"millis":0.1417,"status":"passed"},"step":{"background":true,"line":6,"prefix":"*","index":2,"text":"header Content-Type = 'application\/json'"}},{"result":{"nanos":2488400,"startTime":1751864774086,"endTime":1751864774088,"millis":2.4884,"status":"passed"},"step":{"endLine":24,"line":18,"prefix":"*","docString":"{\n  \"name\": \"Raj\",\n  \"job\": \"QA Engineer\"\n}","index":0,"text":"def requestBody ="}},{"result":{"nanos":727400,"startTime":1751864774090,"endTime":1751864774091,"millis":0.7274,"status":"passed"},"step":{"line":25,"prefix":"Given","index":1,"text":"path 'api', 'users'"}},{"result":{"nanos":3572400,"startTime":1751864774090,"endTime":1751864774094,"millis":3.5724,"status":"passed"},"step":{"line":26,"prefix":"And","index":2,"text":"request requestBody"}},{"result":{"nanos":652041600,"startTime":1751864774095,"endTime":1751864774747,"millis":652.0416,"status":"passed"},"step":{"line":27,"prefix":"When","index":3,"text":"method POST"},"stepLog":"10:36:14.172 request:\n1 > POST https:\/\/reqres.in\/api\/users\n1 > x-api-key: reqres-free-v1\n1 > Content-Type: application\/json; charset=UTF-8\n1 > Content-Length: 34\n1 > Host: reqres.in\n1 > Connection: Keep-Alive\n1 > User-Agent: Apache-HttpClient\/4.5.14 (Java\/11.0.22)\n1 > Accept-Encoding: gzip,deflate\n{\"name\":\"Raj\",\"job\":\"QA Engineer\"}\n\n10:36:14.745 response time in milliseconds: 571\n1 < 201\n1 < Date: Mon, 07 Jul 2025 05:06:15 GMT\n1 < Content-Type: application\/json; charset=utf-8\n1 < Content-Length: 84\n1 < Connection: keep-alive\n1 < CF-RAY: 95b4cfbbc9062852-BOM\n1 < Report-To: {\"group\":\"heroku-nel\",\"max_age\":3600,\"endpoints\":[{\"url\":\"https:\/\/nel.heroku.com\/reports?ts=1751864775&sid=c4c9725f-1ab0-44d8-820f-430df2718e11&s=%2BHdp7Mzv4Uqfu%2BX%2FHIf%2FRY3Rs5KK8E%2BoAQYzcoAoE%2B0%3D\"}]}\n1 < Reporting-Endpoints: heroku-nel=https:\/\/nel.heroku.com\/reports?ts=1751864775&sid=c4c9725f-1ab0-44d8-820f-430df2718e11&s=%2BHdp7Mzv4Uqfu%2BX%2FHIf%2FRY3Rs5KK8E%2BoAQYzcoAoE%2B0%3D\n1 < Nel: {\"report_to\":\"heroku-nel\",\"max_age\":3600,\"success_fraction\":0.005,\"failure_fraction\":0.05,\"response_headers\":[\"Via\"]}\n1 < X-Powered-By: Express\n1 < Access-Control-Allow-Origin: *\n1 < Ratelimit-Policy: 100;w=60\n1 < Ratelimit-Limit: 100\n1 < Ratelimit-Remaining: 98\n1 < Ratelimit-Reset: 60\n1 < Etag: W\/\"54-3hHtnlfSv6k\/uMmi2vdnKCR6RbI\"\n1 < Via: 1.1 vegur\n1 < cf-cache-status: DYNAMIC\n1 < Server: cloudflare\n1 < server-timing: cfL4;desc=\"?proto=TCP&rtt=41544&min_rtt=39816&rtt_var=18387&sent=4&recv=6&lost=0&retrans=0&sent_bytes=219&recv_bytes=1059&delivery_rate=24570&cwnd=250&unsent_bytes=0&cid=7626de9bd3112522&ts=433&x=0\"\n{\"name\":\"Raj\",\"job\":\"QA Engineer\",\"id\":\"378\",\"createdAt\":\"2025-07-07T05:06:15.307Z\"}\n\n"},{"result":{"nanos":10700,"startTime":1751864774747,"endTime":1751864774747,"millis":0.0107,"status":"passed"},"step":{"line":28,"prefix":"Then","index":4,"text":"status 201"}},{"result":{"nanos":2161200,"startTime":1751864774747,"endTime":1751864774749,"millis":2.1612,"status":"passed"},"step":{"line":29,"prefix":"And","index":5,"text":"match response.name == \"Raj\""}}],"line":17,"description":"","durationMillis":661.6932,"failed":false,"tags":["post"],"executorName":"Test worker","name":"POST - Create a new user","startTime":1751864774058,"refId":"[2:17]","endTime":1751864774749,"exampleIndex":-1},{"sectionIndex":2,"stepResults":[{"result":{"nanos":452300,"startTime":1751864774772,"endTime":1751864774772,"millis":0.4523,"status":"passed"},"step":{"background":true,"line":4,"prefix":"*","index":0,"text":"url 'https:\/\/reqres.in'"},"stepLog":"10:36:14.760 karate.env system property was: null \n10:36:14.768 karate config: {\n  \"env\": \"dev\",\n  \"baseUrl\": \"https:\/\/automationexercise.com\",\n  \"baseAppUrl\": \"https:\/\/reqres.in\",\n  \"timeout\": 30000,\n  \"retryCount\": 3,\n  \"retryInterval\": 1000,\n  \"testUser\": {\n    \"name\": \"Test User\",\n    \"email\": \"testuser1751864774762@example.com\",\n    \"password\": \"testpass123\",\n    \"title\": \"Mr\",\n    \"birth_date\": \"1\",\n    \"birth_month\": \"1\",\n    \"birth_year\": \"1990\",\n    \"firstname\": \"Test\",\n    \"lastname\": \"User\",\n    \"company\": \"Test Company\",\n    \"address1\": \"123 Test Street\",\n    \"address2\": \"Apt 1\",\n    \"country\": \"India\",\n    \"zipcode\": \"12345\",\n    \"state\": \"Test State\",\n    \"city\": \"Test City\",\n    \"mobile_number\": \"1234567890\"\n  }\n}\n \n"},{"result":{"nanos":825400,"startTime":1751864774772,"endTime":1751864774773,"millis":0.8254,"status":"passed"},"step":{"background":true,"line":5,"prefix":"*","index":1,"text":"header x-api-key = 'reqres-free-v1'"}},{"result":{"nanos":320600,"startTime":1751864774773,"endTime":1751864774773,"millis":0.3206,"status":"passed"},"step":{"background":true,"line":6,"prefix":"*","index":2,"text":"header Content-Type = 'application\/json'"}},{"result":{"nanos":1227800,"startTime":1751864774773,"endTime":1751864774774,"millis":1.2278,"status":"passed"},"step":{"endLine":39,"line":33,"prefix":"*","docString":"{\n  \"name\": \"Raj Updated\",\n  \"job\": \"Senior QA\"\n}","index":0,"text":"def updateBody ="}},{"result":{"nanos":1079000,"startTime":1751864774775,"endTime":1751864774776,"millis":1.079,"status":"passed"},"step":{"line":40,"prefix":"Given","index":1,"text":"path 'api', 'users', 2"}},{"result":{"nanos":286000,"startTime":1751864774776,"endTime":1751864774776,"millis":0.286,"status":"passed"},"step":{"line":41,"prefix":"And","index":2,"text":"request updateBody"}},{"result":{"nanos":686822900,"startTime":1751864774776,"endTime":1751864775463,"millis":686.8229,"status":"passed"},"step":{"line":42,"prefix":"When","index":3,"text":"method PUT"},"stepLog":"10:36:14.778 request:\n1 > PUT https:\/\/reqres.in\/api\/users\/2\n1 > x-api-key: reqres-free-v1\n1 > Content-Type: application\/json; charset=UTF-8\n1 > Content-Length: 40\n1 > Host: reqres.in\n1 > Connection: Keep-Alive\n1 > User-Agent: Apache-HttpClient\/4.5.14 (Java\/11.0.22)\n1 > Accept-Encoding: gzip,deflate\n{\"name\":\"Raj Updated\",\"job\":\"Senior QA\"}\n\n10:36:15.462 response time in milliseconds: 668\n1 < 200\n1 < Date: Mon, 07 Jul 2025 05:06:16 GMT\n1 < Content-Type: application\/json; charset=utf-8\n1 < Transfer-Encoding: chunked\n1 < Connection: keep-alive\n1 < Report-To: {\"group\":\"heroku-nel\",\"max_age\":3600,\"endpoints\":[{\"url\":\"https:\/\/nel.heroku.com\/reports?ts=1751864776&sid=c4c9725f-1ab0-44d8-820f-430df2718e11&s=tNKvmBTh1tJKfEwJfwctvNH1JF4LINpE5Tlnl6ZHLak%3D\"}]}\n1 < Reporting-Endpoints: heroku-nel=https:\/\/nel.heroku.com\/reports?ts=1751864776&sid=c4c9725f-1ab0-44d8-820f-430df2718e11&s=tNKvmBTh1tJKfEwJfwctvNH1JF4LINpE5Tlnl6ZHLak%3D\n1 < Nel: {\"report_to\":\"heroku-nel\",\"max_age\":3600,\"success_fraction\":0.005,\"failure_fraction\":0.05,\"response_headers\":[\"Via\"]}\n1 < X-Powered-By: Express\n1 < Access-Control-Allow-Origin: *\n1 < Ratelimit-Policy: 100;w=60\n1 < Ratelimit-Limit: 100\n1 < Ratelimit-Remaining: 96\n1 < Ratelimit-Reset: 60\n1 < Etag: W\/\"4f-rjPT1KO2DN0JQdn9Wlvwp\/alygw\"\n1 < Via: 1.1 vegur\n1 < CF-Cache-Status: DYNAMIC\n1 < Vary: Accept-Encoding\n1 < Server: cloudflare\n1 < CF-RAY: 95b4cfc03d97492a-BOM\n1 < server-timing: cfL4;desc=\"?proto=TCP&rtt=70902&min_rtt=69795&rtt_var=28387&sent=4&recv=6&lost=0&retrans=0&sent_bytes=219&recv_bytes=1066&delivery_rate=16757&cwnd=250&unsent_bytes=0&cid=bd8506bafd53c7d1&ts=485&x=0\"\n{\"name\":\"Raj Updated\",\"job\":\"Senior QA\",\"updatedAt\":\"2025-07-07T05:06:16.034Z\"}\n\n"},{"result":{"nanos":9100,"startTime":1751864775464,"endTime":1751864775464,"millis":0.0091,"status":"passed"},"step":{"line":43,"prefix":"Then","index":4,"text":"status 200"}},{"result":{"nanos":1563300,"startTime":1751864775464,"endTime":1751864775466,"millis":1.5633,"status":"passed"},"step":{"line":44,"prefix":"And","index":5,"text":"match response.name == \"Raj Updated\""}}],"line":32,"description":"","durationMillis":692.5864,"failed":false,"tags":["put"],"executorName":"Test worker","name":"PUT - Update user information","startTime":1751864774760,"refId":"[3:32]","endTime":1751864775464,"exampleIndex":-1},{"sectionIndex":3,"stepResults":[{"result":{"nanos":433200,"startTime":1751864775482,"endTime":1751864775482,"millis":0.4332,"status":"passed"},"step":{"background":true,"line":4,"prefix":"*","index":0,"text":"url 'https:\/\/reqres.in'"},"stepLog":"10:36:15.476 karate.env system property was: null \n10:36:15.480 karate config: {\n  \"env\": \"dev\",\n  \"baseUrl\": \"https:\/\/automationexercise.com\",\n  \"baseAppUrl\": \"https:\/\/reqres.in\",\n  \"timeout\": 30000,\n  \"retryCount\": 3,\n  \"retryInterval\": 1000,\n  \"testUser\": {\n    \"name\": \"Test User\",\n    \"email\": \"testuser1751864775478@example.com\",\n    \"password\": \"testpass123\",\n    \"title\": \"Mr\",\n    \"birth_date\": \"1\",\n    \"birth_month\": \"1\",\n    \"birth_year\": \"1990\",\n    \"firstname\": \"Test\",\n    \"lastname\": \"User\",\n    \"company\": \"Test Company\",\n    \"address1\": \"123 Test Street\",\n    \"address2\": \"Apt 1\",\n    \"country\": \"India\",\n    \"zipcode\": \"12345\",\n    \"state\": \"Test State\",\n    \"city\": \"Test City\",\n    \"mobile_number\": \"1234567890\"\n  }\n}\n \n"},{"result":{"nanos":191400,"startTime":1751864775484,"endTime":1751864775484,"millis":0.1914,"status":"passed"},"step":{"background":true,"line":5,"prefix":"*","index":1,"text":"header x-api-key = 'reqres-free-v1'"}},{"result":{"nanos":140200,"startTime":1751864775484,"endTime":1751864775484,"millis":0.1402,"status":"passed"},"step":{"background":true,"line":6,"prefix":"*","index":2,"text":"header Content-Type = 'application\/json'"}},{"result":{"nanos":487300,"startTime":1751864775484,"endTime":1751864775484,"millis":0.4873,"status":"passed"},"step":{"endLine":53,"line":48,"prefix":"*","docString":"{\n  \"job\": \"Lead QA\"\n}","index":0,"text":"def patchBody ="}},{"result":{"nanos":283700,"startTime":1751864775484,"endTime":1751864775484,"millis":0.2837,"status":"passed"},"step":{"line":54,"prefix":"Given","index":1,"text":"path 'api', 'users', 2"}},{"result":{"nanos":205900,"startTime":1751864775484,"endTime":1751864775484,"millis":0.2059,"status":"passed"},"step":{"line":55,"prefix":"And","index":2,"text":"request patchBody"}},{"result":{"nanos":480022000,"startTime":1751864775486,"endTime":1751864775966,"millis":480.022,"status":"passed"},"step":{"line":56,"prefix":"When","index":3,"text":"method PATCH"},"stepLog":"10:36:15.486 request:\n1 > PATCH https:\/\/reqres.in\/api\/users\/2\n1 > x-api-key: reqres-free-v1\n1 > Content-Type: application\/json; charset=UTF-8\n1 > Content-Length: 17\n1 > Host: reqres.in\n1 > Connection: Keep-Alive\n1 > User-Agent: Apache-HttpClient\/4.5.14 (Java\/11.0.22)\n1 > Accept-Encoding: gzip,deflate\n{\"job\":\"Lead QA\"}\n\n10:36:15.965 response time in milliseconds: 473\n1 < 200\n1 < Date: Mon, 07 Jul 2025 05:06:16 GMT\n1 < Content-Type: application\/json; charset=utf-8\n1 < Transfer-Encoding: chunked\n1 < Connection: keep-alive\n1 < Report-To: {\"group\":\"heroku-nel\",\"max_age\":3600,\"endpoints\":[{\"url\":\"https:\/\/nel.heroku.com\/reports?ts=1751864776&sid=c4c9725f-1ab0-44d8-820f-430df2718e11&s=tNKvmBTh1tJKfEwJfwctvNH1JF4LINpE5Tlnl6ZHLak%3D\"}]}\n1 < Reporting-Endpoints: heroku-nel=https:\/\/nel.heroku.com\/reports?ts=1751864776&sid=c4c9725f-1ab0-44d8-820f-430df2718e11&s=tNKvmBTh1tJKfEwJfwctvNH1JF4LINpE5Tlnl6ZHLak%3D\n1 < Nel: {\"report_to\":\"heroku-nel\",\"max_age\":3600,\"success_fraction\":0.005,\"failure_fraction\":0.05,\"response_headers\":[\"Via\"]}\n1 < X-Powered-By: Express\n1 < Access-Control-Allow-Origin: *\n1 < Ratelimit-Policy: 100;w=60\n1 < Ratelimit-Limit: 100\n1 < Ratelimit-Remaining: 94\n1 < Ratelimit-Reset: 59\n1 < Etag: W\/\"38-5hE2RmXBujx+ZevLOvDfq3Svnk4\"\n1 < Via: 1.1 vegur\n1 < cf-cache-status: DYNAMIC\n1 < Server: cloudflare\n1 < CF-RAY: 95b4cfc3e86046f0-BOM\n1 < server-timing: cfL4;desc=\"?proto=TCP&rtt=57226&min_rtt=38722&rtt_var=27738&sent=4&recv=6&lost=0&retrans=0&sent_bytes=219&recv_bytes=1045&delivery_rate=34037&cwnd=250&unsent_bytes=0&cid=aef91d0bf266a2c9&ts=342&x=0\"\n{\"job\":\"Lead QA\",\"updatedAt\":\"2025-07-07T05:06:16.528Z\"}\n\n"},{"result":{"nanos":10600,"startTime":1751864775965,"endTime":1751864775965,"millis":0.0106,"status":"passed"},"step":{"line":57,"prefix":"Then","index":4,"text":"status 200"}},{"result":{"nanos":1996000,"startTime":1751864775965,"endTime":1751864775967,"millis":1.996,"status":"passed"},"step":{"line":58,"prefix":"And","index":5,"text":"match response.job == \"Lead QA\""}}],"line":47,"description":"","durationMillis":483.7703,"failed":false,"tags":["patch"],"executorName":"Test worker","name":"PATCH - Partially update user","startTime":1751864775475,"refId":"[4:47]","endTime":1751864775967,"exampleIndex":-1},{"sectionIndex":4,"stepResults":[{"result":{"nanos":221100,"startTime":1751864775981,"endTime":1751864775981,"millis":0.2211,"status":"passed"},"step":{"background":true,"line":4,"prefix":"*","index":0,"text":"url 'https:\/\/reqres.in'"},"stepLog":"10:36:15.975 karate.env system property was: null \n10:36:15.979 karate config: {\n  \"env\": \"dev\",\n  \"baseUrl\": \"https:\/\/automationexercise.com\",\n  \"baseAppUrl\": \"https:\/\/reqres.in\",\n  \"timeout\": 30000,\n  \"retryCount\": 3,\n  \"retryInterval\": 1000,\n  \"testUser\": {\n    \"name\": \"Test User\",\n    \"email\": \"testuser1751864775977@example.com\",\n    \"password\": \"testpass123\",\n    \"title\": \"Mr\",\n    \"birth_date\": \"1\",\n    \"birth_month\": \"1\",\n    \"birth_year\": \"1990\",\n    \"firstname\": \"Test\",\n    \"lastname\": \"User\",\n    \"company\": \"Test Company\",\n    \"address1\": \"123 Test Street\",\n    \"address2\": \"Apt 1\",\n    \"country\": \"India\",\n    \"zipcode\": \"12345\",\n    \"state\": \"Test State\",\n    \"city\": \"Test City\",\n    \"mobile_number\": \"1234567890\"\n  }\n}\n \n"},{"result":{"nanos":153300,"startTime":1751864775981,"endTime":1751864775981,"millis":0.1533,"status":"passed"},"step":{"background":true,"line":5,"prefix":"*","index":1,"text":"header x-api-key = 'reqres-free-v1'"}},{"result":{"nanos":106700,"startTime":1751864775981,"endTime":1751864775981,"millis":0.1067,"status":"passed"},"step":{"background":true,"line":6,"prefix":"*","index":2,"text":"header Content-Type = 'application\/json'"}},{"result":{"nanos":206900,"startTime":1751864775981,"endTime":1751864775981,"millis":0.2069,"status":"passed"},"step":{"line":62,"prefix":"Given","index":0,"text":"path 'api', 'users', 2"}},{"result":{"nanos":764475000,"startTime":1751864775981,"endTime":1751864776745,"millis":764.475,"status":"passed"},"step":{"line":63,"prefix":"When","index":1,"text":"method DELETE"},"stepLog":"10:36:15.983 request:\n1 > DELETE https:\/\/reqres.in\/api\/users\/2\n1 > x-api-key: reqres-free-v1\n1 > Content-Type: application\/json\n1 > Host: reqres.in\n1 > Connection: Keep-Alive\n1 > User-Agent: Apache-HttpClient\/4.5.14 (Java\/11.0.22)\n1 > Accept-Encoding: gzip,deflate\n\n\n10:36:16.745 response time in milliseconds: 762\n1 < 204\n1 < Date: Mon, 07 Jul 2025 05:06:17 GMT\n1 < Connection: keep-alive\n1 < CF-RAY: 95b4cfc6fbac1487-BOM\n1 < Report-To: {\"group\":\"heroku-nel\",\"max_age\":3600,\"endpoints\":[{\"url\":\"https:\/\/nel.heroku.com\/reports?ts=1751864777&sid=c4c9725f-1ab0-44d8-820f-430df2718e11&s=aboPanfP2%2FmipYy2syrTxIthFj7AklTPE98t88ASChU%3D\"}]}\n1 < Reporting-Endpoints: heroku-nel=https:\/\/nel.heroku.com\/reports?ts=1751864777&sid=c4c9725f-1ab0-44d8-820f-430df2718e11&s=aboPanfP2%2FmipYy2syrTxIthFj7AklTPE98t88ASChU%3D\n1 < Nel: {\"report_to\":\"heroku-nel\",\"max_age\":3600,\"success_fraction\":0.005,\"failure_fraction\":0.05,\"response_headers\":[\"Via\"]}\n1 < X-Powered-By: Express\n1 < Access-Control-Allow-Origin: *\n1 < Ratelimit-Policy: 100;w=60\n1 < Ratelimit-Limit: 100\n1 < Ratelimit-Remaining: 92\n1 < Ratelimit-Reset: 59\n1 < Etag: W\/\"2-vyGp6PvFo4RvsFtPoIWeCReyIC8\"\n1 < Via: 1.1 vegur\n1 < cf-cache-status: DYNAMIC\n1 < Server: cloudflare\n1 < server-timing: cfL4;desc=\"?proto=TCP&rtt=31602&min_rtt=29822&rtt_var=14744&sent=3&recv=6&lost=0&retrans=0&sent_bytes=219&recv_bytes=994&delivery_rate=29910&cwnd=250&unsent_bytes=0&cid=a6945b614cb11262&ts=460&x=0\"\n\n\n"},{"result":{"nanos":10600,"startTime":1751864776747,"endTime":1751864776747,"millis":0.0106,"status":"passed"},"step":{"line":64,"prefix":"Then","index":2,"text":"status 204"}}],"line":61,"description":"","durationMillis":765.1736,"failed":false,"tags":["delete"],"executorName":"Test worker","name":"DELETE - Delete user","startTime":1751864775975,"refId":"[5:61]","endTime":1751864776747,"exampleIndex":-1}],"callDepth":0,"name":"Reqres API Test Scenarios with Different HTTP Methods","description":"","resultDate":"2025-07-07 10:36:16 AM","durationMillis":3503.9644,"passedCount":5}