{"failedCount":0,"prefixedPath":"src\/test\/java\/features\/CRUD_allrequests.feature","packageQualifiedName":"src.test.java.features.CRUD_allrequests","loopIndex":-1,"relativePath":"src\/test\/java\/features\/CRUD_allrequests.feature","scenarioResults":[{"sectionIndex":0,"stepResults":[{"result":{"nanos":2136400,"startTime":1751864526105,"endTime":1751864526107,"millis":2.1364,"status":"passed"},"step":{"background":true,"line":4,"prefix":"*","index":0,"text":"url 'https:\/\/reqres.in'"},"stepLog":"10:32:05.983 karate.env system property was: null \n10:32:06.083 karate config: {\n  \"env\": \"dev\",\n  \"baseUrl\": \"https:\/\/automationexercise.com\",\n  \"baseAppUrl\": \"https:\/\/reqres.in\",\n  \"timeout\": 30000,\n  \"retryCount\": 3,\n  \"retryInterval\": 1000,\n  \"testUser\": {\n    \"name\": \"Test User\",\n    \"email\": \"testuser1751864526033@example.com\",\n    \"password\": \"testpass123\",\n    \"title\": \"Mr\",\n    \"birth_date\": \"1\",\n    \"birth_month\": \"1\",\n    \"birth_year\": \"1990\",\n    \"firstname\": \"Test\",\n    \"lastname\": \"User\",\n    \"company\": \"Test Company\",\n    \"address1\": \"123 Test Street\",\n    \"address2\": \"Apt 1\",\n    \"country\": \"India\",\n    \"zipcode\": \"12345\",\n    \"state\": \"Test State\",\n    \"city\": \"Test City\",\n    \"mobile_number\": \"1234567890\"\n  }\n}\n \n"},{"result":{"nanos":2142100,"startTime":1751864526118,"endTime":1751864526120,"millis":2.1421,"status":"passed"},"step":{"background":true,"line":5,"prefix":"*","index":1,"text":"header x-api-key = 'reqres-free-v1'"}},{"result":{"nanos":2751700,"startTime":1751864526122,"endTime":1751864526125,"millis":2.7517,"status":"passed"},"step":{"background":true,"line":6,"prefix":"*","index":2,"text":"header Content-Type = 'application\/json'"}},{"result":{"nanos":7193700,"startTime":1751864526126,"endTime":1751864526133,"millis":7.1937,"status":"passed"},"step":{"line":10,"prefix":"Given","index":0,"text":"path 'api', 'users'"}},{"result":{"nanos":1280600,"startTime":1751864526132,"endTime":1751864526133,"millis":1.2806,"status":"passed"},"step":{"line":11,"prefix":"And","index":1,"text":"param page = 2"}},{"result":{"nanos":2244539900,"startTime":1751864526134,"endTime":1751864528379,"millis":2244.5399,"status":"passed"},"step":{"line":12,"prefix":"When","index":2,"text":"method GET"},"stepLog":"10:32:06.447 request:\n1 > GET https:\/\/reqres.in\/api\/users?page=2\n1 > x-api-key: reqres-free-v1\n1 > Content-Type: application\/json\n1 > Host: reqres.in\n1 > Connection: Keep-Alive\n1 > User-Agent: Apache-HttpClient\/4.5.14 (Java\/11.0.22)\n1 > Accept-Encoding: gzip,deflate\n\n\n10:32:08.370 response time in milliseconds: 1919\n1 < 200\n1 < Date: Mon, 07 Jul 2025 05:02:08 GMT\n1 < Content-Type: application\/json; charset=utf-8\n1 < Transfer-Encoding: chunked\n1 < Connection: keep-alive\n1 < Report-To: {\"group\":\"heroku-nel\",\"max_age\":3600,\"endpoints\":[{\"url\":\"https:\/\/nel.heroku.com\/reports?ts=1751862478&sid=c4c9725f-1ab0-44d8-820f-430df2718e11&s=1itk5kTyYUWCU3H39OUX9qj1bjoGDmxG%2Brptxx8ahys%3D\"}]}\n1 < Reporting-Endpoints: heroku-nel=https:\/\/nel.heroku.com\/reports?ts=1751862478&sid=c4c9725f-1ab0-44d8-820f-430df2718e11&s=1itk5kTyYUWCU3H39OUX9qj1bjoGDmxG%2Brptxx8ahys%3D\n1 < Nel: {\"report_to\":\"heroku-nel\",\"max_age\":3600,\"success_fraction\":0.005,\"failure_fraction\":0.05,\"response_headers\":[\"Via\"]}\n1 < X-Powered-By: Express\n1 < Access-Control-Allow-Origin: *\n1 < Ratelimit-Policy: 100;w=60\n1 < Ratelimit-Limit: 100\n1 < Ratelimit-Remaining: 98\n1 < Ratelimit-Reset: 60\n1 < Etag: W\/\"440-ZjsmMKR8P3usr2uJZbOCGCxC3Uw\"\n1 < Via: 1.1 vegur\n1 < Cache-Control: max-age=14400\n1 < CF-Cache-Status: HIT\n1 < Age: 2050\n1 < Vary: Accept-Encoding\n1 < Server: cloudflare\n1 < CF-RAY: 95b4c9b87b4e0e38-BOM\n1 < server-timing: cfL4;desc=\"?proto=TCP&rtt=319203&min_rtt=274776&rtt_var=154958&sent=5&recv=8&lost=0&retrans=0&sent_bytes=3106&recv_bytes=741&delivery_rate=8346&cwnd=252&unsent_bytes=0&cid=43471b5c96a019d7&ts=572&x=0\"\n{\"page\":2,\"per_page\":6,\"total\":12,\"total_pages\":2,\"data\":[{\"id\":7,\"email\":\"michael.lawson@reqres.in\",\"first_name\":\"Michael\",\"last_name\":\"Lawson\",\"avatar\":\"https:\/\/reqres.in\/img\/faces\/7-image.jpg\"},{\"id\":8,\"email\":\"lindsay.ferguson@reqres.in\",\"first_name\":\"Lindsay\",\"last_name\":\"Ferguson\",\"avatar\":\"https:\/\/reqres.in\/img\/faces\/8-image.jpg\"},{\"id\":9,\"email\":\"tobias.funke@reqres.in\",\"first_name\":\"Tobias\",\"last_name\":\"Funke\",\"avatar\":\"https:\/\/reqres.in\/img\/faces\/9-image.jpg\"},{\"id\":10,\"email\":\"byron.fields@reqres.in\",\"first_name\":\"Byron\",\"last_name\":\"Fields\",\"avatar\":\"https:\/\/reqres.in\/img\/faces\/10-image.jpg\"},{\"id\":11,\"email\":\"george.edwards@reqres.in\",\"first_name\":\"George\",\"last_name\":\"Edwards\",\"avatar\":\"https:\/\/reqres.in\/img\/faces\/11-image.jpg\"},{\"id\":12,\"email\":\"rachel.howell@reqres.in\",\"first_name\":\"Rachel\",\"last_name\":\"Howell\",\"avatar\":\"https:\/\/reqres.in\/img\/faces\/12-image.jpg\"}],\"support\":{\"url\":\"https:\/\/contentcaddy.io?utm_source=reqres&utm_medium=json&utm_campaign=referral\",\"text\":\"Tired of writing endless social media content? Let Content Caddy generate it for you.\"}}\n\n"},{"result":{"nanos":27000,"startTime":1751864528379,"endTime":1751864528379,"millis":0.027,"status":"passed"},"step":{"line":13,"prefix":"Then","index":3,"text":"status 200"}},{"result":{"nanos":37707800,"startTime":1751864528379,"endTime":1751864528417,"millis":37.7078,"status":"passed"},"step":{"line":14,"prefix":"And","index":4,"text":"match response.data != null"}}],"line":9,"description":"","durationMillis":2297.7792,"failed":false,"tags":["get"],"executorName":"Test worker","name":"GET list of users","startTime":1751864525691,"refId":"[1:9]","endTime":1751864528413,"exampleIndex":-1},{"sectionIndex":1,"stepResults":[{"result":{"nanos":2019200,"startTime":1751864528500,"endTime":1751864528502,"millis":2.0192,"status":"passed"},"step":{"background":true,"line":4,"prefix":"*","index":0,"text":"url 'https:\/\/reqres.in'"},"stepLog":"10:32:08.465 karate.env system property was: null \n10:32:08.485 karate config: {\n  \"env\": \"dev\",\n  \"baseUrl\": \"https:\/\/automationexercise.com\",\n  \"baseAppUrl\": \"https:\/\/reqres.in\",\n  \"timeout\": 30000,\n  \"retryCount\": 3,\n  \"retryInterval\": 1000,\n  \"testUser\": {\n    \"name\": \"Test User\",\n    \"email\": \"testuser1751864528469@example.com\",\n    \"password\": \"testpass123\",\n    \"title\": \"Mr\",\n    \"birth_date\": \"1\",\n    \"birth_month\": \"1\",\n    \"birth_year\": \"1990\",\n    \"firstname\": \"Test\",\n    \"lastname\": \"User\",\n    \"company\": \"Test Company\",\n    \"address1\": \"123 Test Street\",\n    \"address2\": \"Apt 1\",\n    \"country\": \"India\",\n    \"zipcode\": \"12345\",\n    \"state\": \"Test State\",\n    \"city\": \"Test City\",\n    \"mobile_number\": \"1234567890\"\n  }\n}\n \n"},{"result":{"nanos":263400,"startTime":1751864528504,"endTime":1751864528504,"millis":0.2634,"status":"passed"},"step":{"background":true,"line":5,"prefix":"*","index":1,"text":"header x-api-key = 'reqres-free-v1'"}},{"result":{"nanos":127000,"startTime":1751864528504,"endTime":1751864528504,"millis":0.127,"status":"passed"},"step":{"background":true,"line":6,"prefix":"*","index":2,"text":"header Content-Type = 'application\/json'"}},{"result":{"nanos":12378400,"startTime":1751864528504,"endTime":1751864528516,"millis":12.3784,"status":"passed"},"step":{"endLine":24,"line":18,"prefix":"*","docString":"{\n  \"name\": \"Raj\",\n  \"job\": \"QA Engineer\"\n}","index":0,"text":"def requestBody ="}},{"result":{"nanos":1198300,"startTime":1751864528519,"endTime":1751864528520,"millis":1.1983,"status":"passed"},"step":{"line":25,"prefix":"Given","index":1,"text":"path 'api', 'users'"}},{"result":{"nanos":2479500,"startTime":1751864528519,"endTime":1751864528521,"millis":2.4795,"status":"passed"},"step":{"line":26,"prefix":"And","index":2,"text":"request requestBody"}},{"result":{"nanos":2151947100,"startTime":1751864528521,"endTime":1751864530673,"millis":2151.9471,"status":"passed"},"step":{"line":27,"prefix":"When","index":3,"text":"method POST"},"stepLog":"10:32:08.574 request:\n1 > POST https:\/\/reqres.in\/api\/users\n1 > x-api-key: reqres-free-v1\n1 > Content-Type: application\/json; charset=UTF-8\n1 > Content-Length: 34\n1 > Host: reqres.in\n1 > Connection: Keep-Alive\n1 > User-Agent: Apache-HttpClient\/4.5.14 (Java\/11.0.22)\n1 > Accept-Encoding: gzip,deflate\n{\"name\":\"Raj\",\"job\":\"QA Engineer\"}\n\n10:32:10.672 response time in milliseconds: 2085\n1 < 201\n1 < Date: Mon, 07 Jul 2025 05:02:10 GMT\n1 < Content-Type: application\/json; charset=utf-8\n1 < Content-Length: 84\n1 < Connection: keep-alive\n1 < CF-RAY: 95b4c9c3effb80b8-BOM\n1 < Report-To: {\"group\":\"heroku-nel\",\"max_age\":3600,\"endpoints\":[{\"url\":\"https:\/\/nel.heroku.com\/reports?ts=1751864530&sid=c4c9725f-1ab0-44d8-820f-430df2718e11&s=J2ZTYcgPOYZoQOoT4Z2WufFxkR7fhNsiO%2B7fXnQ3%2Bdw%3D\"}]}\n1 < Reporting-Endpoints: heroku-nel=https:\/\/nel.heroku.com\/reports?ts=1751864530&sid=c4c9725f-1ab0-44d8-820f-430df2718e11&s=J2ZTYcgPOYZoQOoT4Z2WufFxkR7fhNsiO%2B7fXnQ3%2Bdw%3D\n1 < Nel: {\"report_to\":\"heroku-nel\",\"max_age\":3600,\"success_fraction\":0.005,\"failure_fraction\":0.05,\"response_headers\":[\"Via\"]}\n1 < X-Powered-By: Express\n1 < Access-Control-Allow-Origin: *\n1 < Ratelimit-Policy: 100;w=60\n1 < Ratelimit-Limit: 100\n1 < Ratelimit-Remaining: 98\n1 < Ratelimit-Reset: 60\n1 < Etag: W\/\"54-Qot46LaVq+Oz0KibQRKaAv4YmVE\"\n1 < Via: 1.1 vegur\n1 < cf-cache-status: DYNAMIC\n1 < Server: cloudflare\n1 < server-timing: cfL4;desc=\"?proto=TCP&rtt=455631&min_rtt=404849&rtt_var=253382&sent=4&recv=6&lost=0&retrans=0&sent_bytes=219&recv_bytes=1059&delivery_rate=1624&cwnd=250&unsent_bytes=0&cid=ee87d42d70d94e49&ts=1089&x=0\"\n{\"name\":\"Raj\",\"job\":\"QA Engineer\",\"id\":\"714\",\"createdAt\":\"2025-07-07T05:02:10.766Z\"}\n\n"},{"result":{"nanos":10000,"startTime":1751864530674,"endTime":1751864530674,"millis":0.01,"status":"passed"},"step":{"line":28,"prefix":"Then","index":4,"text":"status 201"}},{"result":{"nanos":1461500,"startTime":1751864530674,"endTime":1751864530675,"millis":1.4615,"status":"passed"},"step":{"line":29,"prefix":"And","index":5,"text":"match response.name == \"Raj\""}}],"line":17,"description":"","durationMillis":2171.8844,"failed":false,"tags":["post"],"executorName":"Test worker","name":"POST - Create a new user","startTime":1751864528449,"refId":"[2:17]","endTime":1751864530676,"exampleIndex":-1},{"sectionIndex":2,"stepResults":[{"result":{"nanos":255100,"startTime":1751864530695,"endTime":1751864530695,"millis":0.2551,"status":"passed"},"step":{"background":true,"line":4,"prefix":"*","index":0,"text":"url 'https:\/\/reqres.in'"},"stepLog":"10:32:10.686 karate.env system property was: null \n10:32:10.691 karate config: {\n  \"env\": \"dev\",\n  \"baseUrl\": \"https:\/\/automationexercise.com\",\n  \"baseAppUrl\": \"https:\/\/reqres.in\",\n  \"timeout\": 30000,\n  \"retryCount\": 3,\n  \"retryInterval\": 1000,\n  \"testUser\": {\n    \"name\": \"Test User\",\n    \"email\": \"testuser1751864530688@example.com\",\n    \"password\": \"testpass123\",\n    \"title\": \"Mr\",\n    \"birth_date\": \"1\",\n    \"birth_month\": \"1\",\n    \"birth_year\": \"1990\",\n    \"firstname\": \"Test\",\n    \"lastname\": \"User\",\n    \"company\": \"Test Company\",\n    \"address1\": \"123 Test Street\",\n    \"address2\": \"Apt 1\",\n    \"country\": \"India\",\n    \"zipcode\": \"12345\",\n    \"state\": \"Test State\",\n    \"city\": \"Test City\",\n    \"mobile_number\": \"1234567890\"\n  }\n}\n \n"},{"result":{"nanos":159700,"startTime":1751864530695,"endTime":1751864530695,"millis":0.1597,"status":"passed"},"step":{"background":true,"line":5,"prefix":"*","index":1,"text":"header x-api-key = 'reqres-free-v1'"}},{"result":{"nanos":121500,"startTime":1751864530695,"endTime":1751864530695,"millis":0.1215,"status":"passed"},"step":{"background":true,"line":6,"prefix":"*","index":2,"text":"header Content-Type = 'application\/json'"}},{"result":{"nanos":574700,"startTime":1751864530695,"endTime":1751864530696,"millis":0.5747,"status":"passed"},"step":{"endLine":39,"line":33,"prefix":"*","docString":"{\n  \"name\": \"Raj Updated\",\n  \"job\": \"Senior QA\"\n}","index":0,"text":"def updateBody ="}},{"result":{"nanos":714900,"startTime":1751864530695,"endTime":1751864530696,"millis":0.7149,"status":"passed"},"step":{"line":40,"prefix":"Given","index":1,"text":"path 'api', 'users', 2"}},{"result":{"nanos":262700,"startTime":1751864530697,"endTime":1751864530697,"millis":0.2627,"status":"passed"},"step":{"line":41,"prefix":"And","index":2,"text":"request updateBody"}},{"result":{"nanos":839963100,"startTime":1751864530697,"endTime":1751864531537,"millis":839.9631,"status":"passed"},"step":{"line":42,"prefix":"When","index":3,"text":"method PUT"},"stepLog":"10:32:10.699 request:\n1 > PUT https:\/\/reqres.in\/api\/users\/2\n1 > x-api-key: reqres-free-v1\n1 > Content-Type: application\/json; charset=UTF-8\n1 > Content-Length: 40\n1 > Host: reqres.in\n1 > Connection: Keep-Alive\n1 > User-Agent: Apache-HttpClient\/4.5.14 (Java\/11.0.22)\n1 > Accept-Encoding: gzip,deflate\n{\"name\":\"Raj Updated\",\"job\":\"Senior QA\"}\n\n10:32:11.536 response time in milliseconds: 835\n1 < 200\n1 < Date: Mon, 07 Jul 2025 05:02:12 GMT\n1 < Content-Type: application\/json; charset=utf-8\n1 < Transfer-Encoding: chunked\n1 < Connection: keep-alive\n1 < Report-To: {\"group\":\"heroku-nel\",\"max_age\":3600,\"endpoints\":[{\"url\":\"https:\/\/nel.heroku.com\/reports?ts=1751864532&sid=c4c9725f-1ab0-44d8-820f-430df2718e11&s=ELX3o%2FxCjZAGUL5pCNJfnoTKCO1sa9rUVa%2FZODcWwQI%3D\"}]}\n1 < Reporting-Endpoints: heroku-nel=https:\/\/nel.heroku.com\/reports?ts=1751864532&sid=c4c9725f-1ab0-44d8-820f-430df2718e11&s=ELX3o%2FxCjZAGUL5pCNJfnoTKCO1sa9rUVa%2FZODcWwQI%3D\n1 < Nel: {\"report_to\":\"heroku-nel\",\"max_age\":3600,\"success_fraction\":0.005,\"failure_fraction\":0.05,\"response_headers\":[\"Via\"]}\n1 < X-Powered-By: Express\n1 < Access-Control-Allow-Origin: *\n1 < Ratelimit-Policy: 100;w=60\n1 < Ratelimit-Limit: 100\n1 < Ratelimit-Remaining: 96\n1 < Ratelimit-Reset: 59\n1 < Etag: W\/\"4f-HEze3Je8iR7spqXEiTqL2M0l1Qo\"\n1 < Via: 1.1 vegur\n1 < CF-Cache-Status: DYNAMIC\n1 < Vary: Accept-Encoding\n1 < Server: cloudflare\n1 < CF-RAY: 95b4c9cbfec00028-BOM\n1 < server-timing: cfL4;desc=\"?proto=TCP&rtt=192790&min_rtt=143911&rtt_var=88880&sent=4&recv=6&lost=0&retrans=0&sent_bytes=219&recv_bytes=1066&delivery_rate=9158&cwnd=250&unsent_bytes=0&cid=61013ded750635cf&ts=483&x=0\"\n{\"name\":\"Raj Updated\",\"job\":\"Senior QA\",\"updatedAt\":\"2025-07-07T05:02:12.094Z\"}\n\n"},{"result":{"nanos":10000,"startTime":1751864531536,"endTime":1751864531536,"millis":0.01,"status":"passed"},"step":{"line":43,"prefix":"Then","index":4,"text":"status 200"}},{"result":{"nanos":1017300,"startTime":1751864531536,"endTime":1751864531537,"millis":1.0173,"status":"passed"},"step":{"line":44,"prefix":"And","index":5,"text":"match response.name == \"Raj Updated\""}}],"line":32,"description":"","durationMillis":843.079,"failed":false,"tags":["put"],"executorName":"Test worker","name":"PUT - Update user information","startTime":1751864530686,"refId":"[3:32]","endTime":1751864531538,"exampleIndex":-1},{"sectionIndex":3,"stepResults":[{"result":{"nanos":230500,"startTime":1751864531555,"endTime":1751864531555,"millis":0.2305,"status":"passed"},"step":{"background":true,"line":4,"prefix":"*","index":0,"text":"url 'https:\/\/reqres.in'"},"stepLog":"10:32:11.547 karate.env system property was: null \n10:32:11.553 karate config: {\n  \"env\": \"dev\",\n  \"baseUrl\": \"https:\/\/automationexercise.com\",\n  \"baseAppUrl\": \"https:\/\/reqres.in\",\n  \"timeout\": 30000,\n  \"retryCount\": 3,\n  \"retryInterval\": 1000,\n  \"testUser\": {\n    \"name\": \"Test User\",\n    \"email\": \"testuser1751864531549@example.com\",\n    \"password\": \"testpass123\",\n    \"title\": \"Mr\",\n    \"birth_date\": \"1\",\n    \"birth_month\": \"1\",\n    \"birth_year\": \"1990\",\n    \"firstname\": \"Test\",\n    \"lastname\": \"User\",\n    \"company\": \"Test Company\",\n    \"address1\": \"123 Test Street\",\n    \"address2\": \"Apt 1\",\n    \"country\": \"India\",\n    \"zipcode\": \"12345\",\n    \"state\": \"Test State\",\n    \"city\": \"Test City\",\n    \"mobile_number\": \"1234567890\"\n  }\n}\n \n"},{"result":{"nanos":151700,"startTime":1751864531555,"endTime":1751864531555,"millis":0.1517,"status":"passed"},"step":{"background":true,"line":5,"prefix":"*","index":1,"text":"header x-api-key = 'reqres-free-v1'"}},{"result":{"nanos":114300,"startTime":1751864531555,"endTime":1751864531555,"millis":0.1143,"status":"passed"},"step":{"background":true,"line":6,"prefix":"*","index":2,"text":"header Content-Type = 'application\/json'"}},{"result":{"nanos":1805800,"startTime":1751864531555,"endTime":1751864531557,"millis":1.8058,"status":"passed"},"step":{"endLine":53,"line":48,"prefix":"*","docString":"{\n  \"job\": \"Lead QA\"\n}","index":0,"text":"def patchBody ="}},{"result":{"nanos":10439200,"startTime":1751864531557,"endTime":1751864531567,"millis":10.4392,"status":"passed"},"step":{"line":54,"prefix":"Given","index":1,"text":"path 'api', 'users', 2"}},{"result":{"nanos":1460200,"startTime":1751864531569,"endTime":1751864531570,"millis":1.4602,"status":"passed"},"step":{"line":55,"prefix":"And","index":2,"text":"request patchBody"}},{"result":{"nanos":698880000,"startTime":1751864531569,"endTime":1751864532268,"millis":698.88,"status":"passed"},"step":{"line":56,"prefix":"When","index":3,"text":"method PATCH"},"stepLog":"10:32:11.571 request:\n1 > PATCH https:\/\/reqres.in\/api\/users\/2\n1 > x-api-key: reqres-free-v1\n1 > Content-Type: application\/json; charset=UTF-8\n1 > Content-Length: 17\n1 > Host: reqres.in\n1 > Connection: Keep-Alive\n1 > User-Agent: Apache-HttpClient\/4.5.14 (Java\/11.0.22)\n1 > Accept-Encoding: gzip,deflate\n{\"job\":\"Lead QA\"}\n\n10:32:12.268 response time in milliseconds: 682\n1 < 200\n1 < Date: Mon, 07 Jul 2025 05:02:12 GMT\n1 < Content-Type: application\/json; charset=utf-8\n1 < Transfer-Encoding: chunked\n1 < Connection: keep-alive\n1 < Report-To: {\"group\":\"heroku-nel\",\"max_age\":3600,\"endpoints\":[{\"url\":\"https:\/\/nel.heroku.com\/reports?ts=1751864532&sid=c4c9725f-1ab0-44d8-820f-430df2718e11&s=ELX3o%2FxCjZAGUL5pCNJfnoTKCO1sa9rUVa%2FZODcWwQI%3D\"}]}\n1 < Reporting-Endpoints: heroku-nel=https:\/\/nel.heroku.com\/reports?ts=1751864532&sid=c4c9725f-1ab0-44d8-820f-430df2718e11&s=ELX3o%2FxCjZAGUL5pCNJfnoTKCO1sa9rUVa%2FZODcWwQI%3D\n1 < Nel: {\"report_to\":\"heroku-nel\",\"max_age\":3600,\"success_fraction\":0.005,\"failure_fraction\":0.05,\"response_headers\":[\"Via\"]}\n1 < X-Powered-By: Express\n1 < Access-Control-Allow-Origin: *\n1 < Ratelimit-Policy: 100;w=60\n1 < Ratelimit-Limit: 100\n1 < Ratelimit-Remaining: 94\n1 < Ratelimit-Reset: 58\n1 < Etag: W\/\"38-gLr2m40LmT5fSfAHSK+NtDd0SS0\"\n1 < Via: 1.1 vegur\n1 < cf-cache-status: DYNAMIC\n1 < Server: cloudflare\n1 < CF-RAY: 95b4c9d0bed6402b-BOM\n1 < server-timing: cfL4;desc=\"?proto=TCP&rtt=101018&min_rtt=73975&rtt_var=47057&sent=4&recv=6&lost=0&retrans=0&sent_bytes=219&recv_bytes=1045&delivery_rate=17816&cwnd=250&unsent_bytes=0&cid=3f185330393e783f&ts=403&x=0\"\n{\"job\":\"Lead QA\",\"updatedAt\":\"2025-07-07T05:02:12.823Z\"}\n\n"},{"result":{"nanos":10700,"startTime":1751864532268,"endTime":1751864532268,"millis":0.0107,"status":"passed"},"step":{"line":57,"prefix":"Then","index":4,"text":"status 200"}},{"result":{"nanos":974200,"startTime":1751864532268,"endTime":1751864532269,"millis":0.9742,"status":"passed"},"step":{"line":58,"prefix":"And","index":5,"text":"match response.job == \"Lead QA\""}}],"line":47,"description":"","durationMillis":714.0666,"failed":false,"tags":["patch"],"executorName":"Test worker","name":"PATCH - Partially update user","startTime":1751864531547,"refId":"[4:47]","endTime":1751864532270,"exampleIndex":-1},{"sectionIndex":4,"stepResults":[{"result":{"nanos":216300,"startTime":1751864532284,"endTime":1751864532284,"millis":0.2163,"status":"passed"},"step":{"background":true,"line":4,"prefix":"*","index":0,"text":"url 'https:\/\/reqres.in'"},"stepLog":"10:32:12.278 karate.env system property was: null \n10:32:12.282 karate config: {\n  \"env\": \"dev\",\n  \"baseUrl\": \"https:\/\/automationexercise.com\",\n  \"baseAppUrl\": \"https:\/\/reqres.in\",\n  \"timeout\": 30000,\n  \"retryCount\": 3,\n  \"retryInterval\": 1000,\n  \"testUser\": {\n    \"name\": \"Test User\",\n    \"email\": \"testuser1751864532280@example.com\",\n    \"password\": \"testpass123\",\n    \"title\": \"Mr\",\n    \"birth_date\": \"1\",\n    \"birth_month\": \"1\",\n    \"birth_year\": \"1990\",\n    \"firstname\": \"Test\",\n    \"lastname\": \"User\",\n    \"company\": \"Test Company\",\n    \"address1\": \"123 Test Street\",\n    \"address2\": \"Apt 1\",\n    \"country\": \"India\",\n    \"zipcode\": \"12345\",\n    \"state\": \"Test State\",\n    \"city\": \"Test City\",\n    \"mobile_number\": \"1234567890\"\n  }\n}\n \n"},{"result":{"nanos":169500,"startTime":1751864532286,"endTime":1751864532286,"millis":0.1695,"status":"passed"},"step":{"background":true,"line":5,"prefix":"*","index":1,"text":"header x-api-key = 'reqres-free-v1'"}},{"result":{"nanos":110500,"startTime":1751864532286,"endTime":1751864532286,"millis":0.1105,"status":"passed"},"step":{"background":true,"line":6,"prefix":"*","index":2,"text":"header Content-Type = 'application\/json'"}},{"result":{"nanos":295400,"startTime":1751864532286,"endTime":1751864532286,"millis":0.2954,"status":"passed"},"step":{"line":62,"prefix":"Given","index":0,"text":"path 'api', 'users', 2"}},{"result":{"nanos":515717200,"startTime":1751864532286,"endTime":1751864532802,"millis":515.7172,"status":"passed"},"step":{"line":63,"prefix":"When","index":1,"text":"method DELETE"},"stepLog":"10:32:12.288 request:\n1 > DELETE https:\/\/reqres.in\/api\/users\/2\n1 > x-api-key: reqres-free-v1\n1 > Content-Type: application\/json\n1 > Host: reqres.in\n1 > Connection: Keep-Alive\n1 > User-Agent: Apache-HttpClient\/4.5.14 (Java\/11.0.22)\n1 > Accept-Encoding: gzip,deflate\n\n\n10:32:12.801 response time in milliseconds: 510\n1 < 204\n1 < Date: Mon, 07 Jul 2025 05:02:13 GMT\n1 < Connection: keep-alive\n1 < CF-RAY: 95b4c9d3ef51409f-BOM\n1 < Report-To: {\"group\":\"heroku-nel\",\"max_age\":3600,\"endpoints\":[{\"url\":\"https:\/\/nel.heroku.com\/reports?ts=1751864533&sid=c4c9725f-1ab0-44d8-820f-430df2718e11&s=%2ByS2qFcQOrosk3zeXtCJm9nhvphm56ykEGZ8MONw0Y8%3D\"}]}\n1 < Reporting-Endpoints: heroku-nel=https:\/\/nel.heroku.com\/reports?ts=1751864533&sid=c4c9725f-1ab0-44d8-820f-430df2718e11&s=%2ByS2qFcQOrosk3zeXtCJm9nhvphm56ykEGZ8MONw0Y8%3D\n1 < Nel: {\"report_to\":\"heroku-nel\",\"max_age\":3600,\"success_fraction\":0.005,\"failure_fraction\":0.05,\"response_headers\":[\"Via\"]}\n1 < X-Powered-By: Express\n1 < Access-Control-Allow-Origin: *\n1 < Ratelimit-Policy: 100;w=60\n1 < Ratelimit-Limit: 100\n1 < Ratelimit-Remaining: 92\n1 < Ratelimit-Reset: 58\n1 < Etag: W\/\"2-vyGp6PvFo4RvsFtPoIWeCReyIC8\"\n1 < Via: 1.1 vegur\n1 < cf-cache-status: DYNAMIC\n1 < Server: cloudflare\n1 < server-timing: cfL4;desc=\"?proto=TCP&rtt=50093&min_rtt=49750&rtt_var=19342&sent=3&recv=6&lost=0&retrans=0&sent_bytes=219&recv_bytes=994&delivery_rate=25106&cwnd=250&unsent_bytes=0&cid=93aa8e72d573cbda&ts=362&x=0\"\n\n\n"},{"result":{"nanos":10900,"startTime":1751864532802,"endTime":1751864532802,"millis":0.0109,"status":"passed"},"step":{"line":64,"prefix":"Then","index":2,"text":"status 204"}}],"line":61,"description":"","durationMillis":516.5198,"failed":false,"tags":["delete"],"executorName":"Test worker","name":"DELETE - Delete user","startTime":1751864532276,"refId":"[5:61]","endTime":1751864532802,"exampleIndex":-1}],"callDepth":0,"name":"Reqres API Test Scenarios with Different HTTP Methods","description":"","resultDate":"2025-07-07 10:32:12 AM","durationMillis":6543.329,"passedCount":5}